Episode,Difference
268,0.0
271,0.0
459,0.0
1323,0.0
1475,0.0
1778,3.448467219927585e-14
1783,3.832001279985189e-15
3848,7.282038287024886
4457,0.26979859154921115
4542,0.03441647168622275
4576,0.004409710090244268
5116,0.70799976736002
5453,0.5204929442685229
6294,6.188181010641549
6865,0.7490251841814576
6896,0.10650382162674377
7321,0.08138373208231697
7463,0.6619324645557336
8965,0.05611594930560104
9734,0.21218557354779155
10847,0.5686336776934964
12194,1.1668360153452992
13433,0.064875619602625
13495,0.056820726888775486
13526,0.010289173802867424
14374,0.34358860850738004
15217,0.09421796618315792
15445,0.020922997532602405
16722,0.1536043846772961
17346,0.03278796899425607
17354,0.006652316250794987
18329,0.053950488995875734
18983,5.425843909430836
20019,1.1865906014566416
20309,0.25776869218226395
20341,0.05650639379050304
21745,0.18672513061827978
22321,0.042229312045137135
22408,0.009714488772328167
22764,0.002235071878066819
22904,4.766998610200728
23215,0.2660430280910333
23657,0.06232272679716999
24300,0.01472570056888145
26050,0.0035023725222664837
26062,0.0008755759050664835
26392,0.0002184579939932263
26709,1.2760399717963384
26843,0.5601915679825282
27775,3.636311475598868
28393,1.3590649135776385
29142,3.2500100586867653
29295,0.8638185871758033
30629,3.279865978983473
30996,2.447173165611016
31812,0.893408626433537
32051,0.24943657761762061
33591,5.427953411911265
33626,1.5660081619986492
33757,0.45177509169512575
34129,0.13040591363795695
34294,0.12077313211157881
34530,0.12323230863226486
35541,0.18455707840712687
35609,0.05501309311589786
35647,0.01642020958325041
35673,0.0049045492569246285
36275,0.5479622144094529
36316,0.16533856767550015
37002,2.3631325769885265
37785,1.9083909294418238
37787,0.5899918378141391
38068,0.18204974386147876
38432,0.05638772440264184
38676,0.017578863919479826
38774,0.005506428337606062
38837,0.0017278554068014262
39176,0.8886371819501848
39280,0.2804763090473441
39713,0.08846097816048559
40122,0.04002006841856676
40644,1.7490444986390368
41567,2.322858282856517
42061,0.7574394524554322
43888,0.23923535478572755
44083,0.8219876229726877
44107,0.2785706373865482
44129,0.09443951207439039
44255,0.032002676779334216
45034,0.1368186645064311
45437,2.7362350693016926
45629,1.4282696654150215
46111,0.4926178299731212
47649,0.035704922952598084
50007,2.1312938561437744
50323,0.6903674490849078
51154,0.2885548344164355
52118,1.2971498503973855
52209,0.4862639269574158
53380,0.6212754994744736
53500,0.23626256854160044
55467,0.13438124746739977
55807,0.052228981267697705
56748,0.10460262465592862
56967,0.041258706121304556
57208,0.10818119473400323
57793,0.04277056622148345
58232,0.01703215748703668
58549,0.03322654046442608
58817,0.013352491013761458
59156,0.005378109943002585
60246,0.0021623776293644426
64280,2.0287004376985234
65403,0.9450335807487655
65795,0.2918828307738366
66116,0.9584030801378849
66263,0.41497931879430716
67345,0.17874985774184005
67659,1.5545711785141316
68117,1.2214684110501133
69059,0.4856587328577473
70009,1.3695017758570367
70441,0.05506778885086416
71858,1.601431650716982
72125,1.5059308029213723
73639,1.566366406599581
74184,0.7573719893678166
74707,0.35054891205153216
74909,0.22839276601664693
75194,3.686036876555704
76978,2.03274129981435
80264,1.752516502554999
80892,2.3782579807535384
81942,1.880834817972458
82109,0.9258855450670729
82921,0.5179062053001409
82947,0.25699687784535685
84064,2.0808695694444785
84310,1.479587898599263
85310,0.7363771371139123
86224,0.8784473751387392
86285,0.445907346373553
86443,1.2192751597649236
87189,1.1674307918042368
87704,0.6411419545630297
89040,0.1793036413010496
89593,0.054492057219668766
89897,0.028237378656615242
90631,0.18802806671838912
91160,0.09793335052273999
91723,0.0511679551366484
93376,2.5010372706083754
93601,1.5068240439226046
93960,1.1710181153691015
94383,0.6232048273172754
94727,0.33270421082657187
94908,0.17819178946066128
97799,1.723901601162002
100766,0.8900625110758176
101191,1.191032654603168
101825,0.6927354648957871
104188,0.5456125016688969
104918,0.6386292008108716
105187,0.3621828266074508
106839,0.7874361397702553
107788,0.7661731102854143
107806,0.4418597158948119
108944,0.7969660184445049
109325,1.688922652530366
110726,0.2403456218320669
110774,0.14065050613850788
111071,0.42119053827204367
111117,0.24690566751911525
111293,0.1446394997917113
111821,0.0845959252638041
112073,0.049702319205430556
112075,0.029288600358941874
112167,0.017248495277367493
112304,0.010159254180412192
112996,1.360673298703943
113072,0.8049999495798591
115687,1.022888050529601
115707,0.6131851023404657
116762,0.37810720630265554
117063,1.080273405844809
117691,0.0839510332137472
117909,0.05072355477557133
117951,0.03071569090613724
118110,0.02129389865842035
118182,0.018532584798853557
118221,0.011236604130802519
118649,0.03174256398208586
118829,0.008011113640420398
119282,1.7712776207704817
120003,0.7327773524325774
120614,0.4461561172038402
121841,1.6299992277235487
123035,0.9678510042793547
123333,0.5984553088325726
124308,0.22105178391167923
128028,1.4136924502275428
128766,0.8898205845604608
128867,0.5770641010317958
129244,0.42595885124067445
130329,2.1269641158734736
131018,0.567122888708786
133054,0.7946882149416996
136041,1.7527417996407966
138606,1.1237014571457142
140405,1.5296447892883975
141020,0.920513326087681
141071,0.6115739535067268
141949,1.565035394255287
142713,1.1403610212174904
143662,1.047140754533384
144471,1.4408716810936801
144636,0.9680482989528978
145438,1.483411048505021
146802,1.0418128644473321
146926,0.7056570939708626
146951,0.4784952749306428
148666,0.27579750878872744
150954,0.17766334975178166
151118,0.1219413061758714
151406,0.08366689925923954
151484,0.05754297226765548
152394,0.7496441197781234
155397,1.0343881446765142
156176,0.7167702581840052
156438,0.499660402210897
157717,0.4747797970353256
157939,0.3325956319319898
159480,0.18449496781700425
160276,0.5982548313662832
161519,0.4192502574612069
161965,0.5282762527192695
162053,0.3750340040888487
162292,0.47087056610443057
162297,0.334786633834784
163674,1.3714195094512425
163750,1.085664551273438
164038,0.7888359020067113
165111,0.5594294884965549
165654,0.32664232254968883
166040,0.32966822927958406
168046,1.2700843362080159
170486,0.8696579590982536
170742,0.6357109688269862
170783,0.4624216165091838
171887,0.2557705315881555
172906,0.5944229341986804
173061,0.05198887679583053
173130,0.03803765141257065
173750,0.6125463381917473
173806,0.4489997221970823
174836,0.3269294770990383
174999,0.24012120698394224
175088,0.17652659966329143
177715,0.49478139559822343
179698,1.488206127122683
181226,1.1240338994273535
181860,0.835813351935434
182284,0.6233455169217952
182719,0.7268284376563221
184163,0.5392954860591228
185455,0.7430301595396456
185786,0.5591513352357462
186669,0.5141473742464218
186790,0.8342730437778658
186810,0.7221704715893855
187422,0.32981833293850504
187959,0.24894413811955982
188332,0.1883425870053439
189218,0.6532829136933644
190154,0.49368241950375646
191466,0.859800496043073
192333,0.6532539724801909
192630,0.019934431851983625
193083,0.5198682737066997
193417,0.3978341074112284
193847,0.30445756066327023
197017,0.6199512271921801
198035,1.5069301665441452
198291,1.1301169590326685
198359,0.8758645815538859
199610,0.657161180772162
200267,0.5246416875141726
200294,0.40834356570064223
200912,0.6354832353154292
201813,0.5431139645331085
202053,0.42338409102531216
203035,0.3284936006522843
203469,0.6708022077121667
204186,0.5511182058380957
204516,0.7262109867252127
205561,0.5697064954494899
206071,0.45379601369417033
206827,0.3588948171322568
207455,0.6857512142494921
208402,1.084976825897857
208803,1.2319282664878535
209004,0.073234146205303
210940,0.32850036944266336
211728,0.2595326368603704
212440,0.5756724709689506
213169,0.45622935509893847
215020,0.032964240041005066
215445,0.026299988824583842
215678,0.01779796035820458
215807,0.014245594761072566
218220,0.8806143716673015
218507,0.85683073939368
218593,0.6893581517076566
219641,0.5208408340150354
219787,0.41966556739035443
220293,0.3373755482219525
220581,0.2718655836626711
221003,0.12906443435071457
221063,0.10429259628951826
222045,0.08374148501298517
222047,0.06781273613433259
223860,0.2319823774274945
224308,0.1878259573627883
224537,0.15241801809144384
226168,0.3924800831239219
226381,0.6064939904478575
229991,0.4465472597379332
230242,0.08195176413555139
231606,0.09421488681726853
231634,0.07743991505412628
231743,0.06361834641604114
231788,0.0522957144155769
232732,0.04272148792635244
232774,0.035171128555534725
233608,0.36138131609326374
234021,0.11728211958699042
235004,0.1906411776049488
235672,0.1567904759571146
238010,0.14200613442471433
238998,0.32032250080740177
240316,0.3194475222979536
240991,0.4003451073776976
241622,0.3015321088895533
242029,0.2508092346676456
243537,0.24272905165366154
243769,0.2026804869774832
244661,0.09752525688475622
245009,0.3009467656298792
247332,0.41466115704514284
247885,0.6337227775418208
248891,0.4474315958828612
248960,0.3767269979980785
249532,0.3161090481843125
249831,0.26595089289582496
250140,0.22382291200715265
250213,0.055291690662823356
252784,0.11540734622494675
254761,0.09636340777207941
255024,0.08163596176009413
255121,0.06926245429405142
255533,0.28108073422765223
255598,0.23868182292679307
255643,0.20272317566080655
256735,0.015262562093953491
256821,0.18388241725968335
257518,0.13598745948981428
258442,0.2729642564376391
258889,0.2319959240007332
260593,0.1705151430527092
260884,0.14545631447172624
263335,0.12310775467130419
263402,0.10552040210202662
264874,0.07374853581079144
265258,0.06318487270219286
265763,0.054112324953459634
266940,0.04615161567851089
269207,0.3563206091123643
269620,0.30671559419148053
269665,0.2648183226922489
270345,0.2276414560366078
270783,0.19616235423380957
271016,0.016515963574456727
272031,0.01418513083649664
272300,0.012260559099817492
272897,0.28115611729982337
274002,0.06774989438941503
274275,0.058680469333734386
275758,0.1903193613316292
275771,0.16544967618063566
275905,0.14370999029929088
276061,0.1248251995772538
278297,0.05725313638390439
278615,0.07780875764484918
281857,0.08952991831211143
282110,0.07818789089002287
282211,0.06837271092122776
282865,0.0680397804631312
283804,0.14849504869021501
285233,0.41880492261719127
286028,0.23907661739696717
286570,0.20922503218040944
287092,0.18322235237730045
289598,0.21249004481970513
290116,0.18662442027009174
290445,0.16420419891640137
291983,0.15668206906717597
292253,0.15316938437199834
292902,0.020315662796480893
293408,0.01789907297239335
293776,0.015792493935298246
295122,0.09557460793142525
295769,0.08429266869772878
296084,0.07455880121918224
296180,0.06606877979433179
296215,0.05857554886890437
297855,0.05135358050204886
298702,0.1665187956143157
299115,0.147571743896731
299333,0.019335399930303865
299513,0.017172791215941174
299526,0.015272298297320575
300124,0.01352677867204033
300588,0.01199823118284904
300897,0.01065824030062501
301472,0.09014368286738694
301625,0.08022468393038373
303511,0.05938092289715158
303764,0.052901570104539886
306702,0.033394848097533014
307143,0.029790922472044734
307239,0.026649835562795765
307248,0.02385633736903703
307492,0.021320716201863377
307830,0.019045867709846398
307978,0.017041083422994596
308675,0.10447570253080496
309789,0.2711700215663324
310502,0.1326849761204727
310511,0.11909051735073994
311362,0.10626151483076995
311401,0.09541957917066402
312038,0.1689893471095738
312176,0.1517232459180713
312519,0.13604073688406437
314030,0.10301990633562319
314647,0.006282615723458562
315869,0.005609484178762614
317257,0.05468935249980511
317443,0.049283590007185296
317464,0.04446974740627674
317469,0.04013123547282049
317796,0.04187387756948446
317818,0.037793603233048145
318198,0.034026108817379
319458,0.10639038651950727
319929,0.09584151089507387
321145,0.019125230024267026
321600,0.01725237015354608
321948,0.0155797750030775
323185,0.05804785261713086
324574,0.0363980816893541
324810,0.03296604716380713
325470,0.02977416483837203
326051,0.026918868583525324
326538,0.09248418816357784
326714,0.08391592490762712
328463,0.020611259538053872
329223,0.04708980100072502
329569,0.10766901618282532
330172,0.14514807933538876
330825,0.11447696830366105
333630,0.0026055783394109966
333636,0.0023785473433175497
334010,0.07708601523816228
334361,0.07021735921402339
334650,0.06400342875245535
336032,0.00948289972629901
336132,0.008664696236566627
336153,0.007921987522022889
336709,0.07926383566725015
336733,0.07249542256042929
337972,0.07740410295129152
339119,0.07029776920401432
340767,0.16276164203602939
340805,0.14923712389109767
340917,0.13676883522983907
342360,0.012106537066651768
343763,0.02129145827374579
345561,0.0864096020448013
345937,0.07927788182998619
347215,0.12320695947974158
348887,0.19690879167033692
349687,0.2285023565147739
349766,0.21060035361418628
349848,0.19410586306834254
349870,0.1789870609004236
350006,0.16491634094388807
350037,0.1520756849359568
350638,0.18659545894271012
350709,0.17208259544492854
350825,0.15865512466803722
351280,0.0250485339889579
353613,0.010750598639694076
353860,0.05542648071673639
354081,0.051157349353021075
354182,0.047262693342089435
355609,0.16173154307523419
355809,0.09232901607816935
356903,0.08479220663696552
356961,0.07848561339241833
357301,0.07250717198257561
357385,0.06711700856950031
358369,0.047571392098605614
358455,0.04406046251754603
358593,0.040795740101142286
360763,0.006538207609247948
361211,0.006048273687277117
361443,0.0056048804198916
361543,0.005199445949177317
362424,0.004797300945449834
362996,0.004437948122419044
364051,0.0040929094418551415
364374,0.05357858887385447
364715,0.049696965397682646
365576,0.045937339848059366
365934,0.0909298775378673
366607,0.13182236635184807
367425,0.0833860198483034
367647,0.039427818282606
370163,0.0450758678467178
370393,0.04196825975299845
371377,0.04767792470744325
371400,0.04448250032087131
372106,0.09352852735993444
372990,0.08676745054974866
373336,0.08083436579004477
374642,0.15929307871642173
375557,0.1479311710638136
376932,0.2180736956347502
378052,0.20245362075827167
378511,0.19143634424535882
379365,0.1781900097388096
380137,0.2025162753466283
380214,0.18967705521130718
380636,0.21477996545949196
380941,0.2025160616674535
381030,0.18973236054970943
382283,0.1787594462515285
383407,0.1339782479205649
384550,0.09707677748208798
385004,0.09086776401940355
385105,0.08528388030505951
386948,0.057488613575081615
387561,0.05380989826863036
387920,0.05046999815240216
390737,0.0550667514352865
390779,0.051835846331002244
391622,0.00788689490169503
393086,0.03002910567759809
393231,0.028275418236014538
394062,0.005391168574735872
395114,0.03636000544508722
395535,0.03419986906374817
396719,0.062274138013844293
396860,0.05872873287182401
396878,0.055436126798503516
398609,0.051704786094076916
399776,0.07724455458285195
400354,0.07271556624302189
401797,0.12681338324737101
402310,0.14687162522545627
402383,0.1388913643725207
403731,0.15685977026214726
405875,0.17215249879723782
406490,0.11473279563286187
407151,0.10823047532048502
408070,0.10193840694255663
408179,0.09659207030516548
409354,0.07020095235092505
411519,0.025990856503383952
413463,0.01554107537193783
414516,0.008722071575480328
414672,0.008281790786297982
414897,0.007860383818163896
416201,0.01290106461005358
417236,0.012182116166092882
418176,0.008958595221615795
418217,0.00852442578519419
418441,0.00810103171762222
418628,0.007701271828571166
418721,0.0073265420437396145
419536,0.03663596416296766
420268,0.03470886818527763
421053,0.05585179557202036
421078,0.053204599744929304
421840,0.07127300371252066
421987,0.0678554091826653
422837,0.045428248914864966
424942,0.024426433634317846
427249,0.007198910967065153
428090,0.02760902456819636
428839,0.02622984041303056
429421,0.02495484193469366
429496,0.023830764253885306
432909,0.017971066338560604
434894,0.000717819123109642
436167,0.012775205867693984
436789,0.027346577012790974
436815,0.026184944658038667
436985,0.007947070706129544
437199,0.0075999464832943175
437682,0.009605835906022264
438479,0.009150809014524697
439187,0.006042230821313943
440276,0.005746899860889165
440684,0.01987732514515539
443032,0.060395106321933234
443132,0.05790885792531064
443637,0.05536940420556924
443769,0.05308762178737947
443915,0.0643999165426754
446121,0.03035847833454408
446769,0.013989488261017868
446833,0.013431592682443316
447658,0.012827667678899424
448459,0.012255851682070329
448493,0.011775248820359074
449595,0.0031806470299766687
449818,0.003052860934013246
450011,0.004599140294493154
453122,0.04561241413252404
453300,0.04383664451554914
453311,0.042181347015350035
453543,0.05388673225038243
455812,0.04027824437529848
456219,0.03867641063563099
456783,0.037101546396637985
457033,0.024111854867105542
458901,0.03534867488429949
459315,0.03396914158002762
459633,0.032668944561190294
459645,0.031488508705990625
459974,0.030283547403670674
462881,0.01882674242663196
463015,0.01814622374125463
463742,0.04063324574404614
463888,0.03916980697482764
464415,0.049069645834799225
465861,0.04771369841409179
466528,0.04585230683331876
466922,0.04415516864034874
466998,0.04261977929349836
467227,0.041094519753576364
467831,0.05037033906910526
470752,0.06851590003375119
471268,0.06599191817011185
471615,0.06364406799604705
473467,0.05189954684049436
473885,0.05005447142949215
474099,0.03908631938691265
474218,0.037781389154106115
474426,0.03649830369098517
474497,0.035294350021821685
474559,0.03413283071880535
475033,0.023807318344710282
475036,0.02303623892631279
477394,0.03214964694341127
477572,0.031087324712807174
478536,0.039232073577343485
478626,0.03796904084830777
480465,0.028356065530612096
481037,0.02736270044486666
481319,0.01810244785055648
481322,0.017541362696245955
482744,0.008637129792496534
483110,0.008350830924505281
484111,2.503480056992302e-05
484451,0.017249295233538575
487578,0.006592750087416999
488151,0.006371687675255977
488196,0.006181595881380897
488338,0.005993161983512962
488765,0.00579906702692945
490917,0.011609101207055605
491125,0.011256477675344545
492996,0.01078871336717846
493908,0.0035682184252134874
494064,0.003463233149124001
495038,0.010191073763335723
496006,0.004918145112105865
497242,0.008546540289898097
499196,0.006936879753072667
499483,0.0067337446516888555
499746,0.00044566668982115587
500409,0.007328983316415627
500693,0.00711620577987393
501422,0.006888496795187216
504053,0.005058153676834376
504121,0.0049221858368500016
505223,0.004201830989279731
505475,0.002354907113559346
506470,0.002774229154921759
506745,0.002696973519468404
507295,0.0026169612280204646
508028,0.00253633126670616
508053,0.0024707337265210683
508405,0.002401340886992287
508585,0.00895126060191842
509366,0.014249987152342491
509564,0.013868045561510112
509687,0.019025179885636234
509816,0.01852528001150544
510766,0.01793556715267952
512326,0.01672859956339856
512975,0.009852389439194642
513085,0.009600475774697248
513737,0.014558059491494912
513770,0.014195397389809905
515107,0.0023636711057388737
515245,0.0033129974934174022
516057,0.00877214098472523
516554,0.008950430542341792
516925,0.008711140819278818
517896,0.008443257687279715
518812,0.008188135658919737
519331,0.013244255663048321
520562,0.018016201332237358
521009,0.012749504266486245
522640,0.012665871059980294
523039,0.01734546391195524
523910,0.01684126914011541
524253,0.01641464013669669
525038,0.01595029480434773
525220,0.015566647052861704
525237,0.015210236222919171
527023,0.010558722274880417
527304,0.01030093436037749
527826,0.0100329548037279
528201,0.009782826620229557
528938,0.00557573296179914
530155,0.0012092692211913558
530209,0.0011822110393602259
530741,0.0011519073927095391
531015,0.0011245033786675407
531999,0.0029880024303139407
532673,0.0029093329775684573
533752,0.0015270364429946781
533777,0.0014940065028299365
534487,0.0014547045539132775
534869,0.0056693010055184345
535811,0.013908609372790703
536186,0.013578726340553793
536372,0.013274969589119667
537126,0.02111689961827201
537674,0.02083086491784769
537918,0.020361156857861218
538383,0.019871998516264977
538521,0.019663607540399308
538588,0.01924647388281331
539345,0.018747606321746435
540479,0.014547446060766855
541783,0.014366381118964267
541973,0.01405624045549514
542175,0.01375201835696993
542241,0.013467588748850456
543912,0.013041816708865284
544088,0.012765429976801634
544881,0.016113915209877483
545163,0.015762897463833525
545748,0.015387470502735034
546282,0.015027589736216207
546605,0.014698922239166023
547781,0.01119513043266318
548170,0.0076606703494053185
548464,0.00749661852769723
549090,0.007319348261781933
550440,0.003928706521102665
550829,0.0006857902887373868
551561,0.0006692938378858315
552186,0.000894163798090819
552574,0.0008749194052359854
555213,0.0048869229391761415
555699,0.004780392275607781
559356,0.0047494291207761385
560211,0.007598395624037302
560273,0.007459672294485742
561710,0.004717775830993087
561782,0.004632197183290998
562269,0.004535018678645475
563004,0.0008812129770907617
563531,0.0008626164310943096
563805,0.0008459645471599053
563883,0.0008308013735152109
564283,0.000814080859629307
564701,0.000797635796931484
565084,0.0007817547119852719
565767,0.0033162920229456994
565875,0.0032569524604211253
566031,0.0031976422742223676
566837,0.003125219741025642
567182,0.00036735187451375495
567215,0.00036103026077727307
567829,0.00035337873114427154
568013,0.00034695775794491013
568217,0.0003406133059824512
569535,0.0001453356812288753
569811,0.00014263214158338755
570151,0.00013992078448943346
570189,0.00013755698924544646
570256,0.00013520628618346464
570378,0.0001328456523799204
570554,0.00013047878688654535
571376,0.0024114926914462487
571465,0.0023702494300814614
571628,0.002328529380871913
571737,0.0022884522504322824
572121,0.004752945968438116
573001,0.004806246342812681
573100,0.002414487400295595
573462,7.255976628250949e-05
573516,7.135360505516886e-05
573725,7.009184100459365e-05
573886,6.887719008785709e-05
574398,6.75187478829109e-05
574973,6.616181390484144e-05
575554,6.483370093102181e-05
575601,6.377440607652218e-05
577103,0.00022034056319064632
577292,0.0025547331461992506
577819,0.0025050557044377086
577921,0.0024638085919108654
578919,0.0017019232103656634
579010,0.0016742346564528887
579506,0.0058452797016008695
579630,0.005749229427654878
580293,0.000961894415164366
580327,0.0009467669871496831
580521,0.0009308378309649257
580959,0.0009136343976496875
581196,0.0008980547163295327
581635,0.0008815162779391983
583249,0.002705021743489855
583268,0.0026636183667876345
583722,0.002614879646414714
584444,0.00044045188422137116
584919,0.00043238357350183776
585021,0.00042559436517741744
585571,0.00041760464884177395
586107,0.0004098290441003627
586369,0.0004029932472287001
586677,0.00039615484995580985
587652,0.0016417328976090495
589479,0.0019378725408092379
590085,0.00020029931399312417
590162,0.00019729539673196683
592733,0.00019097475654517027
593384,0.0015490169333358672
593530,0.0015255603505495152
595295,0.0031720597754332225
596294,0.004764680082150363
596932,0.004677747859741732
597876,0.006212268928270426
600254,0.0007509986860054774
600462,0.0023086963522418458
600604,0.0022753756796976
602352,0.0037418472027006544
603901,0.003408672673876456
605198,0.001452140480403763
605864,0.0014883560937097862
605946,0.0014682339012068724
607239,0.0033032662417986636
607927,0.003245221089308803
608654,0.0017802634509176407
610660,0.004672683921686183
610936,0.004605249387586774
611039,0.004544399104307928
611353,0.005925069478688982
611605,0.007280712449094562
611820,0.007179304781304019
612524,0.007055252180469207
613014,0.006944166476381408
614110,0.006889480559731709
615040,0.006925815941211777
615361,0.006826328722041808
615863,0.006719936750735123
616153,0.00662531232736141
616355,0.007881129513121365
617213,0.006484379427069253
618609,0.0063444973015811534
620726,0.010004749394537882
621747,0.009949372600043027
622243,0.007460111635294364
622367,0.008600919846040167
622423,0.008498331891717115
623251,0.008351750951529624
623563,0.008237953653298824
623687,0.008136613318920904
624293,0.008009530558230615
625992,0.006715007334943124
626673,0.006672156786867056
627006,0.007738177942232749
627534,0.006598909783319673
627952,0.007649273081255625
629013,0.009763703322190231
629795,0.00854644817022221
630055,0.0095429377506564
630387,0.009416670913420244
630689,0.010388587323344023
631909,0.011264780374343086
632756,0.012143486063613818
633723,0.01193213522855352
634030,0.01177961710169706
634033,0.011654090959487107
635865,0.010407319937636217
637128,0.011252112216457721
637191,0.012125414605956841
637796,0.011948568146559424
637805,0.010878323608591423
637886,0.010759542686259671
638639,0.010633005351111446
639092,0.01145913721808789
639367,0.01131969569005653
639760,0.011172941344162801
641260,0.012832472621278956
643896,0.013378270818955595
644025,0.013233526524786043
644246,0.013082039174876936
646920,0.012779150835156017
647013,0.012646729590330086
648380,0.011613826631937219
649554,0.010603584188302317
650482,0.010434420304543668
650595,0.010327345322981962
650970,0.009413620080946483
651052,0.00931934637201648
651138,0.009225808938075897
652344,0.00912316047057038
654296,0.00976510794573171
655771,0.011901771500915537
656173,0.011759921581965482
657384,0.012325803806615188
657816,0.012200131115851054
660230,0.013325245769293836
660814,0.01317209697556354
662476,0.012923293492485666
663504,0.012738904574874699
664533,0.01253804084848964
667160,0.014164716464431404
668588,0.013905553028257245
669365,0.014343495414050889
669440,0.014216908156174046
669869,0.014056624512583937
670662,0.014480230238065328
671003,0.014939670229993762
671058,0.014811308670986012
671597,0.014634431245365676
671817,0.014492442219798285
674057,0.013581087625194055
674204,0.013458086722792029
675186,0.01270031696154783
676422,0.012512705009248837
680214,0.01210725967524251
680534,0.011460421379331454
681139,0.011324341170649621
681845,0.011709361440094046
682199,0.011077310675222662
682524,0.010968237843459239
682887,0.011377245548557013
683807,0.010713425703320567
684964,0.011072143246632304
685442,0.01095299188908161
686784,0.011275444923914968
686788,0.011192239325172881
687054,0.01108929360887334
687872,0.010945072578745663
687967,0.010857996635077694
688885,0.010241612576156633
690913,0.009575591938099315
692113,0.009427675816811032
692606,0.008884118232381777
695121,0.009112258550662666
695571,0.009020606986455793
696297,0.008499337627598802
696807,0.008410799269750413
698176,0.007872248799754455
698519,0.008217850987660924
699244,0.008128728507444727
699275,0.00807220907531958
699742,0.008411691548844136
701330,0.007881366339812068
702281,0.007777090327688807
702930,0.007699899053972725
703180,0.0076359675342629885
703274,0.007580928196978753
704481,0.007853873785081067
705030,0.008154383238629492
705255,0.0084684273616773
706816,0.008338825253609627
706823,0.0082851365500054
707182,0.008217936567814554
707999,0.007040883605081483
708678,0.006607717937979984
709047,0.006549105038241354
709110,0.006505037212185982
709528,0.006803337116926933
709784,0.006399455716245672
709787,0.006359272248935621
710393,0.006647122865666599
711087,0.006231045987987738
711217,0.006536329968848342
711585,0.0064791199967051405
712894,0.006723040924258683
714090,0.0066330755387928875
714142,0.006590396790854713
714709,0.006524444139271779
714750,0.0064831347717440035
716137,0.00573852293651389
716152,0.005703572566826409
718517,0.0055763490628455425
718614,0.005539757134015666
719052,0.005490306427974767
719433,0.005443567273790473
720788,0.00506115745218727
723387,0.0058375736896145725
723709,0.005791290185578779
723993,0.005746976157875672
724524,0.005693213800277208
724952,0.005361405847661649
725397,0.00503415425663678
726155,0.0049794195976446964
726836,0.005490702034684158
730572,0.004267587792721406
731082,0.0042293708724863155
732033,0.003922931277949182
732137,0.0038990814736910018
732590,0.003865935825223543
732792,0.004098633574316057
732831,0.0040756858208963465
732965,0.0040501782100546
733230,0.004021161347082858
735252,0.003949058415841922
735339,0.003925987838702127
735381,0.003904294208367798
736495,0.0041066356992682795
736567,0.0040832594500550545
736834,0.004054488784531962
737318,0.004019849253356522
737484,0.0037580268543231377
737685,0.00373339673586659
737888,0.0037089031410846296
739400,0.004366553586272914
739571,0.0043391457822217205
740756,0.004281438622484313
742376,0.004218753476949555
742596,0.004191277403140736
743542,0.003933687179817458
744586,0.0041052410011137574
745033,0.004072341581458083
745306,0.004261437872918217
746422,0.004006040395917676
746768,0.0039769968618368345
747125,0.00394790636698783
748114,0.0036975517800699187
748334,0.0036741942932503324
748750,0.0036460056186182754
748987,0.0036226200196156633
748989,0.0036053388856445157
749925,0.0037681487539302783
750240,0.0037420828006524687
750439,0.0037192548271596237
750818,0.0032990434244155598
750867,0.0032824255985715034
751392,0.0032595106079293945
751530,0.003241133415722741
751605,0.0032242960577968383
753916,0.003549083118319807
754302,0.0035232420658923846
754522,0.0035016993424192844
755059,0.0032873679877012396
755429,0.0032639180888875963
755758,0.0032416040588454376
756912,0.003019367023648245
758629,0.002798653851766142
758690,0.00278502165387029
758907,0.0027684363582411997
758950,0.002755322416651884
759257,0.002737211230416481
759882,0.0027131987941491076
759998,0.0026990488078946218
760766,0.002847629697884102
762565,0.0026365652108844007
763583,0.0026065212641099844
765584,0.002722866773858801
765644,0.0025507264331137147
766046,0.002532792079410928
767940,0.00233687892236234
768158,0.002323596280122686
769273,0.002452035936357344
769282,0.002441763155151433
770150,0.002570425218117345
772530,0.002967441743069843
772547,0.0029551202009812094
773051,0.0027888257181036824
773304,0.002629199719358377
774204,0.002605027536472848
774591,0.0025909463267319577
776186,0.002694231268995706
777114,0.0026662616516073268
778200,0.002635733100548876
778342,0.0026229065100913385
778660,0.00260693870383788
779668,0.002578605714550708
779856,0.0025653330579258338
780956,0.0025359006712291077
781759,0.002642777552573916
781815,0.002631752359826711
782313,0.002615159227739916
782560,0.002600807907829239
783837,0.002567970265542119
784714,0.0025453902235976766
787685,0.002487220223840847
789658,0.002331026085618859
790020,0.0024327167933893
791022,0.002636686788592524
791139,0.0026251915353405764
791842,0.0027163312053990474
792558,0.0028050126549896692
793945,0.0028779623784183084
794357,0.0028597102253031803
794418,0.0028485927422063906
795757,0.002814528030134822
796827,0.0026801539867540303
797091,0.00277097648341762
797230,0.0027588789847623474
797248,0.002749170967587977
797471,0.002735569925664816
797806,0.002719917375450631
798151,0.0027041866178438845
799615,0.0026695239223779588
800728,0.0026399671868095886
802251,0.002605382369379683
802283,0.0025962653238249533
802482,0.0025841594374826915
802839,0.002474197646053611
805322,0.002425955089486509
805683,0.0024135648057574954
806501,0.0023921089849263666
806865,0.0022900823501748047
807564,0.0022716757742717864
809151,0.002153210047931564
809189,0.0021459177036462496
813682,0.0017395559907216196
814169,0.0018112035925690328
814402,0.0018028021248210901
814873,0.0017112104970382624
815093,0.0017034531769895
815736,0.0017716859231204918
816395,0.0016795718919941915
817288,0.0017433641161384017
819411,0.0014846365821814533
819669,0.0014776522675838955
820244,0.0014674486580079638
821273,0.0014547586892916797
821284,0.0014504752684667555
822472,0.0014343384493644695
822675,0.0014282286991642579
822843,0.0013508529924317614
823767,0.0012692014638215898
825599,0.0011819994379149712
825998,0.0012455285580070807
827295,0.00123084728370082
829002,0.0012142491949393985
829514,0.0012066182649235202
830256,0.0011971180640140133
831193,0.0013167939954534802
831208,0.0013131333281457547
831277,0.0012453540110364258
832081,0.001235053830253241
832086,0.0012317270897008736
836317,0.0013183774724299102
837431,0.0013047604247222733
837660,0.001299334473416236
839042,0.0012850424627190993
839342,0.0012221502380984628
839991,0.0012713094546881187
840170,0.0012665235489406346
840522,0.0012602325783215296
842533,0.0012400621862851402
844010,0.0011720956323304499
844014,0.0011691962989903715
845986,0.0012563868758275198
846318,0.0012504469208263203
846416,0.001246582264410101
847061,0.0012379822870494106
848191,0.0012769347764867156
848705,0.0012693265891750016
850046,0.0012054262042380248
850992,0.0012440909213555784
851556,0.0012363028080850658
851918,0.0012303131833037995
853243,0.0011693123990645926
853245,0.001166615262613524
854585,0.0010144752927150336
855040,0.0010089525830954127
856900,0.0008591780785363046
857692,0.0008975016750252252
860623,0.0010082526290702276
861673,0.0009571010483770959
861949,0.0009531891638918655
862022,0.0009506471469784561
862373,0.0009462697225577354
863774,0.0010177075626096599
863864,0.0009745669265348589
864625,0.0010082121514687348
865262,0.0009618925236458686
865841,0.0009559827421208311
866606,0.0009488811386575424
866724,0.0009461181513334971
867310,0.0009795914501657954
867322,0.0009774741022843259
867817,0.0009720693727777174
868270,0.0010058069714364848
868631,0.0010397531790298231
868839,0.000998435761269345
869570,0.0009538895060037245
870383,0.0009095614944760744
870762,0.0008686432095876828
872932,0.0008543673530485574
873159,0.0008875077267738174
873447,0.0008839539291740639
873927,0.0008792354181912376
873955,0.0008773193964290993
874039,0.0008750647983901683
874287,0.0009074944474523061
874572,0.0009038938050243139
875342,0.0008979947972618252
875550,0.0008949271292206795
875841,0.0009262066514714729
876606,0.0009547796648503581
877138,0.0009493788722463314
877684,0.0009105848908348424
877743,0.0009084502712883857
878801,0.0008671226307892521
879063,0.0008638745017826022
880238,0.0008228748445702205
881622,0.0008465866712856762
881774,0.0008440968478249378
881851,0.0008740922169860887
882115,0.0009027741870206718
882875,0.0008653701973200256
886815,0.0007815366274970259
886830,0.0007800381987017602
887529,0.0007748240381633131
887763,0.0007721608496635834
887991,0.0007695414104085252
888476,0.0007948248021498738
889421,0.0007892495943659927
889559,0.0007870842621313656
890270,0.0007817841882440391
890641,0.000806713259184022
891246,0.0008300113199699588
895638,0.0008299853842137495
896764,0.0008220660220441545
898460,0.0008114454617100808
898485,0.0008099481090637628
900643,0.0007964724025473213
902240,0.0008348025020517014
902758,0.0008543863791898865
903169,0.0008505507880736118
904244,0.0008198312925511431
904453,0.0008406704778425311
905011,0.000813329829236098
905704,0.0008084781588730827
906133,0.0008047739291365819
906282,0.0008026621688139723
906291,0.0008013422038954943
908352,0.0007668680073478207
908710,0.0007637562145474952
908999,0.0007610275086660234
909769,0.0007774643947111581
909828,0.000797583011471481
910581,0.0007921659613232546
910791,0.0007688399959231429
910877,0.000767199797280238
912773,0.000715037094473292
913109,0.0007122791843816589
913901,0.0007072732114998814
915914,0.0006768390721989537
916085,0.000675029895372159
916220,0.0006733964214282739
916800,0.0006696785375894798
918141,0.0006442780901656509
918311,0.0006425751625886988
918620,0.0006402545762973499
918713,0.0006389096789110038
918888,0.0006372023502407842
919251,0.0006346649446840047
919481,0.000632728765980195
921509,0.0006232315209506734
921831,0.0006029891124235132
924452,0.0005923931165476848
924594,0.0005909803695158811
925356,0.0005699052488168377
926701,0.0005637834662104435
927661,0.0005930599933166025
930233,0.0006309570830471678
930784,0.0006276875387514202
930867,0.000642609331495958
931207,0.000624488985918159
934064,0.0006269951820425668
935339,0.0006357936247736173
936104,0.0006174873384956481
937990,0.0006086066308859106
938299,0.0005922808550722358
938878,0.0006180031854374768
939976,0.0006411387856337658
940413,0.0006527589453084737
941122,0.0006349925879836071
941583,0.0006321623578431357
943487,0.0006100221467022493
944576,0.0006446546422835819
946090,0.000624211124084173
946858,0.000607442979650541
947764,0.0005903917988561158
947797,0.0005895571617982043
948104,0.0006002599148169363
949190,0.0006074908584403627
950079,0.000615357007762718
950575,0.0006125104096776912
951195,0.0006091504701195571
952581,0.0006383714008182384
953493,0.0006689255464948918
953722,0.0006670951035927519
954271,0.0006637823429098688
954569,0.0006731986376153909
954901,0.000682386064884577
955946,0.0006880139102438676
956347,0.0006853189037103746
956829,0.0006822496485172636
958006,0.000654203922227925
959891,0.0006345432797207895
960571,0.0006308437340816209
963883,0.0006362927517116201
964890,0.0006311556008522512
964938,0.0006302814870051687
965214,0.0006186047223395441
965513,0.0006166650279533226
965847,0.0006145821716585509
965994,0.0006133101441962996
966626,0.000619734781170056
967458,0.0006061525670193468
967937,0.0006035008973046541
967957,0.0006027965799666468
969243,0.0005688387945133044
969517,0.0005487304936651061
969768,0.0005380304759576848
970183,0.0005545161179130176
970677,0.0005523723452212081
971232,0.0005496760787833121
972065,0.0005372075326046666
974146,0.0005465926385923581
974488,0.0005447493631105527
975358,0.0005409106767979566
975463,0.0005399861405350759
975636,0.0005388070379330756
975944,0.000537123323244515
976666,0.0005338965172652088
979481,0.0005152096890126412
979774,0.0005136669338263733
980302,0.0005112880324458224
980443,0.0005103024637547193
980991,0.0005160225653930706
982626,0.0005253262904763023
982748,0.0005243913784189758
983586,0.0005285635393115218
983777,0.0005274992789150446
984698,0.0005161410594680671
985949,0.0005038289297611964
986417,0.0005091345442995721
988760,0.0005148561453727218
988890,0.0005139311245143663
989796,0.0005103819343892368
990410,0.0005077450659345395
990569,0.000506735115861634
991362,0.0005034882224670412
991636,0.000502085330008839
992718,0.0004913109938056159
993669,0.0004943264406525039
994894,0.0004962999785649291
995210,0.0004947821743968017
996358,0.0004904773853666722
996431,0.0004898140977029897
996544,0.0004890149742189376
997806,0.00047185863605414546
998790,0.0004559216587010084
998848,0.0004553593878515727
