Episode,Difference
268,0.0
271,0.0
459,0.0
1323,0.0
1475,0.0
1778,0.0
1783,0.0
3848,7.610424798506957
4457,0.04314707373169213
4542,0.015622004957259072
4576,0.00951731635412223
5116,0.5816655112195237
5453,0.2083299710321267
6294,6.117139429182141
6865,0.8454538566962058
6896,0.1202150056484635
7321,0.0023086495655782746
7463,0.8281362533438422
8965,0.035255353522644084
9734,0.14542361163859308
10847,0.1798757979648129
12194,0.1128643312220784
13433,0.059084426974557736
13495,0.010675772541498263
13526,0.0019331832796571358
14374,0.13603413135123088
15217,0.0412199461319418
15445,0.013094854476035422
16722,1.058458689080096
17346,0.8275803680190883
17354,0.1679069030465592
18329,0.03403769138731394
18983,5.638001949816937
20019,0.1424929485671811
20309,0.086553610189819
20341,0.018973725396866037
21745,0.11883741996776376
22321,0.03781348837791132
22408,0.00869866664882224
22764,0.0020013554659499277
22904,4.751799431647595
23215,0.48409102489351774
23657,0.1612159971949243
24300,0.038092340043661466
26050,0.009059912936137948
26062,0.0022649336752369464
26392,0.0005651056228881401
26709,1.1084019092872168
26843,0.7795191732885414
27775,4.028546553780071
28393,1.2293226669300203
29142,3.535068330213747
29295,0.939584086028658
30629,2.8764246902128914
30996,2.656569402495842
31812,1.080892231148539
32051,0.44279354461014275
33591,5.174353701800513
33626,1.4928426084693152
33757,0.4306676827704793
34129,0.1243132117693774
34294,0.036164788973095024
34530,0.015831093295064214
35541,0.009476806595654086
35609,0.00282486289979883
35647,0.0008431600230318081
35673,0.0002518433058641134
36275,0.6493317773172044
36316,0.19592516269304638
37002,2.2162010728564674
37785,1.8719700611999825
37787,0.5787320824583135
38068,0.17857539820601032
38432,0.055311587512007154
38676,0.017243378418698718
38774,0.0054013403821597805
38837,0.0016948799859148878
39176,1.0340563941978749
39280,0.38208195986795923
39713,0.11590838521434543
40122,0.09281701579143409
40644,1.831282577144837
41567,2.215424665546122
42061,0.7224074141810939
43888,0.5770893777626407
44083,0.8106277001865356
44107,0.2747207729326826
44129,0.09313435183213947
44255,0.03156039769020147
45034,0.2174379461695013
45437,2.527380907145826
45629,0.8712587519131176
46111,0.300501793257534
47649,0.2877987746043038
50007,1.8196784984284582
50323,0.5070710073303282
51154,0.42985082629120797
52118,1.131900435306151
52209,0.42431670514255515
53380,0.6463656226556695
53500,0.245803998958265
55467,0.08768521908969262
55807,0.03407997582698741
56748,0.20400442130823748
56967,0.08046603509127515
57208,0.15834401093288886
57793,0.06260295998793097
58232,0.0249298423628046
58549,0.10103402516709892
58817,0.04060175673638078
59156,0.016353556155339177
60246,0.006575277256438916
64280,1.6318781497884274
65403,1.1430029288356716
65795,0.31479956770213136
66116,0.8774159415385334
66263,0.379912666460279
67345,0.16364510713787705
67659,1.6337328084366005
68117,1.1496700504348571
69059,0.2960128250720073
70009,1.5600861880026264
70441,0.0799428478526627
71858,1.5775671917769434
72125,1.51098001588154
73639,1.1735819092795836
74184,0.5407148638887573
74707,0.45660423933552075
74909,0.36254274018752364
75194,2.784804824303247
76978,1.68591085839171
80264,0.5368744535246237
80892,2.0827359271572607
81942,1.389306270183857
82109,0.6839189603162268
82921,0.6699237117757395
82947,0.3324314336437846
84064,1.995269176638816
84310,1.4735190077752307
85310,0.7333567065908673
86224,1.011783393363964
86285,0.5135898413590203
86443,0.26063340032140836
87189,0.6879201020373866
87704,0.35035728469798677
89040,0.3626391703150258
89593,0.18691617046304554
89897,0.0968585689678143
90631,0.28268140105296613
91160,0.14723300206579637
91723,0.0769259052623461
93376,2.5062218421050826
93601,1.6178536886729744
93960,1.0880409971591845
94383,0.5790451854239489
94727,0.3091291386151642
94908,0.16556530573333283
97799,1.6204856573892537
100766,0.9891979083100706
101191,1.2759369293650824
101825,0.7528832986995395
104188,0.5789085373363312
104918,0.36062871145625675
105187,0.21846598705570308
106839,0.5673569560187595
107788,0.6308007562526328
107806,0.3637891218085043
108944,0.8036880364285568
109325,1.7285245357062051
110726,0.2783773532832793
110774,0.1629067146650538
111071,0.17677587271504885
111117,0.10362760054641135
111293,0.06070595486224628
111821,0.035505352465888124
112073,0.2937978727741959
112075,0.17312931508134757
112167,0.10195844584436664
112304,0.06005287710701657
112996,1.3257391103235179
113072,0.784332225805429
115687,1.027814835962276
115707,0.6161385354440985
116762,0.40370991668582834
117063,1.1020374236384252
117691,0.34073615425314174
117909,0.20587416643546952
117951,0.1246672732179247
118110,0.07037406313041983
118182,0.04264511656723824
118221,0.02585641982372633
118649,0.08293885701358727
118829,0.0503439387311887
119282,1.7667888842268966
120003,0.6539716348123745
120614,0.3981747585139548
121841,1.585921432901273
123035,0.9268938558943239
123333,0.5731301061130532
124308,0.35316163676800993
128028,1.3250780553648651
128766,0.8340440168745484
128867,0.14451587349094108
129244,0.6299064555450737
130329,2.1896748360594556
131018,0.5487026609427222
133054,0.7914707243254208
136041,1.692981360532602
138606,1.0853884024109508
140405,1.4506114640862968
141020,0.8592465642189175
141071,0.5708693219574066
141949,1.6130962135085962
142713,1.1569923874086507
143662,1.0674257346020868
144471,1.4765002976662767
144636,0.9919853518630972
145438,1.5025554783981314
146802,1.0651858490189792
146926,0.721488451917286
146951,0.4892302764459986
148666,0.28935203309923496
150954,0.19184051627687504
151118,0.13167196928876468
151406,0.09034334414837275
151484,0.062134782009660494
152394,0.7691308839282818
155397,1.0226320042184174
156176,0.7086239430171464
156438,0.493981607553426
157717,0.46696003046538337
157939,0.3271176814797352
159480,0.16659370764725345
160276,0.6153835995789603
161519,0.4312539055834588
161965,0.5154646042956594
162053,0.36593875556584177
162292,0.45246322424700836
162297,0.3216991051976139
163674,1.3512716579733421
163750,1.067315533909131
164038,0.7719338598592755
165111,0.5474428373197595
165654,0.4017316991405653
166040,0.28756142019269326
168046,0.9060308966458397
170486,0.625702913962326
170742,0.4541520603114886
170783,0.3303541077130143
171887,0.267319811958745
172906,0.5015488766959006
173061,0.05502695539619873
173130,0.04026046101891434
173750,0.6051119270182782
173806,0.4435502592855245
174836,0.3229615680512812
174999,0.23720688087849506
175088,0.17438411469011328
177715,0.5016858094305103
179698,1.5003297048062274
181226,1.0509336299648093
181860,0.7814571788004434
182284,0.5828069483977794
182719,0.4350550215657605
184163,0.6338591262969104
185455,0.6622409548501866
185786,0.49835516014813863
186669,0.46576042648417193
186790,0.7956150201758158
186810,0.6902304370461054
187422,0.29857318039933933
187959,0.22536055651578324
188332,0.1705000589439929
189218,0.6354760743427568
190154,0.4802258858181849
191466,0.8454983649665113
192333,0.6423875866340634
192630,0.032185820898359196
193083,0.5330633679093588
193417,0.40793177789781776
193847,0.3121851839802692
197017,0.5939061940478734
198035,1.4802906698111222
198291,1.1030176545740655
198359,0.8548620465770176
199610,0.6433322057391786
200267,0.5116338269864933
200294,0.39821917742494684
200912,0.6485470346420765
201813,0.558164649520756
202053,0.43511684142196483
203035,0.3375967613639146
203469,0.6808385794619936
204186,0.5583380372075775
204516,0.6788525298471271
205561,0.5361491728660837
206071,0.43390848070003507
206827,0.3464028953812961
207455,0.4280096175836232
208402,0.7330483815188555
208803,0.5780243089436004
209004,0.0606811584442678
210940,0.33007130512553584
211728,0.26077375899611055
212440,0.568752597214228
213169,0.4507452479031082
215020,0.05931343175132575
215445,0.04732226771395709
215678,0.04838822096791562
215807,0.038730223758498994
218220,0.9274846432308552
218507,0.8859353359131337
218593,0.7127740843305281
219641,0.5513947545144797
219787,0.444284275342943
220293,0.3571669029038942
220581,0.2878139480904962
221003,0.11058517689554015
221063,0.08936013447540159
222045,0.07175150133530894
222047,0.05810340748720888
223860,0.25551494139537634
224308,0.2068792423816037
224537,0.1678794802954675
226168,0.41926403809403556
226381,0.6328589421433639
229991,0.4262790111707857
230242,0.06110275148052979
231606,0.06908884302633034
231634,0.056787566337830775
231743,0.04665205359379554
231788,0.03834903937437373
232732,0.03132815070849304
232774,0.025791386710946274
233608,0.37081036706214077
234021,0.13367016912185603
235004,0.1736116141278501
235672,0.14278472233945028
238010,0.12384714630923455
238998,0.34723811040531505
240316,0.3361200244917417
240991,0.4103272329267096
241622,0.32495916828725413
242029,0.2702954607272501
243537,0.24890876276685336
243769,0.20784058977221953
244661,0.11404327586945051
245009,0.3173943467954681
247332,0.4357377707761243
247885,0.5771745926748117
248891,0.47119483695591313
248960,0.3967350943295225
249532,0.3328977050125239
249831,0.28007563339164676
250140,0.23571022140738407
250213,0.042920353375947684
252784,0.09638847526173944
254761,0.08048293501239989
255024,0.0681825389628461
255121,0.05784815768379925
255533,0.2693977457715855
255598,0.22876112526820425
255643,0.19429708225554254
256735,0.024321896080707006
256821,0.19684599602695219
257518,0.1487924606507942
258442,0.2873287229943866
258889,0.24420447370281106
260593,0.172876865497134
260884,0.1474709592500183
263335,0.11049575932823252
263402,0.09471017472469256
264874,0.08445642164344225
265258,0.07235897217152498
265763,0.061969139890472924
266940,0.05285257897554274
269207,0.3450737242873769
269620,0.29703443942894214
269665,0.25645961118722127
270345,0.22045619318073761
270783,0.18997069607920025
271016,0.00986033274316167
272031,0.008468782909490713
272300,0.0073197783342395795
272897,0.2879182856942082
274002,0.07477130071904625
274275,0.06476194624995557
275758,0.1967079954092883
275771,0.17100348548300914
275905,0.1485340425391808
276061,0.12901532778171187
278297,0.05255612708339097
278615,0.07156183668861527
281857,0.08216397325632041
282110,0.07175509480149689
282211,0.06274744462526627
282865,0.07391564187209454
283804,0.1386238122397767
285233,0.4084948739189427
286028,0.2292341176146122
286570,0.2006114866312041
287092,0.17567930620645011
289598,0.19985897977654332
290116,0.17553088789743754
290445,0.15444339379899752
291983,0.1467749015735329
292253,0.14309030182077542
292902,0.01079470330575738
293408,0.009510651171989792
293776,0.008391322901807996
295122,0.10268870028306853
295769,0.09056699032625737
296084,0.08010858278754451
296180,0.07098660693681413
296215,0.06293561764889422
297855,0.05517608233790661
298702,0.13755978601986296
299115,0.12190778487270837
299333,0.01100354791152025
299513,0.009772832814437749
299526,0.008691284723323811
300124,0.007697930104515471
300588,0.006828051767735488
300897,0.006065478770708843
301472,0.09479691958787928
301625,0.0843658997458494
303511,0.054078549214614746
303764,0.04817776522914219
306702,0.0390543347934571
307143,0.03483964522405181
307239,0.031166232504494573
307248,0.02789931500316989
307492,0.024933977425259712
307830,0.02227360615026086
307978,0.019929067360963337
308675,0.10753485604402258
309789,0.26994417187442554
310502,0.1369118386553314
310511,0.12288430969079833
311362,0.10964662163839822
311401,0.09845930119557611
312038,0.17215154203897765
312176,0.15456235079137315
312519,0.13858638449869343
314030,0.10613686908587994
314647,0.0030728762560592315
315869,0.0027436423776965313
317257,0.049805772947376425
317443,0.044882727290255886
317464,0.040498745022663485
317469,0.03654764795513188
317796,0.04547142034274554
317818,0.04104059424697937
318198,0.03694942017479974
319458,0.10936785919408898
319929,0.09852375963122739
321145,0.01568757902658291
321600,0.014151355033963142
321948,0.01277939932053318
323185,0.06088992024943263
324574,0.03958458592802039
324810,0.035852090717314766
325470,0.03238077205657497
326051,0.02927550621002517
326538,0.09492111660683378
326714,0.08612708238556976
328463,0.017747058354135703
329223,0.04996323353829446
329569,0.11055617461612854
330172,0.14857869213925312
330825,0.11811174165173455
333630,0.0018800893882211511
333636,0.001716272181077727
334010,0.0731204961689933
334361,0.06660518291862516
334650,0.06071091432651343
336032,0.005822148686732476
336132,0.005319802093314507
336153,0.004863806491567146
336709,0.07625731108783818
336733,0.06974562792851735
337972,0.07448176297603659
339119,0.067643724091635
340767,0.15896858094228428
340805,0.14575924346858127
340917,0.13358152069271778
342360,0.008837902759055716
343763,0.017958131847053416
345561,0.08978116482668241
345937,0.08237117643474345
347215,0.12619482215577893
348887,0.2002697929911914
349687,0.23173775410143094
349766,0.21358227417826647
349848,0.19685423577882943
349870,0.1815213643260538
350006,0.16725141503077445
350037,0.15422894633568696
350638,0.18872440716388006
350709,0.17404596013527396
350825,0.16046528954212036
351280,0.02701056545799041
353613,0.012817825991470855
353860,0.05747298855093064
354081,0.053046228366692816
354182,0.04900777026090175
355609,0.1639948136556697
355809,0.09454978527517888
356903,0.0868316946402441
356961,0.08037341031730705
357301,0.07425117079184673
357385,0.06873135898238303
358369,0.04583864323006637
358455,0.04245559637412022
358593,0.03930978878916491
360763,0.004828202033140272
361211,0.0044664056357905935
361443,0.004138977630590901
361543,0.003839580662369002
362424,0.003542612832550418
362996,0.0032772452984417555
364051,0.0030224481799372427
364374,0.05247580812110719
364715,0.04867407812009006
365576,0.04499183502455395
365934,0.08994578106172213
366607,0.13080582398798768
367425,0.08234168012084986
367647,0.0383546814785376
370163,0.043898115805195204
370393,0.04087170396906359
371377,0.04647276235954223
371400,0.04335810921416261
372106,0.09220786677992798
372990,0.08554225910492086
373336,0.07969295189823988
374642,0.15806128354537563
375557,0.14678723622601808
376932,0.21651241458153336
378052,0.20100417037259
378511,0.19000493793858375
379365,0.17685764881878718
380137,0.20123084173264338
380214,0.1884731161098525
380636,0.21357937511567116
380941,0.20136254056933378
381030,0.18865165475734713
382283,0.17763740427754549
383407,0.13286202904114042
384550,0.09582817073893768
385004,0.08969901794199497
385105,0.08418695444088353
386948,0.05614093483519422
387561,0.05254845793493068
387920,0.04928685353849893
390737,0.053731269119771774
390779,0.05057872012906728
391622,0.009181119161866036
393086,0.03140693166119135
393231,0.02957277974790351
394062,0.004119840046756806
395114,0.03511549743039222
395535,0.03302929687514844
396719,0.061126087114748984
396860,0.05764604306307586
396878,0.05441413761899483
398609,0.050751585808115784
399776,0.07630123698712765
400354,0.07182755706890642
401797,0.12578948946959745
402310,0.1458594325264606
402383,0.13793416910246314
403731,0.15591663678821988
405875,0.17122838318423206
406490,0.113773739150969
407151,0.10732577201989901
408070,0.10108629931811386
408179,0.09578465294367877
409354,0.06931711725326384
411519,0.024927936255529026
413463,0.016686017861689884
414516,0.00760596688042714
414672,0.007222025855451619
414897,0.006854543495890653
416201,0.013883841816099363
417236,0.013110125322802979
418176,0.009903880230227813
418217,0.009423898492959992
418441,0.008955829110241176
418628,0.00851388771607553
418721,0.00809961753019639
419536,0.035837998091566625
420268,0.03395287609331632
421053,0.05503971985799172
421078,0.05243101381300086
421840,0.07050848040376234
421987,0.06712754534582199
422837,0.04470785833474533
424942,0.023719891804717008
427249,0.00644957388618117
428090,0.02837597247267798
428839,0.026958476120168662
429421,0.02564805960637262
429496,0.024492756301504492
432909,0.018692538667763436
434894,1.2402037717684777e-05
436167,0.013516655060588079
436789,0.028077074155417492
436815,0.026884411623999682
436985,0.008639611186079144
437199,0.008262237128458416
437682,0.008950497621385445
438479,0.008526513998319274
439187,0.006660070924132455
440276,0.006334541297627894
440684,0.020461114385403434
443032,0.06100948097409997
443132,0.058497940992000785
443637,0.055932654450848496
443769,0.05362766039574218
443915,0.06493833660612047
446121,0.030907260528592495
446769,0.01453382783169399
446833,0.013954224193891918
447658,0.0133268000979605
448459,0.0127327343898882
448493,0.012233430975980397
449595,0.0027248337595473515
449818,0.002615360477854267
450011,0.004141964798678011
453122,0.045128657321253485
453300,0.04337172118774557
453311,0.04173397946606894
453543,0.05343954982117172
455812,0.0398038729768464
456219,0.038220904610359874
456783,0.03666458811501627
457033,0.023675406740312432
458901,0.03491790070690293
459315,0.03355517898966376
459633,0.032270826731714664
459645,0.031104776176279714
459974,0.029914499051386656
462881,0.018433131127264524
463015,0.017766840067567458
463742,0.04023993275931037
463888,0.038790659471086286
464415,0.04869078925907644
465861,0.04732362339726226
466528,0.04547744929860276
466922,0.043794185762831006
466998,0.04227134872370808
467227,0.040758558677044476
467831,0.05003370383922601
470752,0.06817131078762628
471268,0.06566002286812544
471615,0.06332398081335988
473467,0.05155693161800379
473885,0.04972403648526935
474099,0.03875499896351897
474218,0.03746113014667696
474426,0.03618892092940129
474497,0.03499517273483033
474559,0.03384349920581631
475033,0.02351636753810693
475036,0.022754711532102068
477394,0.031846970385969176
477572,0.030794649510472283
478536,0.03893933033401309
478626,0.037685722146272305
480465,0.02805236377328013
481037,0.02706963791820982
481319,0.017808366032103784
481322,0.017256395940234093
482744,0.008353262167960729
483110,0.008076372789176833
484111,0.0002494044746255142
484451,0.016963627090997857
487578,0.006892713469549339
488151,0.006661592943864925
488196,0.006462852167902877
488338,0.006265844720520608
488765,0.00606291864204378
490917,0.011302233886365087
491125,0.010958931372401448
492996,0.010503531637288788
493908,0.003860703745223404
494064,0.003747112871490099
495038,0.010473464849324987
496006,0.004629010509991982
497242,0.008841331673418384
499196,0.00725092280412909
499483,0.0070385914690946905
499746,0.00014201515881495652
500409,0.007027396173644007
500693,0.006823374417614048
501422,0.006605035641468859
504053,0.005357815068609106
504121,0.0052137920537980165
505223,0.004497570380410654
505475,0.0020604994440041047
506470,0.0024758831251836533
506745,0.0024069357118801094
507295,0.002335528098759365
508028,0.002263569241197416
508053,0.0022050261887933686
508405,0.0021430959909602976
508585,0.009215696298876974
509366,0.014512733111517129
509564,0.014123749155764642
509687,0.019280589359526257
509816,0.01877397842328632
510766,0.01817634877986629
512326,0.01697315007220901
512975,0.010107998631545545
513085,0.009849549349600473
513737,0.014805845784231053
513770,0.014437010971289244
515107,0.002608869917035239
515245,0.0030682147290033157
516057,0.008528941132851742
516554,0.008702608109110166
516925,0.008469943917761569
517896,0.008209478021087513
518812,0.007961419894462196
519331,0.013018307224967884
520562,0.01779215781873633
521009,0.012526128099860756
522640,0.01243986615553494
523039,0.017120207002354615
523910,0.01662255995715478
524253,0.016201471372335075
525038,0.015743156261782243
525220,0.015364490752761029
525237,0.015012708452935453
527023,0.010353602636738124
527304,0.010100822654290464
527826,0.009838049018230599
528201,0.009592779964573417
528938,0.005376934797890698
530155,0.0010119836600082088
530209,0.0009893398703515466
530741,0.000963980095446626
531015,0.0009410468941846162
531999,0.00317063691184849
532673,0.003087158977500337
533752,0.0013500367759937681
533777,0.0013208353550746565
534487,0.0012860889175225765
534869,0.005500500110741768
535811,0.013736138875519277
536186,0.013410346481612212
536372,0.013110356395598544
537126,0.02094845877053997
537674,0.02065853642339288
537918,0.020192714139783075
538383,0.019707602481841224
538521,0.01949487769066538
538588,0.019081323381335835
539345,0.01858673651232623
540479,0.014387302685765047
541783,0.014203419682166984
541973,0.013896797021437202
542175,0.013596025789895716
542241,0.013314822537614734
543912,0.01289388013585313
544088,0.012620628527283628
544881,0.015969195854504736
545163,0.01562133060500015
545748,0.01524927536002929
546282,0.014892626688991939
546605,0.014566910960502888
547781,0.011056475332638982
548170,0.0075216845199777005
548464,0.007360609053793432
549090,0.007186554962679725
550440,0.0037964084348094396
550829,0.0005531073174789292
551561,0.0005398025101226445
552186,0.0007613006927922328
552574,0.0007449158093475461
555213,0.0050244062808313394
555699,0.004914878600163153
559356,0.004606371576187485
560211,0.0074559484317293645
560273,0.0073198257497062436
561710,0.004573576282237646
561782,0.004490613359152906
562269,0.004396405130548509
563004,0.0010220202730448769
563531,0.0010004522213811207
563805,0.0009811395655221489
563883,0.0009635534980545479
564283,0.0009441612459974991
564701,0.0009250884589357966
565084,0.0009066697665254253
565767,0.0034410278668115524
565875,0.0033794563626026175
566031,0.003317915339652089
566837,0.0032427687743936673
567182,0.0004851228308924149
567215,0.0004767745431482062
567829,0.0004666699759106052
568013,0.00045819047461526097
568217,0.00044981202683880284
569535,0.00025657641073761894
569811,0.00025180356698273343
570151,0.000247016922260368
570189,0.00024284386514050738
570256,0.00023869392103037512
570378,0.0002345264451339979
570554,0.00023034796777787747
571376,0.0023114961103365417
571465,0.002271963069842897
571628,0.002231973012309929
571737,0.0021935577471703382
572121,0.004657544188394702
573001,0.004708397633103711
573100,0.0023160235889947423
573462,2.6318427866822702e-05
573516,2.5880936556088585e-05
573725,2.5423277334901684e-05
573886,2.498270669670788e-05
574398,2.448998097559496e-05
574973,2.399780230843973e-05
575554,2.35160774177956e-05
575601,2.3131856565328235e-05
577103,0.0001314086522481439
577292,0.0024651912587625446
577819,0.0024172549819856393
577921,0.0023774535563840793
578919,0.0017946671460009611
579010,0.0017654697428954869
579506,0.005938879503550432
579630,0.005841291187444586
580293,0.0010601898867466097
580327,0.001043516595020666
580521,0.00102595964695551
580959,0.0010069982040672443
581196,0.0009898264435137527
581635,0.0009715979510231953
583249,0.0027985394403811092
583268,0.0027557046709580924
583722,0.002705280961216694
584444,0.0005309282470284948
584919,0.0005212025670613407
585021,0.0005130187390354202
585571,0.0005033877980853418
586107,0.0004940149509189418
586369,0.000485774964259722
586677,0.00047753184303145346
587652,0.0015602981009141814
589479,0.0020241168871177884
590085,0.00011048067350971635
590162,0.00010882377915732988
592733,0.00010533745376317682
593384,0.0016347020831832815
593530,0.0016099479801652272
595295,0.003255834569817484
596294,0.004848284705668338
596932,0.004759827105773606
597876,0.00629422945000524
600254,0.0008379818591603971
600462,0.002395854820025356
600604,0.002361276217324182
602352,0.0038269928760614746
603901,0.003497393607573951
605198,0.0013612567130611986
605864,0.0015803376202025987
605946,0.0015589718610629077
607239,0.003207905099108732
607927,0.003151535637182068
608654,0.0016869551016500672
610660,0.004579340250784547
610936,0.004513252819777325
611039,0.004453618109584667
611353,0.005834385972821821
611605,0.007190090108560199
611820,0.00708994465243773
612524,0.006967436122614412
613014,0.006857733091798934
614110,0.006802395703194186
615040,0.006835693695529166
615361,0.0067375010547432446
615863,0.006632493509972193
616153,0.0065391003878065845
616355,0.007794938998136214
617213,0.006398610102111402
618609,0.006260578206951362
620726,0.009919813007745582
621747,0.009861822134672682
622243,0.007371801942208656
622367,0.00851267402265199
622423,0.008411138625341597
623251,0.008266061612174802
623563,0.008153431879328377
623687,0.008053131301326122
624293,0.007927352415460387
625992,0.00663374409118811
626673,0.0065902475217867185
627006,0.007656411449330047
627534,0.006515490194818785
627952,0.007566075141232975
629013,0.009680167048373711
629795,0.008463361244692269
630055,0.009459995630405782
630387,0.009334826237108906
630689,0.010306900902449456
631909,0.01118377932393777
632756,0.012062950706791753
633723,0.011853001546244357
634030,0.011701494916556143
634033,0.0115768012612123
635865,0.010330982999944283
637128,0.011174768214615938
637191,0.012048088969442095
637796,0.011872370287154155
637805,0.010802107523554927
637886,0.010684158808206501
638639,0.010557187299696569
639092,0.011383542132478386
639367,0.011245020489953461
639760,0.011099234271688907
641260,0.012758729897209609
643896,0.013305863114934535
644025,0.013161902225597544
644246,0.013011234776207914
646920,0.012707486682475011
647013,0.012575808042257997
648380,0.011542180780582889
649554,0.010532528549277664
650482,0.010364498248998988
650595,0.010258140787202219
650970,0.009344583928798667
651052,0.009251001589825947
651138,0.009158150126262754
652344,0.009054089327390269
654296,0.009694433773861366
655771,0.011829380040112802
656173,0.011688392910609746
657384,0.012253716782780977
657816,0.012127719259018566
660230,0.013253536394357113
660814,0.01310017544946307
662476,0.012851719838822717
663504,0.01266736778239963
664533,0.01246763202950918
667160,0.014094621228753379
668588,0.013836740283632576
669365,0.014275126101705116
669440,0.014149142231184353
669869,0.013989622591219053
670662,0.014413658690298092
671003,0.014873315417352817
671058,0.014745523978505926
671597,0.01456943215713613
671817,0.014428073778366635
674057,0.013516833327143374
674204,0.013394414361686646
675186,0.012636209975499302
676422,0.01244785409355531
680214,0.012042884589592795
680534,0.011396261884844883
681139,0.011260943501327336
681845,0.01164634453770308
682199,0.011014515981540463
682524,0.010906061458250793
682887,0.011315288817363545
683807,0.0106519272951755
684964,0.01100961724618399
685442,0.01089113875364811
686784,0.011213467795323062
686788,0.011130719548297474
687054,0.011028339688151867
687872,0.01088491138996428
687967,0.010798314071928772
688885,0.010182372777483018
690913,0.009516519957305736
692113,0.009369516332950134
692606,0.008826217007961379
695121,0.009054742942582461
695571,0.008963669873313318
696297,0.008442079939430691
696807,0.008354138040024939
698176,0.007815536036272608
698519,0.008161336378377015
699244,0.008072242689384446
699275,0.008016116005812535
699742,0.00835520952883373
701330,0.00782495589564558
702281,0.007721426233317619
702930,0.007644249727863706
703180,0.0075807802591452145
703274,0.007526138706559937
704481,0.007799605700296919
705030,0.008100382463222644
705255,0.008414569899346969
706816,0.008284756262157966
706823,0.008231415676420273
707182,0.008164129276209131
707999,0.006986887265642672
708678,0.006554042333420718
709047,0.006495905556128445
709110,0.006452195700438645
709528,0.0067507096162877644
709784,0.0063469811410361565
709787,0.006307127172119786
710393,0.006595254935976236
711087,0.006179485782786154
711217,0.006484871578213092
711585,0.006428112001492403
712894,0.00667255118244503
714090,0.006582803875395671
714142,0.006540448587011083
714709,0.0064749957864369545
714750,0.006433999500013998
716137,0.005689660409981867
716152,0.005655007636624632
718517,0.005528867418692629
718614,0.00549258706378386
719052,0.005443557421920042
719433,0.005397216243518965
720788,0.00501528154178299
723387,0.0057916682651715234
723709,0.005745748724660382
723993,0.005701783172944008
724524,0.005648443590967167
724952,0.005316804441043876
725397,0.004989726427251595
726155,0.004935474817043595
726836,0.005446787967864575
730572,0.004223832100228808
731082,0.004186007019105098
732033,0.0038798916903557412
732137,0.0038563035490393194
732590,0.0038235215508479747
732792,0.004056312200067191
732831,0.0040336013989006325
732965,0.004008357172702759
733230,0.00397963992995698
735252,0.003907963684552929
735339,0.0038851331846840864
735381,0.003863665302823449
736495,0.004065981107572281
736567,0.0040428362769548976
736834,0.004014350433301672
737318,0.003980053824191865
737484,0.003718302636313675
737685,0.0036939328704923557
737888,0.0036696981852224475
739400,0.0043270806892716784
739571,0.004299920647077959
740756,0.004242735150186805
742376,0.004180342248468305
742596,0.004153116340912311
743542,0.003895141673308178
744586,0.004067002838605616
745033,0.004034409859754673
745306,0.004223603334975179
746422,0.003967893445737891
746768,0.003939126474581389
747125,0.0039103129898343525
748114,0.0036602437678652233
748334,0.0036371219562860713
748750,0.0036092177032061024
748987,0.0035860680630932507
748989,0.0035689612944309612
749925,0.003732030718372359
750240,0.0037062146095374615
750439,0.0036836054441682364
750818,0.0032633601027727277
750867,0.003246922019705112
751392,0.0032240094777973294
751530,0.0032058324417401085
751605,0.0031891784687778646
753916,0.0035141219430876447
754302,0.003488535444733154
754522,0.0034672049335144894
755059,0.003253021311108162
755429,0.003229816418662157
755758,0.00320773552734277
756912,0.002985787193967804
758629,0.002765227945553894
758690,0.002751758564709439
758907,0.002735371356648475
758950,0.0027224140422827947
759257,0.002704519168190034
759882,0.0026807935260335647
759998,0.0026668125410698185
760766,0.002815579507111865
762565,0.002604678207502875
763583,0.002574997616593633
765584,0.002691795565607169
765644,0.002519680606124952
766046,0.002501964538019097
767940,0.002306237131172839
768158,0.002293128654546006
769273,0.002421817184989905
769282,0.002411671004955096
770150,0.002540526956959166
772530,0.0029376143464887594
772547,0.0029254166550278793
773051,0.0027592391523008075
773304,0.002599677572339143
774204,0.0025755978155193038
774591,0.0025615041488753487
776186,0.0026651285195882224
777114,0.0026374610265109677
778200,0.0026072622410449053
778342,0.0025945742018143036
778660,0.0025787788778079967
779668,0.0025507519379299737
779856,0.0025376226508826427
780956,0.002508508189148273
781759,0.002615547355242054
781815,0.0026046357619817773
782313,0.0025880517572036688
782560,0.002573849196105371
783837,0.002541351932870972
784714,0.002518852234158153
787685,0.0024611486519718895
789658,0.0023051509045191043
790020,0.0024069156305879247
791022,0.002610991383002581
791139,0.00259960815488558
791842,0.0026908816500548216
792558,0.0027796987309018917
793945,0.002852901543894504
794357,0.002834808327599747
794418,0.002823787653761123
795757,0.002789884253161956
796827,0.0026557016904631414
797091,0.002746576656791566
797230,0.0027345856826308523
797248,0.002724963149377979
797471,0.0027114818713960265
797806,0.002695967149674461
798151,0.002680374909215244
799615,0.0026458882755766577
800728,0.0026165932318240603
802251,0.0025821916716501914
802283,0.002573155777579883
802482,0.002561157646611356
802839,0.0024512585846045987
805322,0.0024033487423962274
805683,0.002390953931428408
806501,0.002369699114053603
806865,0.002267603188033762
807564,0.002249377288779275
809151,0.00213103583422658
809189,0.002123818588049442
813682,0.0017179640407753993
814169,0.0017896908891992247
814402,0.001781389210500084
814873,0.001689873619209914
815093,0.0016822130242517552
815736,0.0017505465230758244
816395,0.0016585350118865083
817288,0.001722463695194687
819411,0.001463938757646721
819669,0.0014570518137593247
820244,0.0014469904561815738
821273,0.0014343987898639554
821284,0.0014301753171375164
822472,0.001414264338936544
822675,0.0014082400970070186
822843,0.0013308922964461178
823767,0.0012492703837088115
825599,0.0011622260652184302
825998,0.0012258152977153713
827295,0.001211366387235735
829002,0.0011949563844739775
829514,0.0011874466998227362
830256,0.001178097444515247
831193,0.0012978556333491653
831208,0.0012942476144002235
831277,0.0012264816324900618
832081,0.001216337542994328
832086,0.0012130612166267873
836317,0.001299954818792859
837431,0.0012865280520619748
837660,0.0012811779215462504
839042,0.0012670234842782069
839342,0.0012041733059677817
839991,0.0012534182575569819
840170,0.0012486997040837
840522,0.0012424972665872058
842533,0.0012225392419984438
844010,0.0011546794526589022
844014,0.0011518232005396367
845986,0.0012392187664749255
846318,0.0012333599789859928
846416,0.0012295481318160828
847061,0.0012210656702895673
848191,0.001260155050641476
848705,0.0012526468396949486
850046,0.001188905935630924
850992,0.0012276831808504252
851556,0.0012199977814084662
851918,0.001214087151022003
853243,0.0011532395399149742
853245,0.001150579477127156
854585,0.0009985255049751451
855040,0.0009930896245242682
856900,0.0008434586146794931
857692,0.0008818723146926111
860623,0.0009928214322787454
861673,0.0009417862252725229
861949,0.0009379369358695211
862022,0.0009354355944306558
862373,0.0009311282143180666
863774,0.001002687778047795
863864,0.0009595595184559436
864625,0.0009932874365190525
865262,0.0009470370772817205
865841,0.0009412185662889261
866606,0.0009342266398286725
866724,0.0009315063240185051
867310,0.0009650421063869263
867322,0.0009629562063322439
867817,0.0009576317503598997
868270,0.0009914175096477074
868631,0.0010254024980280718
868839,0.000984108373207171
869570,0.0009396376454744448
870383,0.0008953929041795039
870762,0.0008545145302372159
872932,0.0008404283198868434
873159,0.0008735931770271765
873447,0.0008700950966815668
873927,0.0008654505635963261
873955,0.0008635645816630344
874039,0.000861345331729213
874287,0.0008938008427885613
874572,0.0008902545321243238
875342,0.0008844060686072908
875550,0.0008813848214461739
875841,0.0009126939171999471
876606,0.0009412925247020976
877138,0.0009359680232567946
877684,0.0008972272068867859
877743,0.0008951239008108125
878801,0.0008538965600248805
879063,0.0008506979741653709
880238,0.0008098081080571973
881622,0.0008336024162600708
881774,0.0008311507796783246
881851,0.0008611549528123597
882115,0.0008898626463524906
882875,0.000852529074377717
886815,0.0007689833810302638
886830,0.0007675090203917989
887529,0.0007623786110686481
887763,0.000759758199401217
887991,0.0007571808342674569
888476,0.000782507765464624
889421,0.0007769547358689177
889559,0.0007748231349833379
890270,0.0007696056251655925
890641,0.0007945679430956254
891246,0.0008179189895929362
895638,0.0008182612108791343
896764,0.0008104537157089808
898460,0.0007999540212166867
898485,0.0007984778736167542
900643,0.000785193005902185
902240,0.0008236329316073654
902758,0.0008432585823001659
903169,0.0008394729471288276
904244,0.0008088378834403276
904453,0.0008296944208574519
905011,0.0008023978757618622
905704,0.0007975843300538354
906133,0.000793930012914501
906282,0.0007918467074798929
906291,0.000790544528411985
908352,0.000756226323350262
908710,0.0007531577123169875
908999,0.000750466872177169
909769,0.0007669616634800036
909828,0.0007870857016689659
910581,0.0007817399474898679
910791,0.0007584303529035719
910877,0.0007568123615890876
912773,0.0007047731843341509
913109,0.00070205486231667
913901,0.0006971207470436447
915914,0.0006668017132966941
916085,0.0006650193661226211
916220,0.0006634101162001915
916800,0.0006597473676750454
918141,0.0006343867977853801
918311,0.0006327100144385422
918620,0.0006304250549948875
918713,0.0006291008051728664
918888,0.0006274196883004901
919251,0.0006249212383135916
919481,0.0006230147848327316
921509,0.0006136424296792065
921831,0.0005934224381873854
924452,0.0005829396340804038
924594,0.0005815494318399672
925356,0.0005605253682703371
926701,0.0005545043420438489
927661,0.0005838321170670291
930233,0.0006218719134065687
930784,0.0006186494473756632
930867,0.0006335773052426052
931207,0.0006154792583137336
934064,0.0006181646699083831
935339,0.0006270424104195538
936104,0.0006087418599636241
937990,0.0005999869298927152
938299,0.0005836805775258913
938878,0.0006094284615165702
939976,0.0006326008946464512
940413,0.0006442283299135099
941122,0.0006265050635643199
941583,0.0006237126632315793
943487,0.0006016663784018661
944576,0.0006363446683594898
946090,0.0006159895975970109
946858,0.0005992663579923452
947764,0.0005822677101603446
947797,0.0005814445581291405
948104,0.000592165516438703
949190,0.0005994585843893674
950079,0.0006073753519082459
950575,0.0006045656763999929
951195,0.0006012493178539913
952581,0.0006305307402989513
953493,0.0006611191775030001
953722,0.0006593100958909304
954271,0.0006560359951641725
954569,0.0006654691592207218
954901,0.0006746752450901283
955946,0.0006803600211577887
956347,0.000677694995531386
956829,0.0006746598846172347
958006,0.0006466694942639517
959891,0.0006270933321739225
960571,0.0006234372215878636
963883,0.0006290353723312769
964890,0.0006239568143955321
964938,0.0006230926704497985
965214,0.0006114304040985008
965513,0.0006095132054746433
965847,0.0006074545052736635
965994,0.0006061972302531249
966626,0.0006126538724948727
967458,0.0005990999717067069
967937,0.0005964791542136805
967957,0.0005957830316196677
969243,0.0005618755627545546
969517,0.0005417746941920321
969768,0.0005310874770729779
970183,0.0005475874223139776
970677,0.0005454490083665053
971232,0.0005427865364528994
972065,0.0005303461098604689
974146,0.0005398249703969515
974488,0.0005380045175367165
975358,0.0005342133601391463
975463,0.0005333002710752321
975636,0.0005321357676002503
975944,0.0005304728999218078
976666,0.0005272860468261698
979481,0.000508694517947994
979774,0.0005071712719324495
980302,0.0005048224533508172
980443,0.0005038493478350947
980991,0.0005095836483333116
982626,0.0005189558066409639
982748,0.0005180322319984221
983586,0.0005222421094679408
983777,0.0005211815026169297
984698,0.0005098643990770757
985949,0.0004976075223728227
986417,0.0005029339881661432
988760,0.0005087519854030109
988890,0.0005078379316378889
989796,0.0005043228674272981
990410,0.0005017173029067123
990569,0.0005007193425901058
991362,0.0004975109951221857
991636,0.0004961247572883298
992718,0.0004853864650606887
993669,0.000488441684493468
994894,0.0004904659117694887
995210,0.0004889659495743715
996358,0.0004847037050101921
996431,0.0004840482252719269
996544,0.0004832585087122254
997806,0.0004661488714836626
998790,0.00045024718697095345
998848,0.0004496919142318312
