Episode,Difference
245,2.3168344803181933
556,0.6270698681386655
1590,0.8504469825686094
1659,1.0305703552212515
1937,1.6401071824607758
2222,0.7249703658586331
5394,0.18262243005004386
6654,0.1266989776418228
6775,0.9128306833074333
9541,0.8292826538086935
9695,0.7605310608372751
11063,0.5973198321532927
11930,0.7958092069695777
12086,0.0930361369282906
13152,0.6730834871584745
13600,0.9342242560388909
13915,0.7192701824944585
14174,1.2444152107635258
14499,0.7350660208871069
15535,0.6655644989544438
16545,1.7286081798645938
16920,0.04184933689116388
18153,0.13446035086014874
18598,1.6602271267231075
19703,0.06643659208819663
21778,0.6880900198818871
21910,0.15622394244539173
23365,0.6398815057170655
23463,0.7681678973902137
23533,0.6275172878398685
23635,0.016591315497183956
23719,1.4135204100470364
24083,0.2691110712127589
25012,0.3352868976867711
25297,1.115940180956141
25310,0.2745548635436883
25390,1.3993307838021796
25997,0.7882665852016348
26194,0.9305957229021375
26807,0.7862758893842905
27321,0.35581151364318764
27788,0.49452678187029164
27835,0.12808237857205995
28255,0.3244464121741135
28267,0.5901313898544309
28602,0.08269649970508564
28884,1.6412044053503054
29051,1.8292270886802555
29110,0.766847933606015
30466,0.9451516867096839
30487,0.2578419352332979
30536,0.07035428690390155
30645,1.0285220539003106
30832,1.1006096569503576
31313,0.43469758276335035
31639,0.2028130600737068
31863,0.6283314382172733
32519,1.1347865284602712
33672,0.06806171376166592
33984,0.091405441286315
34840,0.49050840911995763
37195,0.06509797006389739
37369,0.38275001029066935
37956,0.8965265506041504
38047,0.5935593676559314
38484,0.6996735217382675
38668,0.01595514301481593
39085,1.5562075497054657
39463,0.7096890697961307
40005,1.132662879361165
40043,0.2737968677245286
40873,0.6187570461344025
41060,0.8678713299494847
41306,0.7803499165935879
42084,0.5628407094024386
42148,0.04197452567499482
42680,0.939208889715955
43261,1.5492942066034985
44398,0.19361427085452831
44578,0.2499843834545139
46805,0.14857718653217944
48295,0.5925319720142017
48606,0.42789709345112037
49122,1.1654339876028281
49449,0.31501892088367267
50312,0.48632949147782156
50532,0.5935683502371685
50680,0.7121687878368945
50988,1.124609865841407
51089,1.1066702684512144
51141,0.5478893666670821
51182,0.20311093724124873
51184,0.6750367119973317
51727,0.6642289934387762
52030,0.35223604454299107
52903,0.9395843115106679
53581,0.6908767001977871
53631,0.6314952338805204
53917,0.102394833863098
54383,0.3730876566142065
54493,0.04903952359686414
54981,0.8575793895109882
55093,0.4057247131836217
55099,0.1436248887117486
55338,0.2242747176168418
56451,0.6208352442244447
56941,0.7630838180154687
56943,0.5195518770191949
57049,0.0704394980586791
57445,1.218944520919207
57753,1.088955128142306
57815,0.23571293368967883
58178,0.04566964884838498
58344,0.5577870033049876
58419,0.22397830230855487
59408,0.43933684054279887
59494,0.24152538971047477
59569,0.7878207307215686
61652,0.5573121971665103
61745,0.23138615548768815
62243,1.0342431543023176
63642,0.23498074168734906
65230,0.11240745573154065
65253,0.395607757947797
65562,0.9829811337742882
66923,0.9345309652874789
67297,0.8185279007538586
67649,0.4977617850851921
68205,0.34166172266506223
68390,0.16697144143011222
68985,0.7616763484143609
69456,1.007222539306424
69645,0.40665507343769924
69762,0.8965435044220671
69880,0.8578253513959702
70308,0.05609041435510953
70376,0.252609664701529
70670,0.2833629886967577
71477,0.37273178367805837
71844,0.10931020827957116
71855,0.049809231162364576
72598,1.1558093513897507
73132,0.45103766583433025
73241,0.4413533098485374
73393,0.38513096269998925
73684,0.06676935512775017
73927,0.4937932344858673
74078,0.6934784477696763
75373,0.1733950037064389
75485,0.44007280378379043
75531,1.36688421368987
75878,0.212008436101784
75890,0.09981760248298777
76301,0.4199789237835141
76412,1.1876505066208898
76509,0.038039640476048575
76592,0.7334174954111461
77413,0.28170806556210337
77587,1.003818612762661
78084,0.37048410831746104
78682,1.3719441437987019
78839,0.05942115329363773
78984,0.0662050153092748
79307,0.8269627164337194
79786,0.5502803848890983
80574,0.7992974657775811
80604,0.38995106249211275
81017,1.1274266876998809
81386,0.3274178382400006
81430,0.16067070406611883
82146,0.6742720367656387
82583,0.07692293230519454
83077,0.39901089980018245
83380,0.9136639032698017
83932,0.4505790874026889
84271,0.11042143846456476
84785,0.5218761277302111
84899,0.08549863529192603
86555,0.1636366118786663
86689,0.19023176319095114
86803,0.36126981475230036
86832,0.35127598637952495
87388,0.3276469259538999
87409,0.8485991514271358
87656,0.6270706608130547
88467,0.016560975168156133
88561,0.341359538414288
88718,0.07951988501226737
89307,0.31992744101635395
89374,0.27368309374545774
89711,0.4844705881910105
90013,0.1295259722340525
90550,0.7446692889333857
90556,0.6449329953548277
90942,0.9023556083288788
91560,0.8530605015013437
91798,0.25740732893674423
91880,0.4372440915140068
92560,0.023493819092172075
93966,0.5068115949436338
94236,0.9433210355104666
94925,1.0145777081962724
95182,0.02877100266371002
95195,0.6849825050750891
95737,0.11705518333986831
95813,0.26819064878031007
95910,0.07420549017922973
95942,0.21451882945789702
96440,0.716734263281781
96636,0.7386967373187154
97299,0.7456457349933432
98351,0.4262711561862407
98496,0.009895823103719614
99633,0.46916890920344834
101432,0.4319189105834873
102134,0.17928944549439052
102485,1.0783669029189138
103281,0.398102873281621
103863,0.018518030132331553
103878,0.20825026631570598
104029,0.44921851231123533
104191,0.6240513040928857
104626,0.44222650958075604
106365,0.8428314991831973
108165,0.35966400949792465
108368,0.36858337562860655
108483,1.0238883500392015
108573,0.5205623772485657
108708,0.07632761083532102
109535,0.5696322488356147
110215,0.91237104814169
110375,0.14267610922699703
110665,0.2601002274724893
110734,0.5199205849030983
110824,0.6792611575097176
111534,0.5624265372168873
111567,0.10547752807833533
111766,0.2564313098464588
111808,0.28234107606386694
112097,0.019352030393191555
112587,0.6648847364131605
112678,0.5141681294981808
112958,0.05934952257101678
114669,0.22125500833207745
115166,0.883578937113958
115424,0.08936546054362893
115572,0.15786938809026907
115665,0.19689161176199654
115720,0.24802124862672414
115924,0.4871712378837678
116975,0.3600041233106417
117293,0.1855143183969581
117311,0.13550596982323349
117926,0.9066414114505577
118006,0.4934584204711321
118690,0.25311701908091955
118803,0.6122070491234979
118805,0.3723320966295356
119005,0.028645984418058212
119252,0.3422583316647456
119255,0.3631140002338258
119806,0.013317458121731462
120071,0.6869566057445571
120336,0.32467712865018683
120617,0.20775228480272556
120868,0.3355450971583771
121228,0.04521493193343762
121378,0.46902103656311134
121460,0.1670649626217129
121530,0.01291503243081138
121702,0.3961196031394385
121744,0.17698691004767664
121792,0.07712909753835806
121877,0.6155724644327059
122226,0.292936161182233
122560,0.33461285498728266
122616,0.24426112478322892
123194,1.272751074860416
123301,0.31544644478751227
123588,0.6539568949714818
123957,0.02707212308890039
123999,0.08442868095331768
124335,0.6100702982059403
124753,0.962107096769679
124790,0.6556668263076633
124917,0.331230911223483
125152,0.5477650827946103
125476,0.03841881905994082
125701,0.2650900215900158
126329,0.1627012690356775
127272,0.7290238004918059
128005,0.7124083216674562
128356,0.538121065004626
128647,0.15669201094149265
128756,0.26736038033398124
128975,0.05189213095096079
129157,0.5764720124071729
129216,0.6346127184327903
129277,0.5437182149276012
129341,1.0882981055239318
129696,0.06717495341619362
129768,0.3821007485502079
130159,0.8056322535736626
130172,0.5140502412597456
131762,0.5634428673381056
132002,0.10524905816308383
133095,0.3741490627473665
133255,0.21352285290821538
134272,0.2492090453010416
134742,0.8278008496195675
136539,0.007821537531217615
136892,0.1236054779404796
136983,0.1856135136674526
137245,0.5024443136456913
137288,0.5787615593530386
137900,0.2273770695519186
137955,0.4534468481112093
138531,0.547339834639784
138622,0.13145409285724075
138878,0.07385284560434524
138916,0.11700357724592969
139180,0.47344942928823386
139224,0.37016531056348256
139396,0.29171379895099836
139783,0.5581374428242318
139802,0.401925098591275
140157,0.4530854934773183
140458,0.46178453819678467
140581,0.5129599740498136
140688,0.32219655890474996
140925,0.6655750297061784
141152,0.6877993887687568
141156,0.053168749308131424
141341,0.30800262640024734
141585,0.1575929728382448
141862,0.8373429490805497
142068,0.04154179289969662
142114,0.4854681733122339
142356,0.14101086785189398
142395,0.7265057257285603
142432,0.46951935500124353
143138,0.06518956000411258
143261,0.33946560757886424
143720,0.15435818199490114
143926,0.7724365799666746
144016,0.3215925704844125
144724,0.0840172183548713
144804,0.14868914115944865
144843,0.6146714655004768
145390,0.5489622554004923
146015,0.02029934316379034
146439,0.68097625664765
146464,0.2572412121294745
146532,0.5840843916604745
146972,0.6646213510145795
147683,0.3692875811741274
149141,0.4523994700128098
149279,1.0232704984154335
149477,0.525221554516901
150238,0.02255067077835804
150345,0.158192221336229
150351,0.27743192145344686
150584,0.6630990070982303
150646,0.658677122983164
150696,0.5201999892895603
151301,0.3510709529583762
152706,0.5198457921435882
153125,0.7016854785558309
153401,0.688544640262772
153571,0.11534076863981468
153780,1.0498119825429386
154017,1.00743560466141
154370,1.0787308416104704
154389,0.9148529907375629
154992,0.4098377057974236
155224,0.5245167138225142
155294,0.6918655874131652
156307,0.7357611357984117
156358,0.3410207883005185
156400,0.9797422339299011
156508,0.7331339515913182
156529,0.2678970194213992
156874,0.12734264467857237
157018,0.030204379685581095
157244,0.6334400078704459
158116,0.831455429271081
158362,0.6502619291459952
159136,0.44327581686123807
159202,0.7396876631086187
159521,0.5622082833797304
159659,0.8974859179960806
159814,0.909785036629458
159953,0.5869001263547808
160498,0.3922669674797552
161061,0.26122424213639217
161673,0.6514412077256759
161908,0.18602542908124597
162124,0.7990656381007639
162584,0.47423100427508125
163196,0.5920892946434915
163725,0.2701257319370871
164825,0.5414384152379776
164894,0.28803982806376016
165362,1.0362546001111737
165579,0.011703128960400377
165685,0.11348648696853036
165849,0.8992189832708259
166035,1.1491422226792878
166163,0.6761545083021758
166517,0.022163344541084484
167404,0.3887595578427172
167474,0.35047041493464537
167676,0.2219562241622448
167850,0.0724848090217467
167893,0.052321693166131666
168254,0.0504469669437384
169207,0.7912380362196867
169218,0.3827952034117921
169405,0.34080821632405556
169872,0.10375258577195723
170319,0.5895911700600429
170787,0.08684770107711781
171009,0.29864639884855926
171013,0.27030260373800896
171472,0.616140064751157
171941,0.3173150203008994
172342,0.11109416287711138
172418,0.29591639317853513
172501,0.019519587463113552
172882,0.3745100765574785
172966,0.343693010253161
172976,0.5023847843950229
173122,0.2397555437141179
173152,0.37531696773883905
173180,0.6163772245300123
173267,0.4794874200219317
173548,0.1660659613650841
173651,0.3896449585312771
174244,0.393370974448052
175207,0.9183285979051004
175254,0.49848226493847214
175639,0.001192824259976355
176174,0.17497421852469053
177538,0.7926895629326296
177541,0.5263230632379514
177578,0.3561818374045158
178323,0.7340871038430343
178628,0.12233065817320998
180044,0.07865845148219108
180644,0.15865131034493452
180859,0.3247090746024899
180865,0.2423007374164241
181252,0.4836884934012833
181723,0.4662466215680805
181775,0.3241552792608342
181781,0.34686521918122715
181869,0.3466613058148953
182763,0.31907012058685247
182795,0.17924609998859253
183035,0.5760497099573341
183911,0.18532603867856956
184252,0.516045238881591
184326,0.27919413745912536
184446,0.22028595943629092
184547,0.12116977814035756
184930,0.00015296909596074215
186438,0.41317992352361
187491,0.46910112983368446
187591,0.03221446126219529
188042,0.12677982946652655
188121,0.3801004868487743
188141,0.14964315030666508
188241,0.24269198626858213
188323,0.3244664975047291
188491,0.8416119691828792
188936,0.8628517350795653
189035,0.45627888275941775
189233,0.5161344490690851
189916,0.5361570972147707
190820,0.3723287258087451
191833,0.21281904385449746
192409,0.22003917997368472
192452,0.1515307773757648
193195,0.905129648806466
193947,0.7116371069758474
193952,0.587761954320043
194069,0.3756349028278647
194159,0.566729462438504
194258,0.1402222422623316
194865,0.4865488509023459
194867,0.3559502133129442
196671,0.5307128524049185
198252,0.4858854449664465
198260,0.37993618139639196
198920,0.262882759729
200849,0.5596878839636013
201009,0.3157075522548478
201779,0.427788526907225
202508,0.4406480554333818
207045,0.22180877086648287
207158,0.10990381661026927
207260,0.2830468932874419
207640,0.16351999733711509
208051,0.3478822926445053
208199,0.49207410652144823
208427,0.39483128026595704
209093,0.2520933794437612
209095,0.21011922983686926
209217,0.15790225547349213
209344,0.1653904060524578
209435,0.5673401760676713
209519,0.19808925071491856
209559,0.28794728270987413
209690,0.6856992808885902
209779,0.12825037179633458
209900,0.43058578601656006
210587,0.252795413632005
210635,0.37911188462519707
213031,0.11867182418311017
213816,0.5261287699995618
214508,0.3570576648432082
216037,0.4173678262217937
216104,0.5190825054163204
216166,0.5173699166209076
216203,0.4434076189022731
216324,0.4270512229111523
216394,0.39315551896271117
216399,0.4807729919439252
216431,0.2291360800597868
216753,0.6027303785086318
216775,0.25618442426625787
217667,0.07383628887855664
218920,0.42965389471155735
218923,0.18725323049082565
219020,0.4189931155495801
219752,0.214453140601492
219822,0.14183390601187895
220465,0.14229610196543074
220632,0.025645519778054293
221735,0.17624430146589454
222193,0.28219118623756856
222527,0.018939007392079432
222573,0.21353592404555322
222578,0.2911278827513293
222679,0.1810864423784464
222706,0.20136426121562767
222718,0.32785752807859314
222748,0.2957362942414248
222822,0.06747495268799142
222883,0.4523825316032575
223007,0.4997377613339111
223054,0.43914052464256237
224136,0.3123616361678945
224157,0.2901049330703742
224384,0.4976167333971224
225138,0.22326828590325398
225465,0.3240110491435271
225699,0.7383923893499471
225807,0.35584897839887564
226646,0.5230387910336161
226692,0.5817105420977082
226696,0.43412493166645394
226987,0.40899552458974764
228726,0.09492867347637812
229061,0.22466877543112318
229127,0.40067008031940254
229236,0.4704198805864914
229350,0.49135687556720153
229540,0.08910864032314514
230902,0.2190272909921731
231538,0.29694874487790646
232864,0.2756384392048661
233668,0.016689895758567275
233934,0.030138004593863066
233938,0.024862747334277735
233940,0.05651470550076709
234042,0.37279066248757076
234272,0.2612760930695188
234297,0.264311347371188
234341,0.3743039284168015
234352,0.2915970397596226
234492,0.1343061979935536
236349,0.43297555564480117
236597,0.18233437255039942
236644,0.18409848870261936
237260,0.2995268960374142
237392,0.25899993295588075
237416,0.005085322713888729
237418,0.030555491708863514
237854,0.3343827004442739
237928,0.5381444568765419
237930,0.4113650602082135
237981,0.22982449803604776
242689,0.08468363796874012
244431,0.018070287731613455
246602,0.24373972190216886
246691,0.2701378177170968
247491,0.4068792459911803
247647,0.23747597195889192
247753,0.43532521492238807
248172,0.2845189026586725
248527,0.054058673480169794
248754,0.3581398970051062
248888,0.44446165464193843
248967,0.3480246891702814
249645,0.3383640309246596
250104,0.3116963731805411
250193,0.397412785946746
250218,0.36908513700503853
250318,0.21493231645143052
251332,0.12289520344565386
251449,0.42657910368058083
252377,0.24634209496820247
252444,0.3652245676196948
252659,0.23774645772796887
252913,0.28023623437222067
252953,0.16471988239816415
253294,0.2261466952682767
253573,0.19943737902756808
253645,0.1171231345462651
253726,0.28759820055548246
253769,0.25357749376293093
255707,0.19032978722435345
255798,0.31721913267784885
255869,0.31204884468709615
256610,0.12970680473416873
256681,0.16546056035677115
256782,0.11495477286967493
256839,0.2002082918163861
256862,0.27962705353962836
256979,0.1797549053514702
257027,0.0823517594751646
257109,0.10885239365384969
257272,0.4132131769054732
257307,0.37529301010288485
257394,0.32645333393772624
257407,0.25697518726501656
257416,0.29098570151181935
257429,0.1906180740347292
258630,0.008499242645725325
258703,0.15353155699206322
258706,0.05154442638205392
258728,0.11939552713445689
258842,0.36870691370742836
258997,0.24485991335923885
259205,0.2479184438640818
259832,0.31666878237179663
261082,0.04047119128582377
262757,0.23717500821036275
262843,0.4078843348205128
262975,0.22366668010115287
263394,0.30847901031978786
263447,0.39474429374874465
263470,0.33849884272700237
263926,0.07237280224018061
264010,0.2726458036082189
264522,0.3125136003427915
264601,0.2659508096409686
264790,0.21615463231732868
264866,0.2524777300302681
265024,0.3621453561602097
265127,0.29599514196078314
265130,0.16823705146725398
269116,0.22931415984457892
269188,0.1743538101523523
272948,0.30672941950369736
274460,0.2970460012697398
275919,0.16943741787116195
276950,0.21200853414881227
277009,0.27195714150320693
277124,0.0001893565713224632
277212,0.10696901654835411
277214,0.10029918071980948
278282,0.2511766065701586
279164,0.013049705083939322
281476,0.10639479730077017
281531,0.16528273754037404
281639,0.2322897928953278
282323,0.16199899663612438
282366,0.26796543344967905
282375,0.2842196188915054
282713,0.2808889446838947
282784,0.1823548284954164
282993,0.16073607449166172
283090,0.22814906320159167
283619,0.19601753594905524
283726,0.1672213256268762
284003,0.28744659559730756
285815,0.360458171049876
285944,0.17353600461287488
286072,0.3083782949484952
286909,0.26290352733674816
290623,0.26647755277113294
292072,0.31567115925004874
292085,0.23129185968075827
294306,0.1378265963709282
294436,0.13766251992373046
294483,0.1220599554046462
294524,0.19608754825552666
294609,0.2874538809861047
295149,0.27405493388970026
296124,0.2972993052672299
296311,0.20474058445284893
296578,0.1046035620514445
296817,0.17075087698162505
297109,0.26080676542079484
297125,0.278134874637499
297157,0.18796507713782873
297701,0.09445114153985656
297765,0.18950527376356963
297835,0.06781507179216284
297862,0.08366278759338375
297934,0.08304073745108997
298076,0.2547556866411673
301024,0.04847870856340375
302724,0.036101775170359396
304821,0.17477302657885918
304875,0.1385905248672108
305037,0.19742003979558742
305231,0.32909798757721553
305413,0.3397234212680793
305639,0.3635445318654016
305675,0.29773767671086304
305682,0.26239095733877793
310798,0.0551332806317939
311244,0.19863807457741167
311568,0.20336404600285096
311889,0.2876409910750377
312000,0.19526887855379282
312015,0.1107257809379183
312027,0.159120504987186
312103,0.18569752684451224
312300,0.2277938410417777
312725,0.2477151374793749
312991,0.014780147191655324
313145,0.12118870401136927
313212,0.1273732708528721
313319,0.18194820546740154
313367,0.23895867973197848
313418,0.18129118466435834
313532,0.13340899719738974
313823,0.07794986218175204
314002,0.1286130151004823
314066,0.09305681735999727
314142,0.06677392013473149
314153,0.11735391673222217
314204,0.1628209250316477
314321,0.19578813893412228
314490,0.34098851247789774
314492,0.3017324252577165
314555,0.33260401998266076
316035,0.15591908521846598
316227,0.30466198984032467
316276,0.3074347896945486
316330,0.25043093168623454
316630,0.15272384740095912
318867,0.014376801194812217
319090,0.1302481764696406
319571,0.06062997108383961
319612,0.1453095112368823
320227,0.17699565819250296
320230,0.15503216742974057
323320,0.1109115881451821
323381,0.21367665908154265
323385,0.16382656340296364
323428,0.13423152949223383
323536,0.20780947015644902
323709,0.3092833903604273
323716,0.23248673456416746
323726,0.24739079254668805
324256,0.1022761740535918
324428,0.08668060314585269
324537,0.18318993170131126
324614,0.1579064301794597
324759,0.23742018095931616
325276,0.22795999793496335
325388,0.19344157294173225
325662,0.1644650297375101
325868,0.22244380558200838
325871,0.19697561892411475
325882,0.17431926875532433
326469,0.1553456204566368
326472,0.17882860758056118
326613,0.2109667011283065
327006,0.29904914349512257
327022,0.2581632438085446
327157,0.16419217543708164
327170,0.1518441000276205
327234,0.10642425179350301
327261,0.17587681459299365
327330,0.16684944570407545
327493,0.25023839921959734
327909,0.2295565507749613
327941,0.1938717626648181
328115,0.2005981795771028
328214,0.17936825515118482
328260,0.1606647214851904
328465,0.19980946232781793
328467,0.1762341034201249
328515,0.17669513339576692
328530,0.18178540486636408
328605,0.1377518866005083
328666,0.1414891341635105
328839,0.23755587224067298
328887,0.1520591828623905
329075,0.22314860466896125
329227,0.1573383532220447
329438,0.1552617080281955
329626,0.18178599459709854
329726,0.15410753738043592
329737,0.14856899472737162
329759,0.12639095204777462
329841,0.13375023166460842
329917,0.10357578848222726
330000,0.14048256815468996
330002,0.12680000564138183
330033,0.07478742357621293
330035,0.07166962417564982
330037,0.068975192405345
330167,0.12521355095768438
330484,0.13831363026332966
330526,0.14040799239032875
330798,0.22115393978343612
331001,0.13559116314066344
332348,0.05892570867247571
332350,0.05838512539088736
332378,0.071378208105628
332505,0.1763425458631236
332509,0.1551561039756626
332758,0.09772463681148036
332777,0.09706716650208502
332819,0.10043052863240742
333845,0.13852077972285493
333989,0.13861874562126086
334729,0.14734952860792916
334878,0.11784600198810757
334907,0.15769382396617715
334933,0.209372940687242
335358,0.21595297593316332
335630,0.17125449363046918
335756,0.1946560056127069
335917,0.24829401779101
335992,0.1597409265873475
337727,0.10203065540638168
337764,0.10143011337491625
338767,0.13934187811403742
338986,0.1532601821527475
339017,0.10955392741138059
339021,0.10580876470781764
339080,0.11826627392529154
341886,0.136446668052435
341891,0.12870879206686947
341928,0.1486244590522805
342080,0.13219033610503406
342403,0.08677472026334865
342451,0.18386610487975208
342665,0.16896539931817323
342698,0.12027695896762758
343149,0.07121799530172446
343165,0.08267768586870972
343214,0.07464618433122983
343263,0.09829333009119434
343348,0.0897695181523952
343428,0.14154725679761526
343477,0.1074029851297329
343508,0.11804207090229113
343510,0.10768844339853878
343666,0.15473371169378325
343940,0.05358216467874577
343944,0.05913847755710844
344315,0.07687608649772848
344576,0.15135388145708273
344712,0.10661955265448952
344792,0.1114458498148938
344940,0.0899713676129803
345011,0.10843710160523035
345063,0.07750960472091162
345186,0.23251393232163764
345354,0.1358487388490479
345501,0.17965144498545715
345520,0.13704084781852455
345554,0.0938907437601939
345575,0.09401046015250802
345688,0.10665170875455754
345738,0.1416526321347238
345932,0.0460231553635424
346312,0.13895156812476817
346435,0.1503550041302102
346541,0.17606202386125336
346659,0.1464492417641905
346807,0.12839487679319195
346914,0.1060813697267049
347258,0.2139776165338816
347609,0.25071515693349156
347808,0.22706138949731347
347968,0.17726740967580845
348447,0.2177614692165255
348526,0.19577151013160599
349015,0.2557227548786667
349342,0.24880994493266329
349683,0.17255662558095075
353067,0.0639480443396021
353194,0.13085391565021265
353198,0.12591976213523726
353386,0.09187036601356979
353413,0.06657227781178854
353538,0.10256496755345168
355254,0.044367598531187546
355627,0.09376180507397347
357672,0.051783654291121195
357696,0.06672108972888857
358588,0.12296562039483039
358596,0.1163882190497576
358668,0.12540022079740076
358739,0.1585882851337157
358800,0.18085597940492892
358802,0.16264724791761598
358931,0.1233404724348155
358961,0.10960106469856612
359153,0.11538171570009936
359264,0.12789331597088527
359281,0.15577422163106647
359389,0.13569504398493581
359560,0.09666555426727541
359709,0.08956473533965603
359762,0.08756400132424424
359857,0.12845852630983945
359906,0.09604018631490518
359931,0.12501574628005674
360101,0.11424694960222581
360226,0.14304191114583453
360445,0.12027090271011964
361744,0.07294326858337907
362474,0.12324082856971152
362477,0.09526574553534761
362522,0.11587817196440131
362527,0.11087031228959798
362529,0.10258024449472813
362729,0.11451265742463423
363044,0.1400638939324974
363186,0.1503557344443447
363195,0.13881754438140081
363218,0.1321720520521028
363266,0.16110846750426155
363772,0.04700610244839698
363908,0.07480674331636905
364005,0.1382565998553158
364040,0.09916987188026294
364154,0.1387416181287957
364338,0.16107068974533156
364410,0.1620168205736272
365677,0.1533430267711582
366882,0.0637529296492998
366923,0.04775610710988154
367186,0.07706272533113356
367360,0.07527948198856649
367368,0.0714266044673737
367398,0.07562740870855666
367548,0.08734595642009513
367559,0.10483805119802447
367566,0.11659658477466195
367606,0.11572347617113543
367610,0.1095284546956572
367624,0.08468536716556674
367626,0.07948045604598253
367665,0.09246423333597953
367868,0.0861955330366122
367936,0.12122003619782884
367992,0.13918748439918893
368136,0.11995171007409855
368232,0.10649584564147485
368391,0.13627730060212695
368445,0.11609656537588275
368464,0.11241876712223853
368503,0.10296840600450796
368508,0.09579353394153767
368578,0.06535291242388208
368799,0.10753296762205711
368870,0.09209774720489605
369038,0.10373048735504398
369050,0.10913703623271953
369055,0.10101927708308622
369150,0.14871129760065216
369165,0.18002334707839474
369307,0.1926130906832837
369372,0.17273646399089237
369388,0.15798257679357164
369400,0.1490385811073125
369521,0.13597901217074604
369575,0.10476671724423792
369780,0.11822112053422806
369913,0.08974685544518124
369933,0.08289379795337037
370311,0.17963256147171247
370474,0.16798079150255862
370619,0.12363540133253359
370666,0.12878642662043216
370686,0.14561105895092208
371520,0.12581456621571707
371563,0.11101786288549498
372149,0.11066016718867733
373605,0.04580964805964616
374590,0.1771581432987137
374849,0.12819561565892545
374901,0.12764463242949198
375058,0.1521281992883594
375212,0.15877293992885022
375260,0.14586898352725886
375400,0.14921354725425306
375482,0.1539974790808607
375760,0.12511954329258224
376191,0.1110924534034643
376350,0.12169104103455641
376426,0.0963450687315568
376661,0.0771138101038007
376932,0.1442110450223799
376978,0.11995327270090428
376988,0.11443372684817188
377065,0.1452257820170617
377339,0.12624864454302998
382886,0.06345845652527693
382987,0.028950349642509643
383483,0.1553644842051014
383559,0.1196174431964101
383617,0.09336935122547718
383875,0.0862163397416591
383887,0.09868867367655376
383931,0.11465722729172612
384215,0.12740687453285027
384254,0.0783120652394258
384256,0.07329308948001767
384828,0.0775606578698147
384911,0.05606846887754546
384931,0.07149900044166202
384954,0.06734327764278181
385063,0.08836726848322041
385258,0.09531145018461906
385296,0.07195413021794383
385680,0.07559711589457141
385732,0.09492911114323199
385979,0.08791153121831652
386071,0.0815015129244605
386325,0.07428367890286314
386423,0.04900367345481893
386455,0.05356833181102605
386463,0.042429484333029954
386465,0.04225463899586046
386626,0.08775346328366673
386652,0.0870366448617288
386655,0.08155836611578238
386657,0.0766633652763673
386661,0.06837011882574107
386815,0.08572935917844315
386831,0.08018259888677104
386848,0.048514291571270185
387081,0.06581676968309313
387152,0.07638615127540227
387164,0.05178237558973642
387323,0.08484152951420931
387453,0.14895640312030078
387455,0.1366938219499687
387502,0.12654290305009752
387522,0.11985220502485827
387563,0.11717355467599955
387663,0.09878183868007717
387665,0.09173351912460781
387763,0.08809436823746886
387837,0.08800685019564725
387860,0.10034811749930839
387963,0.11704739284949461
388027,0.1173135742749567
388029,0.10836643699321691
388060,0.12699189611570283
388086,0.11020027700391477
388091,0.11870772297718091
388160,0.10031273212728742
388413,0.09414469305095707
388684,0.08326592061400007
388723,0.07731702744280256
388830,0.08578365287480771
388832,0.08051171312339367
388844,0.07234769048449685
388846,0.06845822589107975
388889,0.08777660497126138
388941,0.07156906427078447
388958,0.06608531307673093
389170,0.08970841841882571
389272,0.10955911197007051
389378,0.06139646737705107
389426,0.07212735389536817
389434,0.056455384563748545
389436,0.0544068979831378
389489,0.07262601084386411
389523,0.07022745096038285
389558,0.07820234980281882
390089,0.10373245073865522
390107,0.0922308734170505
390251,0.09977633289911125
390273,0.07979344931973209
390366,0.06795270150400246
390405,0.09776589746830933
390547,0.07315924641297045
390723,0.07694106686222657
390768,0.07619908240610762
390849,0.07530714764597857
390924,0.08905057820154205
391171,0.13941365488705415
391173,0.12849604555777905
391184,0.12092887228370497
391245,0.14354960654119342
391268,0.13730869940514
391315,0.10184786519074507
391345,0.09390573512092004
391347,0.08778841970614781
391425,0.1042991563805824
391447,0.11231369187331719
391464,0.11039721969520144
391501,0.08474369485492161
391755,0.09502456806932891
391837,0.08974961721275587
392068,0.12132090593269496
392075,0.11411272942994621
392118,0.09948716912157174
392219,0.1230896694540684
392275,0.11892040794936065
392343,0.09858407443154782
392464,0.0873252771199926
392483,0.06964007862801314
392759,0.06902451175490043
392818,0.06064156112997843
393040,0.059513703267142226
393081,0.04537626257920291
393143,0.056153153969887626
393221,0.0832951002102238
393469,0.12199993693005862
393531,0.11776675448319285
393557,0.11319038107561052
393577,0.1136840428051622
393950,0.1578226205203972
394012,0.14603585740884473
394034,0.13897876746824345
394140,0.12591958926067015
394201,0.11237105391643709
394322,0.11935902646031149
394349,0.10841474465982248
394471,0.05171313585112802
394483,0.06719753063514133
394647,0.06347916224594474
394653,0.059696108902731915
394717,0.07200723294415834
394746,0.08180224316941231
394915,0.06703054128290376
394917,0.06376075863152852
394962,0.04974966690927296
395347,0.08878880595271443
395481,0.1216108144812944
395536,0.08961765687926082
395592,0.10196483946720925
395673,0.13054128366492979
395679,0.12078759043030818
395681,0.11159505334001363
395782,0.06456895945350194
396650,0.0826806784538725
397004,0.08964232356677648
397123,0.07333457671346721
397204,0.0721707547807462
397234,0.04529553803539965
397247,0.04970131188753246
397362,0.09608751378805636
397377,0.1112153296306273
397541,0.10705134389638982
397824,0.11491131384737496
412374,0.09710283698472022
412391,0.09314546499734888
412465,0.09141225211926951
412498,0.08660374437455864
412516,0.08975161162008849
412643,0.08381164300181076
412658,0.08837155673726826
412692,0.08003059590980399
412708,0.08348616303140943
412827,0.05591659748612976
412929,0.048855181952915494
413062,0.08427513904768258
413193,0.08652793801720016
413196,0.08114699795629843
413241,0.0849920735924794
413396,0.08925411438338582
413600,0.07607538965718774
413712,0.08219478371039912
413776,0.0764742287743072
413861,0.08432511237211315
413920,0.10070429439929374
413986,0.07919037338605328
414171,0.09200178341403209
414262,0.09571310047248627
414348,0.088196506259
414396,0.08730421248740594
414411,0.08880506522177001
414516,0.09746001151700501
414648,0.09130708518046937
414664,0.09328290783449678
414668,0.08620676061963106
414685,0.07047356089307755
414716,0.07620621566274988
414965,0.10403744471490928
415000,0.11853929215513226
415155,0.10764208834918332
415179,0.0794263158996591
415210,0.0818951369222729
415320,0.054980839580120566
415414,0.04399379232954015
415526,0.04339798151622265
415531,0.04199304299258699
415722,0.04084706850223885
415894,0.04266943297636594
415949,0.07154628536896457
415991,0.04971400653190905
415999,0.04958396517786934
416179,0.0729711468154024
416398,0.06647824111467138
416450,0.057737193111310425
416713,0.09116563599803396
416726,0.07390718857722245
416742,0.05986634215662345
416838,0.05645407055422336
416883,0.0762511680374196
416895,0.08225841161949443
416936,0.09209316680265456
416969,0.07781608887570801
417086,0.04547593710198683
417367,0.08138382418897194
417595,0.057091657969944976
417724,0.05494664870293953
417742,0.0520262168863761
418324,0.0990501928745342
418460,0.09277362447869919
418487,0.09040927497548434
418988,0.08260935513340151
419089,0.09946302311825317
419188,0.10746746250232242
419398,0.09896723454621359
419485,0.10087337784606376
419598,0.11353615212646684
419789,0.09925906945474416
419866,0.09945571538253972
420070,0.07609906162611413
420211,0.06997507731747987
420308,0.054565971782111866
420389,0.05241938109137845
420413,0.053782430267705905
420549,0.036163626874279764
420574,0.05012790448255533
420814,0.07599997393962798
420816,0.0718296908850462
420963,0.09469468820964799
421022,0.09115229449081763
421120,0.0643797332011653
421122,0.061161624567363404
421313,0.058453744931811435
421335,0.056153107854382434
421356,0.06169054248725381
421527,0.06008542972015274
421606,0.07387338392745235
421725,0.06746947467571207
421937,0.07275951896110033
421939,0.0689407866952898
422028,0.09424164590780748
422083,0.09778693935914262
422134,0.0828231268184485
422149,0.07583422939813289
422154,0.07395382180963939
422159,0.07990246816851343
422208,0.07820808158932557
422406,0.10036797646544926
422515,0.09183307221172843
422538,0.07872906377022826
422617,0.09280897617070849
422843,0.0993173101491438
422945,0.09441106296777768
423027,0.10857186407276398
423272,0.11039380473681515
423430,0.11087089088976576
423461,0.08867709754388553
430548,0.06015229655123111
430912,0.09075234677627897
430956,0.09224590530098808
430976,0.08045782878570318
431061,0.07569913411257634
431063,0.07162730180818055
431096,0.06702088688790742
431193,0.07566443200132866
431291,0.06844508544692829
436035,0.06656119906268199
439406,0.023923638818505566
439550,0.023846892027745703
443332,0.06059932842832172
444587,0.05141949095813825
444762,0.051836948121040116
445283,0.04413843543209506
445308,0.04368963564082051
445448,0.06130102185658437
445535,0.07065110094675564
445634,0.06848815908662864
445770,0.06042077262320511
445799,0.07244741516548991
445904,0.08534381662968293
445942,0.09132973405140277
446125,0.08930247173598538
446132,0.09140235058359014
446142,0.08621490899500284
446189,0.0895199675451126
446351,0.07963083769371337
446832,0.07868545359861479
446967,0.07701547965653255
447205,0.09945489604250657
447358,0.10546654527789379
447606,0.07262930583442806
447821,0.10177828800761546
447869,0.08659636957384542
447898,0.09131919965063595
448014,0.08786649882710051
448162,0.07925207343111218
448165,0.07623365976752616
448169,0.06872513879622844
448396,0.07637965526483725
448432,0.06851128642485271
448443,0.06460583230551364
448554,0.0757705909990225
448662,0.05928600160799835
448716,0.06651721865491389
449012,0.057473703152306044
449070,0.07178390949150515
449122,0.07533956567417821
449265,0.07174145127833942
449312,0.0721836666383302
449338,0.08378401690822201
449350,0.08115539228004742
449374,0.08093863274196433
449380,0.08254801604061512
449386,0.07839236262069793
449434,0.08434124438479973
449472,0.08545788090551643
449484,0.075905677222047
449493,0.08150084011854197
449495,0.07728333269714938
449591,0.06571206895266357
449674,0.06878558649109845
449716,0.06482568268077671
449727,0.06684656112450771
449831,0.08605562093211017
449881,0.0979609333079754
449983,0.09802237235549693
450095,0.11322782111705099
450209,0.11456571833233653
450255,0.10890583800172493
450259,0.09669680189972585
450574,0.07783747749028791
450686,0.07394637407122762
450745,0.0756875604195244
451135,0.08854034133744015
451229,0.09092146498917586
451352,0.06339406607659548
451476,0.05514765606251171
451590,0.05546916494371423
451620,0.060723596555577686
451697,0.07197867663285518
451838,0.07008719651817241
452051,0.05674664521498762
452065,0.048799859923157385
452208,0.04529283818538499
452315,0.034818870097495846
452364,0.04055792310387574
452725,0.07215278573843342
452761,0.05332752959357823
452879,0.07445056945304707
453068,0.06680253542361037
453264,0.04535878956043238
453519,0.08658996276781572
453555,0.0817294501840573
453672,0.06532671656935118
453707,0.05740114106014982
453780,0.04477447458319883
454188,0.09408347072387535
454197,0.08876617328397796
454226,0.07767404775565989
454242,0.07546380799017438
454244,0.07164896428504264
454396,0.08449452137080016
454398,0.08010630304337596
454426,0.07152629155039048
454428,0.06805012599336635
454446,0.05922908576004371
454463,0.05355450434898934
454488,0.055851814235252206
454564,0.05480652481198511
454640,0.05156576364725751
454649,0.051076943866734226
454694,0.04210722973105252
454789,0.0495120540442926
454836,0.05939203082156563
454862,0.06481469701044862
455020,0.06612688833529212
455195,0.08830207168594217
455213,0.08202738546136779
455612,0.05373860986391232
455830,0.07477649878988046
456086,0.04662328822590833
456175,0.034284171629225924
456356,0.030523469171846784
456408,0.032310740840875596
456465,0.04003075308883819
456571,0.03963620900180054
456632,0.04476984230469583
456636,0.047467807209604196
456648,0.04715188129218362
456650,0.04554119234939158
456810,0.054847181639053666
456839,0.04637616768238839
457103,0.0554114770025782
457166,0.06370022775043793
457377,0.09753358179016836
457439,0.06929188877678172
457485,0.06373573169396529
457544,0.05817179594967037
457586,0.06762101670045251
457630,0.06695320573829644
457669,0.07243845979149022
457763,0.08496596741515372
457907,0.09587475646945887
458049,0.08839917236698103
458204,0.08129870337505185
458243,0.08412716115033536
458263,0.08294847928486249
458595,0.0740092548552882
458702,0.08592586567003035
458707,0.08298599256866179
458715,0.08559323186759471
459105,0.08622779214357212
459126,0.07994453763746634
459271,0.05325877848258731
459286,0.05798005343197765
459392,0.045578453295579635
459416,0.04438393572383603
459475,0.05846174455345654
459481,0.06308219507840906
459577,0.06816721044342255
459668,0.07709886428746149
459924,0.0903098985411317
460249,0.08209202605396371
460378,0.09995592501598072
460607,0.09095842730205028
460674,0.09344059707012331
460773,0.08177509629759605
460795,0.07271920716311886
461009,0.0741240824593623
461214,0.09770436277471006
461296,0.08426511742539144
461478,0.08264080654339256
461744,0.08345980413565268
461766,0.08498199147791219
461863,0.0856732395092159
461931,0.08808084568419527
462285,0.09235895331295207
462346,0.0873440967070076
462400,0.07810784372897572
462835,0.06716422656393117
464147,0.055090756892198556
464184,0.04749269506482001
464334,0.08663538785305924
464836,0.07193219978951948
465052,0.06664284614513338
465211,0.058648725544851565
465375,0.06294735660377171
465629,0.08294908198207107
465730,0.07949398948288344
465761,0.07479629774562913
465920,0.06477883452648481
465989,0.08039400036791378
466138,0.06268849732507409
466257,0.06098322956469193
466283,0.06497505053569697
466346,0.0507403321338602
466546,0.05758857153581243
466570,0.059801119452498774
466719,0.07960625413639288
466722,0.07608569326707659
466808,0.07050904590388463
467008,0.06723568448610262
467104,0.06297716288430966
467201,0.04979130401445442
467208,0.05481625105931176
481428,0.042336714070962955
487215,0.028436442715492838
492029,0.03318168160100754
499461,0.039738541843864716
499929,0.028835393245017826
510514,0.036380519318099935
522083,0.026353250267065143
533278,0.01700621267035718
537603,0.021539600469776765
541042,0.018264076265113616
550514,0.02590320905493204
613891,0.024124043459140765
624369,0.017507845377526365
624395,0.017924295290664638
624441,0.018112872519829182
624506,0.01758161382135981
624628,0.017230460787104995
628081,0.016521924923230458
644322,0.013458159903311007
645651,0.011259641747366267
688605,0.008750463168110123
813108,0.004001915209324913
828534,0.00360162428648092
867484,0.0029126236451215703
910918,0.0018069686276032115
