reward,length,time
-334.08049882280505,117,0.43125119999967865
-409.16177629632375,88,0.2983163999997487
-340.567855416064,120,0.4584842000003846
-308.4342907679046,114,0.4810161999994307
-174.5566530845451,147,0.552165299999615
-457.4843412850925,87,0.3022812999988673
-485.86908600996077,95,0.35988410000209115
-449.68312419164903,132,0.4480696999999054
-195.9017302796654,108,0.3879570999997668
-552.5832184654636,190,0.6784961999983352
-323.1473507644452,122,0.4297002999992401
-300.54094706685464,111,0.377624000000651
-360.91569561280284,155,0.5449585999995179
-277.1430010294161,94,0.3221771999997145
-113.863049591873,146,0.5034030999995593
-515.3418488068771,113,0.389745699998457
-323.0603850493095,91,0.3078159999968193
4.71833349635628,107,0.3753372000028321
-141.3380706109296,140,0.48012759999983246
-489.3465882159291,130,0.4445910999966145
-110.19806176279039,103,0.35135499999887543
-345.363414745804,136,0.4806752999975288
-56.8780217841493,127,0.4400706000014907
-243.65532675994956,102,0.35051910000038333
-293.7202777036754,101,0.3459030999983952
-316.42053922030607,119,0.4208762999987812
-632.5697484643607,246,0.9066792999983591
-609.5549669272053,98,0.33685309999782476
-546.3945496467767,162,0.5674207000010938
-236.32351411831098,188,0.670940399999381
-277.10377453134805,79,0.27352980000068783
-350.13477515286985,140,0.5015058999997564
-181.74436974588463,229,0.8336333000006562
-220.75170438574713,104,0.35717120000117575
-211.7395621720325,132,0.46006820000184234
-325.991188607644,95,0.3444164000029559
-221.63410182112233,117,0.44509430000107386
-224.96398441373987,133,0.46497590000217315
-285.9058527551691,136,0.48446770000009565
-333.81770562305263,133,0.460986199999752
-375.17246033108313,144,0.5049741000002541
-185.37129470453766,125,0.43095719999837456
-397.2558672063365,112,0.389343300001201
-383.92555997231125,131,0.45272579999800655
-224.12336236964987,148,0.5288427999985288
-192.12779210208865,125,0.4455822000018088
-159.5223734988171,120,0.41981120000127703
-262.901097471477,178,0.6373802999987674
-104.79024878128251,128,0.44520249999914085
-384.5279253130369,153,0.5630668999983754
-159.9489976140532,161,0.5788990000000922
-458.25249655975665,124,0.4430567000017618
-420.5201723856632,113,0.3989536000008229
-223.31970762765815,118,0.41161559999818564
-203.99355669021622,123,0.42686549999780254
-330.8894150365568,147,0.5123853999975836
-387.169578002012,122,0.4167272000013327
-346.0169065761494,129,0.46023889999923995
-347.6540693440935,106,0.36342080000031274
-269.2447916399701,139,0.49024260000078357
-422.259893864729,113,0.40471160000015516
-486.7384347439013,139,0.48150490000261925
-473.009514281776,110,0.377485599998181
-279.8061194011114,116,0.3993612000012945
-187.15507309620583,95,0.3290135999995982
-170.76347481133934,96,0.32990889999928186
-331.64176297733206,124,0.4318568000016967
-365.71247079457044,117,0.40541529999973136
-481.7265233986233,112,0.37867240000196034
-385.2868983678032,173,0.6149901000026148
-443.57379383473074,122,0.417603699999745
-320.93458317262457,109,0.3688502000004519
-302.5209222205553,120,0.4156347000025562
-265.224244024012,112,0.3939237000013236
-335.60568044557647,83,0.28804569999920204
-307.99984081664707,121,0.4198229999965406
-234.53049123361876,137,0.48364199999923585
-304.58671281299814,166,0.5758184999976947
-327.7452123196274,96,0.3566035000003467
-307.98447858608,120,0.418203999997786
-129.01460125810087,136,0.48656060000212165
-605.4524324491169,158,0.5530002000014065
-652.0345833682874,185,0.6865151999991213
-287.7281843024334,134,0.47546580000198446
-210.78515419609923,111,0.4169040999986464
-408.36825580930315,126,0.4303701999997429
-310.45194669378964,145,0.5332286000011663
-488.9483679813861,132,0.4523444999977073
-261.9610723089645,108,0.38560489999872516
-516.4053790758805,110,0.3757402999981423
-391.6877011751388,126,0.439251100000547
-435.885146937039,134,0.47865619999720366
-109.30610255022309,161,0.5922030000001541
-245.4716567039528,123,0.4311809999999241
-137.05467076188,99,0.342387199998484
-232.57234622737136,117,0.4053217000000586
-303.02765935599024,92,0.32780609999826993
-191.85398018672,98,0.34726040000168723
-255.20847354910995,175,0.6307195000008505
-171.77437272687195,129,0.4674803999987489
-386.3978512757409,158,0.5695653000002494
-139.38423657705633,132,0.4598470000019006
-145.97533300662678,113,0.39414190000024973
-268.462544427314,137,0.4766127000002598
-98.54603951728055,119,0.4109183000000485
-232.41418182017583,181,0.6541206999972928
-195.07799584056534,127,0.45000249999793596
-798.1927982858429,163,0.5768038999995042
-254.8545106228001,144,0.5073532999995223
-308.2420995441261,125,0.45225049999862676
-289.0690903870392,113,0.38787520000187214
-358.3529215226535,129,0.4392604000022402
-326.62156568173174,118,0.4153595999996469
-102.10227698705948,116,0.4004194000008283
-142.60308669762566,115,0.4132245000000694
-273.87061003465703,132,0.4643815999988874
-144.71136014174476,61,0.2101431999981287
-109.01668413235075,96,0.33269380000274396
-189.6982235599778,140,0.48695109999971464
-115.73776567014022,102,0.3522566999999981
-123.41674158102535,98,0.34572949999710545
-395.05285103905965,119,0.4189600000026985
-425.7499660003213,152,0.5366599000008136
-256.7793297285258,106,0.36972830000013346
-110.63962844891287,115,0.4095495999972627
-94.10936956547934,124,0.43719969999801833
-478.6991403205265,123,0.425935400002345
-134.97266845611762,133,0.5129225000018778
-492.9614293591439,137,0.47289440000167815
-220.36115043580224,114,0.4152080999992904
-153.59166018422087,167,0.5955913999969198
-360.3665316770384,102,0.35201450000022305
-346.1114997246319,107,0.3882768000003125
-511.1494973482427,109,0.38409039999896777
-99.77990303084555,102,0.34829050000189454
-107.1388392557321,151,0.5367215000005672
-764.4354368540577,85,0.2906585000018822
-136.95680076858162,163,0.5821307000005618
-124.47011469857975,131,0.4466337999983807
-296.4434804024464,108,0.3691106000005675
-401.21812388730933,150,0.5214068999994197
-168.3639606094076,119,0.42265120000229217
-117.56813380220323,108,0.37302510000154143
-336.3420513151577,114,0.39320710000174586
-146.54090611964466,99,0.3428980999997293
-118.08991429094912,120,0.45081520000167075
-341.15395124251097,119,0.4148922999993374
-11.379622230905852,106,0.3716672999980801
-143.27310498135444,99,0.3421878999979526
-331.8370391734593,114,0.39495499999975436
-93.80010038315633,99,0.33867299999837996
-284.1667672489489,105,0.3639261999996961
-149.19145540058548,97,0.3425710999981675
-374.74679221741485,106,0.37137280000024475
-103.77791114580401,102,0.35245919999943
-79.67077899853146,96,0.3265996999980416
-361.1111287718964,68,0.252061600000161
-116.87335507315613,124,0.44566539999868837
-452.97241023509866,102,0.3489772000029916
-434.0466711121359,132,0.4551200999994762
-107.89422296802333,103,0.3529291999984707
-431.7056361766598,120,0.4146828999982972
-290.60492636455575,123,0.4228073000012955
-188.67049487037875,93,0.3190037999993365
-207.6391931380851,132,0.45883170000161044
-166.30421086876402,135,0.47483479999937117
-406.9710867128678,132,0.4660282000004372
-130.18272317191773,144,0.502573099998699
-326.4815857166393,100,0.34016309999788064
-140.4131785414766,103,0.3586851000000024
-140.0717168767394,158,0.5524769999974524
-156.03273575133923,132,0.4575546999985818
-107.05628094532304,208,0.7986152000012225
-137.90160594111467,153,0.5443825000002107
-149.57578664972596,129,0.447378300003038
-110.75204336761223,104,0.35562859999845386
-507.50924755840936,112,0.3896150000000489
-130.13965310834942,94,0.3207481999997981
-281.51268777830285,230,0.8350501000022632
-236.1703186040185,124,0.4767900999977428
-280.8230291736744,134,0.49535159999868483
-220.97595078921182,236,0.8665379999983998
-112.8283400666561,108,0.37198350000107894
-97.26698200431227,165,0.5865578999982972
-119.27706098295214,102,0.3512728999994579
-132.43966267134948,140,0.4941259999977774
-118.0688747053057,83,0.28728729999784264
-118.08417506262896,144,0.5043527999987418
-499.1234319685178,104,0.35458310000103666
-145.50090152754282,112,0.3926102000004903
-95.99899909524026,178,0.6539556999996421
-184.99075158241564,257,0.9804635000000417
-155.24922226505845,98,0.3402669999995851
-756.0386768142179,90,0.3128729000018211
-354.65453073589833,147,0.5467336000001524
-102.9316770795168,158,0.5687634000023536
-136.50125742802146,208,0.7624471000017365
-116.1866957710447,92,0.3267282000015257
-160.6757550647959,127,0.44073190000199247
-310.21027562175783,146,0.5148340999985521
-125.71630932954986,93,0.3202343999982986
-382.9067151833354,136,0.4766587000012805
-336.37921978385486,241,0.909014600001683
-113.59614935621111,153,0.5317384000009042
-281.93006618516074,383,1.5058317000002717
-390.07836433172884,215,0.7838959000000614
-105.65239178279185,92,0.32242499999847496
-276.5787303196332,297,1.1190536000030988
-153.5980114562983,193,0.6998982000004617
-470.10158420643705,144,0.5061948000002303
-116.05372950772059,104,0.35727070000211825
-267.6482655033843,178,0.6358964999999444
-127.22373105610333,100,0.34812809999857564
-95.68228092750925,174,0.6179172999982256
-237.82884419558056,457,1.9838545999991766
-257.9889621815908,305,1.1789244999999937
-141.8940911910023,294,1.09847660000014
-306.7682549486342,200,0.7259584999992512
-338.2103429765376,297,1.1212860000014189
-136.76149691367635,100,0.3449730000029376
-118.31415844914102,283,1.0825038000002678
-126.73439135296444,99,0.3440962999993644
-169.8029943944285,219,0.8190595000014582
-252.65899150617193,214,0.8187137999993865
-245.98253056182168,142,0.5138985000012326
-148.24823669270478,205,0.7369175999992876
-177.41868039798638,187,0.6575693000013416
-289.09014925505176,392,1.5668022999998357
-93.21378020869652,96,0.3380141999987245
-119.83812213416626,999,4.369289499998558
-160.67052029239082,139,0.4904930000011518
-496.08079804491507,97,0.3405134000022372
-148.50001765455005,211,0.7632491999975173
-154.86898200802113,571,2.584136199999193
-96.59096527372981,95,0.346338299998024
-743.3863367593302,119,0.4296779000032984
-193.7662785409081,970,4.446243399997911
-176.63091680896025,164,0.5839913999989221
-121.22131079188215,999,4.36082499999975
-142.6131500634136,189,0.680805899999541
-144.07631239996397,277,1.0050105999980588
-331.315378184269,697,3.1510271999977704
-144.57918472680024,270,1.0197219000001496
-336.3035828844836,286,1.0711221000019577
-167.38048055551857,167,0.5959747999986575
-357.52543030878144,438,1.705416900000273
-237.2287148423994,661,2.683790200000658
-272.72978376935674,155,0.5691043000006175
-147.41738042100144,999,5.67002230000071
-35.98267458344692,117,0.4164587000013853
-97.65080181538669,85,0.2943248000010499
-271.1212165887183,310,1.1181928000005428
-110.3607906560486,84,0.28660820000004605
-334.78255737413997,562,2.417063099997904
-117.87096243771626,999,4.61684989999776
-98.5330677975378,88,0.298060400000395
-189.37634026460773,145,0.5131165999991936
-100.11636221344664,999,5.946394999999029
-148.74323700699247,999,5.779196699997556
-128.1603006634103,157,0.557851199999277
-110.11435128363149,999,4.490610199998628
-170.7181661374026,105,0.3724511000000348
-198.04859378585186,904,4.230554000001575
-112.2751798792631,224,0.7984500999991724
-120.53407902203408,999,5.513431600000331
-123.32958950972662,999,4.767924600000697
-103.42852571627337,999,5.307617800001026
-107.11556581536306,999,5.318646299998363
-93.92959092046542,129,0.44984800000020186
-129.51695370825172,999,5.2237263999995776
-130.7654160655355,999,5.427535300001182
-111.34232364364422,999,4.955199199997878
-424.8960269021418,115,0.4027189999978873
-112.45834529366778,999,4.901831400002266
-129.14500618260215,999,5.181958600001963
-85.31151380522498,999,4.445945499999652
-165.4159723381028,144,0.5231057999990298
-129.12600275941017,999,4.557913100001315
-99.96752365791716,999,4.400576000000001
-149.40717957385775,999,4.332013600000209
-137.19166147825308,999,5.35463879999952
-202.31644050052992,658,2.9166480000021693
-84.81932814358413,999,4.676064999999653
-407.54739934599706,999,4.426584200002253
-119.4257268672765,109,0.3861995000006573
-107.95152948982789,999,5.69700770000054
-103.41924421237677,999,6.102405199999339
-103.9155443488141,999,5.5837309999988065
-216.04448408636551,87,0.29790049999792245
-482.9360385949102,103,0.35927799999990384
-69.07384114414594,121,0.42723820000173873
-279.3389259156054,999,4.8775687999986985
-109.94227468641174,999,4.902162099999259
-444.30134054871365,964,4.94396179999967
-124.41987334153852,999,5.557988799999293
-112.79904730415883,999,5.074347700003273
-103.55819281788577,999,4.999344100000599
-92.42715230671853,999,5.05624330000137
-87.20439401762764,100,0.3420521000007284
-300.275196124568,999,5.346262499999284
-308.4904377413868,814,3.7152953000004345
-141.92897686220064,999,4.774819500002195
-114.69972708018439,999,5.032649599997967
-118.35659210758094,102,0.3816021000020555
-102.6115052608664,999,4.732648799999879
-102.74029712163798,999,4.550096899998607
-110.79327737433613,999,4.764687999999296
-109.04004137570973,94,0.3434435000017402
-112.90008619481812,120,0.43812590000015916
-376.23940388622464,971,4.2895179000006465
-86.61913054368264,111,0.3861703000002308
-111.56804891466172,114,0.39972990000023856
-135.3393350370883,999,6.07682080000086
-110.54147163025546,999,4.990413200001058
-87.63820638290476,118,0.40867399999842746
-87.82389417493924,99,0.3428892000010819
-344.4653703141247,207,0.7671943999994255
-149.05776736431895,999,5.7169599999979255
-300.289334274575,830,3.888686399997823
-246.8954882825076,999,4.2444036999986565
-233.21633585351955,392,1.5418223999986367
-95.74245904463018,999,6.385529099999985
-102.7411372726852,999,4.322485700002289
-121.85980837185562,999,5.467226699998719
-350.7220153701288,945,4.060676100001729
-99.85632637902549,999,5.797083599998587
-278.73852271563595,837,3.5130772000011348
-113.99956591666901,999,5.026058600000397
-100.27483719579199,999,5.1667101999992155
-103.48961988695405,999,4.180237999997189
-101.32998989939529,999,4.479185099997267
-145.56060196186016,999,4.56277869999758
-146.18796784747147,999,5.941424999997253
-254.1626635082397,97,0.34059419999903184
-143.42637222782312,999,4.52631509999992
-444.73749193469877,911,4.048925600000075
-398.52631678848286,761,3.8635385999987193
-110.87403734747798,116,0.40827160000117146
-132.71018244207664,999,4.842781300001661
-299.2623970345355,375,1.4917963999978383
-220.78880325254158,144,0.5245438999991165
-111.85786290935886,113,0.39761940000244067
-109.32250566763922,999,4.598688300000504
-115.32235094250204,999,4.841635799999494
-111.88170054198865,999,4.803307800000766
-121.31916590444926,999,5.143653900002391
-111.17908087470498,999,4.481462800002191
-300.166297545328,652,2.604191099999298
-114.9746346335363,999,5.758347999999387
-154.95144842536658,999,5.020517500001006
-81.89442780212892,134,0.4629595000005793
-155.82144753237765,999,4.892458700000134
-528.182071396626,395,1.5266993000004732
-116.05234337317862,118,0.41638760000205366
-95.65761811827656,110,0.3820646000021952
-117.9556212627708,999,5.266770500002167
-219.6442563498786,152,0.5364043999979913
-130.78167888213216,999,4.645216299999447
-174.2659636983686,999,4.440986300000077
-146.68525807341027,999,5.468002000001434
-119.20651152778052,999,4.7586561999996775
-96.4558374675586,999,4.4802540999990015
-109.89341439397116,999,4.633551899998565
-106.61082376068623,999,5.547183999999106
-553.6216276015941,857,4.262343600003078
-301.4897301320733,186,0.6664765999994415
-3.9292485396995716,134,0.47336250000080327
-243.93491406540335,725,3.2002094999988913
-116.41628810970478,999,5.187968500002171
-105.4881887747818,999,4.56132400000206
-113.19013702157854,999,4.993543299999146
-90.44049293770422,999,4.781809000000067
-479.4154397398933,374,1.5022632000000158
-381.74365555392995,985,5.326820099999168
-182.855573566594,999,5.683103799998207
-123.1086512484633,999,5.705595000003086
-114.72972756345048,999,4.854095300001063
-105.93414290930194,999,4.741823799999111
-113.74328660044759,384,1.5142655999989074
-85.42854770054302,999,5.134927700000844
-132.56597431710634,999,4.896739699997852
-328.34843379512284,443,1.8267363000013574
-101.76540868860738,999,5.046753599999647
-139.70258196645864,999,5.01067470000271
-110.88969799457132,128,0.4490185999966343
-115.74271825661829,999,5.075192400003289
-95.0488451365397,112,0.38430849999713246
-78.33411766780482,999,5.344140099998185
-117.13910921886993,999,5.255377600002248
-114.39764752718042,999,4.615762099998392
-484.2541852377599,746,3.1096471000018937
-345.4038890412154,170,0.5984409999982745
-110.99881252958173,115,0.4131223999975191
-563.3559153632318,887,4.189778100000694
-75.31160750347908,131,0.4581901999990805
-106.1407093906011,999,5.979593799998838
-260.9742770654825,804,3.3480612999992445
-111.59637711816787,999,4.933010799999465
-109.10504389438863,999,5.116955800000142
-131.03278497506037,999,4.742029099998035
-115.10674931258107,999,5.1025966000015615
-529.441788400045,121,0.4261724999996659
-116.69784978204534,999,4.769624500000646
-116.68248596244064,999,5.052848499999527
-105.01126640931004,999,5.148427500000253
-116.80538953594781,999,4.897764400000597
-110.40209276839549,999,5.889665299997432
-115.86286139958466,999,5.078983200000948
-122.7097606316463,240,0.9069530999986455
-141.22100400809595,150,0.5281369000003906
-132.9610775251457,999,4.668185900001845
-352.7537282636189,708,3.3036924000007275
-304.7340731816846,659,3.015591899998981
-550.7274865400038,135,0.4982780999998795
-371.82329124589404,489,1.9629640999992262
-123.78814544004368,999,5.219540400001279
-122.05759875385243,999,5.754760399999213
-136.71379567459368,999,5.676590499999293
-118.67178409824628,999,4.9555498999980045
-103.9408709438772,999,4.81878019999931
-105.4249345196352,999,5.509365099998831
-129.2399110522937,999,5.359248700002354
-104.1697551292778,999,4.554813800001284
-115.22812533824717,999,4.960564400000294
-142.48512207248143,999,5.389437100002397
-111.67231109749672,999,4.965791700000409
-138.54293185593122,999,5.733557499999733
-132.60371688541724,999,5.603649799999403
-106.4756735062013,999,5.383253099997091
-122.72422261761236,999,5.031665800001065
-118.48115017753872,999,6.138091799999529
-739.1229280624092,457,1.8267171000006783
-136.1206963043346,999,5.474483999998483
-94.9260825592096,999,4.743270699997083
-122.82596059724736,999,4.6081712000013795
-158.28432108655838,999,5.985054699998727
-141.02291842096037,999,4.732934999999998
-126.88505402450218,999,5.817827800001396
-448.7439707617256,115,0.4037243999991915
-155.74154928024683,999,4.728352599999198
-545.0066685309224,976,4.296990300001198
-149.43346579050868,999,4.436435199997504
-315.43859013042373,898,3.9415620999970997
-122.34999261981174,999,4.5867713000006916
-200.99803452752252,288,1.0618850999999268
-169.87189052073674,999,4.925634399998671
-132.1574188225043,999,6.257252799998241
-152.21899237280905,999,5.35738130000027
-215.59631912379712,734,3.0705797000009625
-100.58272952407447,106,0.3776529999995546
-69.68182948780563,247,0.9182416000003286
-103.89264261321287,999,5.213383899998007
-95.88987384779597,999,5.784337299999606
-119.32712086389927,999,4.860753700002533
-108.69099205935305,999,5.62985949999711
-188.83370431792693,287,1.0852787000003445
-123.80079863088064,999,5.7711411000018416
-253.065018503808,999,4.953419199999189
-144.14129182408018,323,1.2515346000000136
-121.07095238269537,999,4.993416900000739
-149.58585821088005,999,5.30118560000119
-304.29564379297244,901,3.8436129999972763
-116.80300691467131,999,4.461001200001192
-121.23375195277752,999,4.871090799999365
-129.3129992108318,999,5.055402400001185
-125.22328659507852,147,0.5153237000013178
-152.69954223607422,999,4.785933399998612
-135.94304936261446,999,5.422426000000996
-148.27673493950317,999,5.2020142000001215
-123.80137942217492,999,5.744994500000757
-107.38897442607825,999,5.193612700000813
-103.57975200532609,999,5.178345399999671
-458.082876508668,202,0.7387933999998495
-141.51061938381557,178,0.6795114999986254
-141.37461338246598,999,4.544289299999946
-141.43176873571485,999,4.764714799999638
-101.7463988992778,999,4.310845200001495
-153.8924746917358,999,5.630472999997437
-124.58532704520805,999,4.653027700001985
-526.9548396460575,179,0.6435177999992447
-105.12757303463435,999,5.104004400000122
-131.99437391990855,314,1.1710297000026912
-330.0487178445891,166,0.5899833000003127
-178.29802020654174,999,4.944290699997509
-133.95913592037812,999,5.883207500002754
-140.58789083833346,999,5.165684599996894
-192.86496830769636,866,4.9424763999995776
-149.9409466078766,999,5.890842799999518
-107.08921049382873,999,5.01438810000036
-149.86800008283274,999,5.859467500002211
-259.8712622597031,136,0.4911997999988671
-396.9318757563472,709,3.3814063999998325
-124.1538102398481,999,4.740508300001238
-98.73963456702138,999,4.577099300000555
-112.0721956572124,999,5.023259499997948
-99.45250893189734,452,1.8187232000018412
-155.22648475166173,999,5.829323299996759
-111.94881248981788,999,5.833106699999917
-122.85783616379548,999,4.779173599999922
-585.2088230329778,209,0.7938539999995555
-133.39728939534368,999,5.439667599999666
-149.49412835967075,999,5.018819200002326
-658.894174482984,227,0.8537123999994947
-152.99353873544948,999,4.859226300002774
-129.1069908974861,999,4.991033700000116
-189.29740946285824,203,0.7522427999974752
-250.4803203181575,999,4.668671499999618
-139.13659985100492,216,0.7736930999999458
-151.60315318705736,999,5.402253799999016
-787.9702950832465,240,0.9153566000022693
-288.54103933372915,662,2.7826858999978867
-109.78412255359885,999,4.395599100000254
-91.53302708325798,999,4.690299800000503
-150.31251202145677,999,5.447342899999057
-159.12929077500183,159,0.566388300001563
-128.75589383233006,999,5.405436200002441
-554.0598899582269,147,0.5163457000016933
-152.96629279793342,198,0.7156376000020828
-165.23812878786666,999,4.735518299999967
-139.0855691029642,999,4.6635055000006105
-112.39278610153907,999,4.4157438000002
-171.7845776022377,999,4.640546800001175
-172.7552827664802,999,4.34938979999788
-240.904118238724,856,3.80059909999909
-128.27692080362917,999,6.013408599999821
-103.00271028236891,999,4.311833600000682
-109.42057738916962,999,5.375934299998335
-126.24257828457189,999,5.07424170000013
-181.50121538553555,999,5.288513800001965
-109.08448978608679,999,5.545290699999896
-263.7331609902657,191,0.6867210999989766
-108.94488445281675,999,4.525114700001723
-138.02344969916928,999,4.592460599997139
-145.05298367874906,999,5.475836300000083
-148.81986871841755,999,4.811373399999866
-122.54828015651216,999,4.9716434000001755
-150.83252390220568,999,5.4938770000007935
-154.32674892337033,999,5.147362499999872
-160.84066660607252,999,4.845782000000327
-161.62697577072137,999,4.649640999999974
-147.01716075570084,999,5.079951899999287
-146.82817908773242,999,4.885726900000009
-156.6751881136216,999,5.364694500000041
-166.62983220613592,999,4.989279999997962
-134.93140497661244,999,4.534221999998408
-160.56486970211571,999,5.169500699998025
-352.8563767462442,384,1.5482344000010926
-156.4015853978308,999,5.010170300000027
-147.3750605601686,999,4.4593595000005735
-163.75939578639304,999,5.917258400000719
-139.03463717065517,999,4.361872099998436
-46.02634098705954,172,0.6266555999973207
-90.11780983556112,999,5.048718900001404
-368.27236566861836,982,5.4008906000017305
-165.1766948146069,999,5.577318399999058
-143.73391633292033,999,4.915805200002069
-589.3994893783857,276,1.0234081000016886
-327.0929578720843,541,2.2178916999982903
-89.76145015950013,999,4.780460900001344
-149.810684388065,999,5.794498200000817
-113.63411824568458,999,5.852234500001941
-130.40617712919033,999,5.628277599997091
-152.7339244345754,999,5.209608999997727
-149.0947065543152,999,5.270905400000629
-155.90849602443907,222,0.81391590000203
-148.5626898635708,204,0.7481117999996059
-100.33506404478481,999,4.853938199998083
-217.46146703366728,181,0.6441010999988066
-148.3209787218171,999,4.73359100000016
-136.81816430413195,999,4.656502199999522
-100.01945462633724,999,4.678969299999153
-118.02538894628853,999,5.535243399997853
-137.88713151112233,999,4.641489000001457
-116.62418023278495,999,6.335427800000616
-99.83151519511061,999,4.546932899997046
-126.90777207670915,999,4.849515100002463
-122.14706076544451,999,5.422415799999726
-136.19646211180662,999,5.789725999999064
-101.75501000288014,999,4.590835800001514
-10.104479745352648,151,0.5483033999989857
-218.90377103973077,219,0.802858400002151
-160.47352466420995,999,5.146285099999659
-157.5989353451745,999,5.936120300000766
-175.42902690265723,999,5.912378699998953
-558.5191870636849,637,3.025700300000608
-129.544851215444,999,5.4927931999991415
-127.68039016257022,999,4.830047499999637
-90.92227699006274,999,4.834184499999537
-176.84681235322947,999,5.355042999999569
-101.06339959817475,999,4.497867800000677
-171.4270687963965,999,5.033357600001182
-101.97557301121269,999,4.64896139999837
-132.42534860400772,999,5.349213800000143
-37.98368738853989,166,0.5938946999995096
-133.99562929199675,999,5.110765400000673
-578.5780233725254,233,0.8478897999993933
-100.63834025293463,167,0.581530899999052
-159.7771195442203,999,4.819288599999709
-133.94154279141162,999,5.685906500002602
-157.7217121425938,999,4.737763500001165
-443.88149583288566,264,1.009078999999474
-160.318232957538,999,4.885859900001378
-126.51346328047423,999,5.707297799999651
-459.1187895816786,187,0.6837879000013345
-131.90837853557426,999,5.44897729999866
-162.70369390195768,999,5.650252999999793
-127.10780823497338,999,4.6149270000023535
-119.77768005618468,999,4.6508635000027425
-285.99825472335,296,1.1320178000023589
-126.67826388548472,999,5.017382000001817
-84.99729112057872,999,5.046424500000285
-86.37254584482518,999,5.0666315999988
-118.50144221664283,999,4.817135400000552
-232.56766897631329,209,0.8017389999986335
-180.24956599587435,999,5.223046200000681
-104.21128152151952,999,5.773955299999216
-135.80827610750833,999,4.873837699997239
-100.82995280599984,999,4.256526799999847
-113.971816938005,999,5.299088100000517
-127.07602020374597,999,5.538258799999312
-157.59330099859253,999,5.346560500001942
-111.22525308988695,999,4.437109499998769
-140.46060783892895,999,4.722851700000319
-278.7923595454314,887,3.7804843000012625
-298.98583502043016,702,3.0350466999989294
-119.95912027880244,999,4.598510600000736
-281.3805682410527,396,1.6003557000003639
-232.03814031035765,202,0.7219054999986838
-150.4600612040209,999,5.303829399999813
-101.80238023695793,999,4.187790799998766
-171.09318671433283,821,3.665604499998153
-111.44095580398334,999,5.14330770000015
-107.51661103658589,999,4.659789699999237
-142.7837670441719,999,5.015066500000103
-150.27300223549472,999,5.106501899997966
-147.36321279349727,999,6.040321899999981
-219.23791872321715,219,0.7891753999974753
-123.92370755814399,999,5.218509499998618
-132.6335113871097,999,4.5098709000012605
-134.84407923101458,999,4.584079299998848
-74.8668230594028,999,5.940999800001009
-185.0816051014994,999,5.47608499999842
-146.7294109560993,999,4.680832699999883
-99.72295864289572,999,4.318834300000162
-95.79055554434832,999,4.82478749999791
-102.10522424955262,999,4.391169500002434
-135.12148281467324,999,4.675029900001391
-148.16534863823236,999,4.518168800001149
-103.75403130438204,999,4.869206199997279
-562.9253657313486,257,0.9659928000000946
-162.7997806981398,999,5.011793700003182
-176.66692431992823,999,5.173229600000923
-136.77099904646758,999,4.426484300001903
-172.3594352597645,999,4.907458300000144
-88.72448982944759,999,5.466369000001578
-146.05662825532846,999,4.764415500001633
-138.2614025493897,999,4.409738499998639
-122.52903175616215,999,4.865800600000512
-165.2007179680457,999,5.299148199999763
-123.79667214208492,999,4.438407300000108
-202.1124518493971,999,4.837275800000498
-139.68606425515267,999,5.214646700002049
-118.25219364987025,999,5.19964919999984
-163.18499965793217,999,5.102504899998166
-93.14001631325111,999,4.804571399999986
-188.30030323752987,999,5.562039500000537
-108.82619147077256,999,4.386206499999389
-135.25493440810155,383,1.5198125999995682
-224.99289463410278,999,4.638989799997944
-176.30401591313893,944,5.353181800001039
-147.31212979122193,999,5.1640765000011015
-83.31551526008248,999,5.3400011000012455
-339.6231076654552,855,4.268820000001142
-399.25977582553253,818,3.4806926000019303
-143.3285133231553,999,5.340819899996859
-161.4700171851859,999,5.204143499999191
-186.80514456459997,999,6.024309899999935
-116.3883318819126,999,4.6612005999995745
-88.20787987791314,999,5.108042600000772
-138.516740370376,999,5.517763599997124
-330.20156594129435,809,3.6238236999997753
-250.19640316335148,341,1.3484377000022505
-124.98863669344122,999,5.768495799999073
-183.3457040893656,516,2.1617065999998886
-169.45104413315337,999,5.235356499997579
-253.09357074879634,383,1.4657889000009163
-135.3713035385864,999,4.957014700001309
-783.5149598860412,928,4.71793020000041
-103.33072901406167,999,4.801424900000711
-98.40881291358697,999,4.535226500000135
-120.47192515232345,999,5.2033770000016375
-158.26400692845857,999,5.363785699999426
-161.60179567338233,999,5.916272800001025
-117.37148353851644,999,4.953080799998133
-484.8345103430463,536,2.458590899997944
-210.65608411093825,730,3.4864937999991525
-150.13774861684286,999,5.018026500001724
-169.98389629069533,218,0.7945629999994708
-104.67265165589787,999,4.401046099999803
-124.80291764848356,999,5.215765699998883
-153.06915209809338,999,4.86502610000025
-78.4944006505612,999,5.657644800001435
-188.48898458002412,999,4.785110900000291
-172.31639261449013,999,5.817936400002509
-117.0229559452269,999,4.660286800000904
-152.8678625686152,999,4.690876500000741
-142.86428978834368,999,4.956846299999597
-143.05416288835167,999,4.796929599997384
-132.55523495281466,999,4.600829300001351
-83.5672364752518,999,5.125506700002006
-153.12362255164038,999,5.136996900000668
-163.59068981786996,999,5.00951250000071
-130.42551231682089,999,5.104191099999298
-157.28097390005593,999,6.009852900002443
-157.40543565718744,999,5.246534300000349
-163.68491375536533,999,5.699702100002469
-115.99383341537433,999,4.669813000000431
-120.57451814911018,999,5.509868799999822
-142.78384094813555,999,5.572678299999097
-188.01344432252642,999,4.648702300000878
-90.19763389094412,999,5.765539200001513
-167.9257193049162,999,5.7423398999999336
-124.7165456534827,999,4.387319199999183
-143.05825091511798,999,5.589797100001306
-127.05467988603371,999,4.191505700000562
-157.45626505845115,999,5.244455600000947
-165.8113030088063,999,5.377006700000493
-478.6682730932849,874,3.601691600000777
-120.93462162769822,999,4.934220700000878
-276.677747849354,293,1.1321047999990697
-116.27843320008348,999,5.926709399998799
-136.52822117431992,999,5.590930700000172
-137.85356404315257,999,5.024026299997786
-169.81731355382988,999,4.7792003999966255
-99.65683697938391,999,4.82301759999973
-108.8740522462147,999,4.718658300000243
-161.5325431703235,344,1.3397518999991007
-236.17748931543306,722,2.9302573000022676
-173.39117948960129,999,5.911823500002356
-317.4409417332444,999,4.747109399999317
-122.5562723133831,999,4.532180199999857
-137.8606525740032,999,4.330189500000415
-133.76960803434773,999,5.1114625000009255
-126.08046758340642,999,4.687592199999926
-141.0245865859519,999,4.546978100002889
-133.9466291285601,999,5.678287599999749
-95.93739546482489,999,4.902637099999993
-154.9608883814361,999,4.8219284000006155
-140.10835870327168,999,4.632493900000554
-168.5389830256207,999,5.497945200000686
-170.2152207610669,999,5.074698699998407
-144.09119691988153,999,4.431247700002132
-137.5942992044487,999,5.208907799998997
-145.0105557101807,999,4.455971699997463
-143.7797925505931,999,4.643547400002717
-87.76902567176712,999,4.697224600000482
-96.5352222701809,999,5.915547299999162
-86.80428551651991,999,4.505705800002033
-148.436959647281,999,5.535794700001134
-181.9944181585892,999,4.735543700000562
-130.58581262772807,999,4.748019800001202
-60.127844441284104,135,0.49667820000104257
-158.58647853928574,999,4.788742799999454
-160.9120252533254,999,5.034819000000425
-106.92229603103567,999,4.475004700001591
-159.3983701321858,999,4.753085000000283
-133.8314110089156,999,5.280445499996858
-77.38343550641162,999,4.958421499999531
-112.70552338882334,999,5.008569999998144
-196.2314481633305,999,5.644971300000179
-189.5098551315343,999,5.821369999997842
-134.1884842487029,999,4.366235699999379
-188.79810953443894,999,4.9601359000007506
-103.24314472677764,999,4.444027700003062
-121.62894738981849,999,4.678531499997916
-118.74287374846463,999,5.212084300001152
-274.9458176458139,999,5.169292800001131
-80.08455638290206,470,1.987919499999407
-137.12415740030897,999,5.194279799998185
-80.14037244610704,999,4.68740120000075
-74.234921292868,999,4.536442100001295
-63.33092990546931,331,1.2811814000015147
-493.70776714551727,997,4.363265700001648
-509.9820340585663,847,3.922801500000787
-184.19601802765598,999,5.883126300002914
-159.70122272318477,999,5.703491300002497
-439.6681845584749,999,5.096736700001202
-133.55212637706913,999,4.631964099997276
-118.86082638842184,999,4.7066158000016
-136.0642386160541,999,4.908198500001163
-377.9316720229405,999,5.190576199998759
-149.90739647683915,999,4.578478899999027
-105.26363050473653,999,4.33998419999989
-149.17624930362783,999,4.867283999999927
-130.71015762067455,999,4.3093882000030135
-158.46254170774236,999,4.252816000000166
-91.00364525375733,999,4.688469400000031
-155.2031472117221,999,5.020130600001721
-181.48531012536722,999,5.883457400002953
-196.30259150090637,86,0.30581979999988107
-131.0932949504801,999,4.605028799996944
-113.97267619972813,999,4.738182100001723
-91.39148751840042,999,4.610698600001342
-145.5021634424621,999,4.714940300000308
-170.07671154666215,999,6.056082500002958
-149.02155463209357,999,5.677522899997712
-323.77125323630753,999,5.745038900000509
-97.16629605784264,999,5.2489378999998735
-170.85951582617207,323,1.5560669000005873
-164.48682278982412,999,6.651067599999806
-83.94975708522982,999,5.666583000001992
-339.5246844907963,292,1.393413399997371
-391.5864267266951,310,1.5084525999991456
-168.17607373257104,999,6.626425799997378
-138.94333357972005,999,6.059879499996896
-66.53358846998076,999,6.608610700001009
-367.67098811596014,813,4.623304700002336
-118.35847259105701,999,6.952615899997909
-176.45061168344353,213,0.9777117000012367
-108.50797551871949,999,5.602623399998265
-91.34747022387697,999,5.40764720000152
-126.09003600536602,999,6.9595367000001715
-162.7248799500781,999,6.990737300002365
-174.34856271268984,999,6.859491699997307
-551.0473172791778,916,5.421220199998061
-177.6624553256826,999,6.670579599998746
-108.25658864465919,999,5.600499600001058
-137.45477252451042,999,6.238898799998424
-465.23975707287076,679,3.795929400002933
-191.6653800468534,999,8.124883200001932
-150.6564118902183,999,6.46824430000197
-130.22938527479417,999,6.5396399999990535
-426.3536025162329,821,4.911849700001767
-153.52964219364534,999,5.95933999999761
-101.19853720748182,999,6.452492500000517
-139.84422020998738,999,6.163253200000327
-85.37617195965682,999,5.890443799999048
-179.33841066429403,999,7.547909199998685
-134.69022115391596,999,6.0210026999993715
-155.2209501255958,999,6.533962800000154
-163.30484854577298,999,6.934568200002104
-527.557359810667,873,4.694150999999692
-138.05085602663868,999,6.3821105000024545
-197.6842406859549,404,2.0042147999993176
-378.88539722529026,664,3.412048300000606
-124.48626388021476,999,6.275550500002282
-140.96526757247523,999,6.141848500003107
-143.11170090153794,999,5.783741800001735
-152.9225343059771,999,6.451240999998845
-138.47476773415792,999,7.2250979999989795
-116.37527362576616,999,5.61244109999825
-154.6584221122678,999,6.413255300001765
-545.2550991460257,420,2.191028600002028
-160.46223253985042,999,6.602610800000548
-337.5911319770896,87,0.3815074999984063
-267.8230407568349,102,0.4526064000019687
-394.3805184667664,485,2.4728556999980356
-166.5399185687046,999,6.170064599999023
-281.5074022039447,367,1.9178456999979971
-145.95584613111376,999,6.316318400000455
-139.4525757304298,999,5.913107899999886
-140.3816863198087,999,5.604890100003104
-167.22211323248916,999,5.705476999999519
-132.0096522627578,999,5.946474100001069
-160.9607612802029,999,6.368552799998724
-187.1529794694584,999,6.476225799997337
-185.71952913230373,999,6.599650700001803
-183.602529109221,999,6.118624500002625
-128.46889382676338,999,6.3821677999985695
-113.53925774712823,999,5.586677300001611
-343.0788338991143,382,1.8770911999999953
-131.51186389536028,999,5.653062799996405
-111.59935239441916,999,6.080950600000506
-156.4015927270677,999,5.582302400001936
-160.52542012291215,999,6.323193600001105
-155.22712407844685,999,6.874402600002213
-132.8459677738432,999,5.755495299999893
-118.95668809556261,999,5.472207399998297
-133.58697786762318,999,6.266336900000169
-278.3980589880265,264,1.2656351000005088
-187.7571657558611,999,6.198899300001358
-157.57875361750447,999,7.130043300003308
-122.7628338727903,999,6.538692499998433
-183.80304491779395,999,5.667223799999192
-102.03930004994406,999,5.398191100000986
-157.11872330183672,999,6.603023400002712
-94.28563490469978,999,6.4612446000028285
-116.7635432918746,999,7.321951599999011
-150.2000796210714,999,6.226334899998619
-341.76995568025484,781,4.665797100002237
-135.26195436372242,999,5.710533900000883
-131.50878145455187,999,6.344823100000212
-492.56272452399526,542,2.8410183000014513
-13.968433113383156,79,0.3572492000021157
-130.156467227445,999,5.889210800000001
-94.75225636091577,999,5.785118300002068
-147.478823927612,999,5.754641999999876
-175.82680123786048,999,6.814464499999303
-136.41443845478156,999,5.933582399997249
-105.66571454353834,999,6.211707200000092
-171.6546064181747,296,1.4284761999988405
-174.6702691626488,999,6.795198700001492
-120.58353163281198,999,5.53210350000154
-169.39714513929553,999,7.380756899998232
-329.22991777637424,523,2.7337489999990794
-148.9624610955169,999,6.51440569999977
-120.67141270990297,999,5.64738700000089
-617.6619201220058,491,2.400571400001354
-135.7882102167353,999,5.5587176000008185
-46.77305486957977,163,0.7326138000025821
-169.63031898092242,999,7.04966030000287
-178.72915392634476,999,7.016413099998317
-456.0055263419696,142,0.6572277000013855
-203.2386264784184,999,6.722830700000486
-167.85362100489937,999,6.604851100000815
-483.97137019435377,299,1.4138713000029384
-345.59984482624566,390,1.912759200000437
-112.41143603257419,999,5.497569400002249
-454.94779834343075,289,1.4022029000007024
-61.589199661281285,999,5.655916199997591
-169.13938231814024,999,5.9088708000017505
-133.56029298838396,999,5.848081700001785
-163.03219730472978,999,7.145465800000238
-170.46292455542883,999,5.854752999999619
-128.2393542146894,999,5.663012199998775
-173.11888872239408,999,7.626556200000778
-76.79861614315222,999,5.9904147000015655
-164.0037484876736,999,7.7187446000025375
-160.7196840870626,999,5.9366174999995565
-166.2380051933483,999,6.193923700000596
-108.32612532673299,999,6.369569099999353
-438.82178957563144,377,1.869727299999795
-169.7411072437487,999,7.214977499999804
-192.57328445630108,999,6.745242900000449
-130.14074000427968,999,6.433668800000305
-107.85621398376371,999,6.556870300002629
-150.36670331716044,999,6.0037099000001035
-95.50008854286594,999,5.636128199999803
-112.32670523915041,999,6.114466999999422
-167.84755892854298,999,6.1691916000017955
-504.8999265315563,309,1.4622467000008328
-191.64499163651078,999,6.826297499999782
-138.65151242398332,999,6.658380200002284
-134.29000752497004,999,5.31475440000213
-98.97995929701422,999,7.499029300000984
-143.96785703977687,999,6.210398400002305
-177.8175546373012,999,6.295018799999525
-176.5773542702683,999,5.882026199997199
-133.3573358466051,999,6.333083999998053
-97.63883115452498,999,5.708316100000957
-201.2534538111994,999,6.486343000000488
-166.58442399847974,999,6.8616852999984985
-127.19319745284352,999,5.889335500000016
-120.5553815712215,999,5.830360800002381
-160.01361040104175,277,1.3194230999979482
-333.3848459348901,258,1.2473375999979908
-126.21997125883816,999,5.982855700000073
-163.77854523324862,999,6.048292400002538
-162.33544141893643,999,5.797258200000215
-193.51381595371322,999,6.4650238000031095
-124.46364876157068,999,5.558900100000756
-242.21961364628334,314,1.5049856000005093
-111.18868653160332,999,5.678277800001524
-94.50779855880357,999,6.356939699999202
-137.84580629283002,999,5.7586564000012
-84.62095223840693,999,7.230059600002278
-198.06707964957198,999,7.393518600001698
-113.39891023563989,999,5.702931499999977
-129.06485512115032,999,6.30480290000196
-179.9620388786589,999,6.5117527000002156
-123.30809415228201,999,5.952898399998958
-131.11951840065834,999,6.279592399998364
-291.2936354832424,884,4.923306900000171
-120.03038022889942,999,5.638337500000489
-124.60928464873578,999,6.420806899997842
-602.1335304145557,441,2.2689726000025985
-188.5199881042098,999,6.431594500001665
-185.80287880134486,999,6.102770399997098
-112.49970350982798,999,7.001234700001078
-119.58480991532184,999,6.881977500001085
-85.35456055249091,999,7.91413939999984
-89.16728221725148,999,5.499984499998391
-87.76539041047909,999,6.400673199997982
-186.12170300756705,999,7.11231509999925
-162.14945527035638,999,6.481319700000313
-127.6811135343328,999,5.641117300001497
-157.10713731341454,999,6.49407980000251
-180.88848216707746,999,6.748510900000838
-134.2750898082307,999,5.923072699999466
-151.09807579072506,999,5.881026899998687
-151.80112021895135,999,5.758497000002535
-144.06112871621875,999,6.617287500001112
-92.98225572285045,999,5.542124999999942
-135.58624363912773,999,7.4460674000001745
-152.78387002173068,999,5.432083799998509
-717.9541661054982,989,5.594015700000455
-110.35372359785113,999,6.048094099998707
-174.5340652350852,999,5.985089600002539
-190.33375660277528,999,7.234324500001094
-118.29934985286503,999,5.724832099997002
