reward,length,time
-200.57919751728912,107,0.5699540000059642
-462.3910063585038,130,0.826584800001001
-194.87955515826536,69,0.48846779999439605
-352.2417296268927,103,0.5125785999989603
-88.68608728069142,77,0.38850479999382515
-236.0559154651757,72,0.3541549000001396
-92.43514504043088,53,0.290843999995559
-249.681578198847,81,0.45298080000065966
-145.6508282761553,71,0.4256165999977384
-353.9739585351752,108,0.5417570999998134
-201.31371537710754,175,0.9714749999984633
-275.08581346381493,107,0.5494571000017459
-362.636145463589,183,0.9853762999991886
-215.75390167141484,170,0.8682109000001219
-266.86203781942527,148,0.7528904999999213
-73.74868469927239,120,0.6425577999980305
-548.2688353756455,101,0.5262836000038078
-212.69550360858227,281,1.5803289999967092
-178.45023808045232,124,0.6516499999997905
-203.9172368793393,163,0.8619500999993761
-92.98172111883156,109,0.5905653000008897
-166.62565641017397,181,1.0167273999977624
-194.86852694088094,134,0.6758981999955722
-223.86088158424928,226,1.2236090000005788
-102.20619031351418,81,0.4252022999935434
-391.83421054100364,188,1.0752331999974558
-278.00255593781714,130,0.7446861999997054
-170.47665099283967,106,0.5473341999968397
-170.2676612014355,203,1.209264400000393
-173.34390047034134,115,0.6162283000012394
-313.20883944547745,161,0.8459947000010288
-179.19386585307336,281,1.5524955000000773
-426.358709899517,292,1.6947069999951054
-344.71838442499666,138,0.7160510999965481
-411.756007910108,163,0.8358512999984669
-55.87417972423195,247,1.3585938999967766
-336.0327728125258,103,0.6187884999962989
-287.3484258903653,235,1.2978278000009595
-298.85646159537305,259,1.4152146999986144
-145.75644514450218,533,3.3536734000008437
-202.2911729314705,209,1.1148878000021796
-116.24979793754473,198,1.0886218000014196
-93.76180365506087,151,0.7662789000023622
-199.26861596358205,90,0.47518800000398187
-171.1329169318399,110,0.5711242000033963
-170.17742717303832,247,1.3629657000055886
-255.02716725007747,207,1.0893047000063234
-156.0412231074929,171,0.886098499999207
-134.9413133551554,319,1.9382145999989007
-225.73159997864371,289,1.6830372999975225
-171.0390865178327,131,0.7880705000061425
-248.53378186077674,193,1.0564244000051985
-118.52341584126553,167,0.9463959999993676
-377.8450927695288,343,2.003622299998824
-199.6217107915022,204,1.1540040999971097
-220.6456375965999,118,0.6281032999977469
-349.3587505479062,227,1.1949834000042756
-104.41800824987506,267,1.5284217999942484
-138.45422968823465,239,1.3240660000010394
-237.81121349684585,228,1.344249599998875
-371.81541078475726,284,1.6070879000035347
-123.97892179287068,116,0.5848444000002928
-384.8471969985325,104,0.5523443000056432
-466.15632130453173,185,0.9979911999980686
-274.5853814571482,210,1.1935823000021628
-42.0043940543237,137,0.7167731000008644
-255.42443651793016,243,1.3348025000013877
-261.9201738080603,410,2.39025589999801
-504.9711524725699,263,1.462383400001272
-273.9421388324225,215,1.1842316999973264
-417.54899732214204,258,1.415104200001224
-126.92619107507086,213,1.2296257999987574
-118.04641151789798,177,0.9766156000041519
-370.01051205337285,500,3.4019592000040575
-191.60125294359466,188,1.013757299995632
-332.57073436211033,171,0.9187734999941313
-316.6068067058496,280,1.545470800003386
-348.6263716645318,220,1.157175799999095
-442.768014636594,116,0.5763409999999567
-39.89588813391947,216,1.1250014999968698
-77.00111853492115,101,0.5920449000041117
-154.88521935582543,256,1.4332265999983065
-269.0220102486646,278,1.5934464999954798
-337.07963286329436,115,0.6339117999959853
-127.97403947444694,100,0.5503823999970336
-183.89205302101198,199,1.0574225000018487
-481.0001036063568,197,1.0573313999993843
-101.93855185943215,162,0.8904020000045421
-230.61003643293228,193,1.1626092000005883
-244.25103322564738,278,1.5038420999990194
-354.68417138433324,189,1.0122240999990026
-133.90901162166534,213,1.2203338999970583
-264.7950842792891,113,0.5800484999999753
-127.08134658718417,179,0.9543561999962549
-401.52218840911877,179,0.9584993000025861
-215.48503655037646,253,1.4257727000003797
-201.9715278258555,126,0.655434599997534
-184.9131524832519,197,1.0896405999956187
-158.38718624094133,106,0.5819058999986737
-119.50623211461462,256,1.38065479999932
-29.71301648351057,208,1.074590000003809
-99.50402911921756,119,0.6166123000002699
-228.88825996149473,253,1.4751772999952664
-113.38100517873107,154,0.8173365999973612
-173.04927396592274,135,0.7239995000054478
-101.87399666876134,189,1.1434494000059203
-110.19691748815008,213,1.2473506000023917
-313.26445897793917,106,0.5758174000002327
-204.4057710972267,126,0.6610953999988851
-138.85467098470377,163,0.8502317999955267
-27.35747243246381,365,2.0895524000006844
-60.16365592042147,137,0.8069775999974809
-22.30504680232859,176,0.9539973999999347
-175.9992614183547,104,0.5288613000011537
-113.04755634729791,181,0.9448774000047706
-51.002645145809055,193,1.0234802999984822
-188.77844774715632,130,0.7593122999969637
-130.21236345474236,276,1.7575480999948923
-161.51148937468597,125,0.6358142000026419
-41.220938220910924,184,0.984768799993617
-204.1878209995984,116,0.6178388999978779
-441.76215911525077,111,0.5514028000034159
-409.3990177380816,265,1.5798527000006288
-61.53220255372203,135,0.6818138000016916
-120.87276676069567,138,0.7259224000008544
-368.7953807770023,96,0.4848111999963294
-229.33189449310584,184,0.9742517999984557
-86.81192603981025,453,2.850404199998593
-89.55283811854335,198,1.1007471999982954
-185.99792825197164,159,0.799423199998273
-241.9496913635088,195,1.0538346000030288
-289.2188500608408,88,0.45493350000469945
-425.6708563362427,100,0.521563000002061
-377.67355179690526,113,0.6628415000013774
-163.6179054227049,155,0.8368648999967263
-228.55137388492798,181,0.9727461000002222
-251.5488011044986,159,0.8384809000053792
-123.95717062607918,264,1.4518929999976535
-197.86498767376418,126,0.6964999000047101
-236.895505747109,306,1.6720614000005298
-39.39855506926865,185,1.0131345000045258
-301.6509205993201,274,1.5227588999987347
-136.08337542363824,253,1.5036149000006844
-166.78148743224511,149,0.7696623000010732
-106.8783694081951,152,0.8065744999985327
-179.14192965598272,126,0.6787202999985311
-280.5329038403049,218,1.2494606999971438
-195.6890634470057,184,1.0095147999963956
-131.2246786281927,236,1.264122699998552
-208.87732999899072,297,1.6698614999986603
-222.81292950102016,138,0.743192399997497
-387.368477521217,99,0.505715399995097
73.97124705908084,999,7.113870499997574
-86.36772794532006,193,1.1191844999993918
-243.18844374927892,114,0.5825690999990911
-300.8762533543327,199,1.1876496999975643
19.052958940901846,245,1.318288599999505
-181.09261840265634,161,0.9445535999984713
-300.9959935377226,194,1.2556580000018585
-192.90763046225317,94,0.5028815999976359
-189.80090109884947,215,1.1970375000018976
-80.43820617482778,109,0.6076835999992909
-53.37680812277502,227,1.2920165000032284
-303.358356355028,348,2.1257949999999255
-319.0874251242982,402,2.47008939999796
-92.41362477663435,198,1.0574788000012632
-102.03388673327069,214,1.1896964999978081
-171.82241904487745,151,0.9134821999978158
-116.53275946882613,291,1.6965568000014173
-340.0460484836569,300,1.676247900002636
-202.67782930443252,135,0.6907730999955675
-287.9293332231404,128,0.6829452000019955
-162.0343787748126,238,1.317384800000582
-202.58467336591553,109,0.5693862999978592
-116.17320261620151,240,1.3378405999974348
-23.155089362966407,282,1.6063949999952456
-228.69159474205998,309,1.8233134000038262
-110.71768591621978,101,0.5339534999948228
-209.3241566574111,307,1.783745100001397
-207.1517293433393,262,1.5810783000051742
-51.667143463090184,206,1.1176173999992898
-149.67476530629622,148,0.7517567999966559
-86.14720628168448,229,1.243452000002435
-152.57630246160608,99,0.5636345999955665
-128.8522152325597,120,0.6578739999968093
-274.55178316278307,184,0.9706364999947255
-93.13914234466559,175,0.933865799997875
-22.0538290539658,379,2.285696300001291
-351.5607690546901,150,0.8787910000028205
-19.145588962786462,259,1.4450751999975182
-18.685093057619483,134,0.7078839000023436
-394.50819916279056,89,0.48397169999952894
-97.46132257251315,216,1.186376100005873
-128.76896155326506,253,1.562474199999997
26.212215273492703,128,0.6552634000036051
-146.34590454560333,96,0.48960779999470105
-262.9180264935195,242,1.4135600000008708
-38.655222825906556,262,1.467123400005221
-99.90650959965416,177,0.9045542000021669
-110.91571241381611,342,1.9674429000006057
-232.42028100047293,157,0.8283611000006204
-562.2816525260827,123,0.7083794999998645
-333.7647642559006,327,1.9519650000002002
-95.4431462888742,269,1.4557160000040312
-55.3022359410609,153,0.8383270000049379
-105.03712800897355,185,1.0501541000048746
-116.65464303588124,106,0.5561075000005076
-363.3062585395929,98,0.48861430000397377
-74.28568672404533,181,0.9926221999994596
-151.9777683583997,173,0.9079669000057038
-87.4346211684713,119,0.6144912999952794
-194.60787047205326,146,0.8034753000029013
-13.396728395762636,197,1.0379541000002064
-127.16204787420224,110,0.5955642999979318
-29.912262829944268,118,0.5946794000046793
-43.51042111035349,446,3.0156407000031322
-109.3635601937718,449,2.828281199996127
-99.29905422109206,324,1.891438400001789
-109.96759031224562,202,1.160301999996591
-55.8183253937255,117,0.6014485999985482
-81.73680544171529,179,0.9838661000030697
-113.98370168999483,207,1.0956888000000617
-113.78376441777017,262,1.447880300001998
-83.92895971147044,266,1.5505192999989958
-33.014283537459576,172,0.9152411999966716
-81.67309211034116,244,1.3525477000002866
-416.4193085036943,269,1.6259417999972356
-79.90759880346931,217,1.1670892999973148
-175.7261676920672,218,1.1762130999995861
-135.78997790476947,108,0.5618370000011055
-127.55622354555202,162,0.8720153999965987
-61.22097503480533,269,1.613258000004862
-91.80269664752073,186,1.0126387999989674
-93.96209303794573,241,1.3299967999992077
-119.94142525546917,165,0.8512540000010631
-182.00858847003224,184,0.9824453000037465
-95.5107269293792,250,1.3726527000035276
-29.810109290828265,420,2.6141378000029363
-373.6569088264089,222,1.2582439000034356
-118.20822532230076,117,0.6155130000042845
-147.830757816837,164,0.9036364000057802
-271.8117294421719,403,2.6593164000005345
-39.55007190131526,347,2.0831640000033076
-85.95972643949464,143,0.7678121000062674
-224.93378869745487,175,0.916615100002673
6.066693326434617,475,2.6964883000036934
-68.99239435336882,129,0.6844095000051311
-49.63745570885956,146,0.7611142999958247
-82.76876302398702,349,2.0456329000007827
-109.22465113150602,127,0.698460100000375
-120.00443946409158,166,0.8671220000032918
-147.04734511167726,94,0.4726290999969933
-370.59888880469975,127,0.6867382999989786
-211.70702290800241,116,0.618689999995695
-189.8174881048506,169,0.8747086999937892
-21.91508229796085,365,2.200749800002086
-157.54563389346612,174,0.9321003000004566
-28.681308411112212,156,0.9358893999960856
-62.928224115610334,125,0.6957478999975137
-124.70744663382811,280,1.6340019000053871
-356.49579919978925,207,1.1011805000016466
-223.96108624566418,400,2.55540989999281
-99.8118640658816,167,0.9265299999970011
-118.43735764773798,222,1.214573700002802
-99.96481831568178,103,0.5320640999998432
-299.714699589623,223,1.3286796000029426
58.61034005006778,999,6.736091700004181
-91.03671078796393,194,1.0450123000046005
-79.89593635765335,354,2.0547148999976343
-326.7913295590565,347,2.1613183000008576
-95.2957675433723,274,1.5814449000026798
-10.948520638090002,233,1.2734391999983927
-171.27166895353943,174,0.9690488999985973
-107.37399068665401,175,0.9067242000019178
-93.86464594508804,217,1.1955076000012923
-96.94264380236308,115,0.6085855999990599
-97.14714150997163,109,0.5744690999999875
-101.79078963568112,215,1.1240048999970895
-81.9075727207741,142,0.7626824999970268
-207.16812707189592,110,0.5859897999980603
-79.17503816990492,186,0.9928564000001643
-347.0303729554817,190,0.9776525999986916
-125.45751340769947,278,1.6643695999955526
-123.65014746109914,191,1.0007148000004236
-187.81219662536222,109,0.5873790000041481
-286.6544898216719,207,1.1347353999954066
-134.51290201449706,186,0.9976371000011568
-243.8759324548063,144,0.9213342999937595
-61.229824340633236,250,1.3382921000011265
-135.8450382559925,277,1.5843571000004886
-216.90254375293875,306,1.782479900000908
-70.6314687396005,103,0.5149502000058419
-66.3937980044107,185,0.9926368000014918
-71.68254489737161,236,1.2930336999997962
-89.45374096712307,221,1.217224799998803
-288.2112714071359,231,1.3699255999963498
-5.807163973244272,231,1.2531691000040155
-174.1229587408617,89,0.46394560000044294
-277.2984598592674,191,1.0287668999953894
-228.47724080883927,203,1.1344977999979164
-29.94065344732651,358,2.1379503999996814
-98.37439007681537,158,0.8482313999993494
-189.2305721995143,217,1.1414890000014566
-278.2483111455299,271,1.472434000002977
-289.2492399216013,218,1.241836900000635
-174.3189806255686,129,0.7196684000009554
-207.45865442134243,202,1.1171230999971158
-474.9363981227918,216,1.2463640999994823
-74.96299896823454,157,0.8373853000011877
-27.289904977428932,333,1.9656599999943865
-182.42277571021083,105,0.5353925000017625
-104.85589839932778,206,1.144902899999579
-19.333261073398717,185,1.0902487999992445
-185.35052014010986,144,0.7497134000004735
-140.14045462651563,331,1.9478670000025886
-198.75504558265828,309,1.7663859000022057
-42.349314512439406,352,2.016327600002114
-231.25353890097554,131,0.6864863000009791
-142.65008461417634,199,1.0264265000005253
-138.85834762795128,101,0.5698143999979948
-26.12437985336011,124,0.6773663999993005
-317.79344639198337,155,0.8424431000021286
-190.30747165705034,276,1.5168657999965944
-130.87558049396915,125,0.6568123000033665
-310.75938191201567,242,1.396823900002346
113.00758192137376,999,6.737294099999417
-96.32453742188183,123,0.6310177000050317
-121.24106569628802,297,1.7137771000052453
-135.45621040929757,136,0.7481437999958871
112.9459000582755,999,6.39354099999764
-71.96514057490896,76,0.38389359999564476
-34.867034332216306,188,1.006635699995968
-152.2783204575691,143,0.7804562999954214
-71.92719173366274,137,0.6977762999958941
-246.9659527861666,168,0.8704963999989559
-68.24449530783698,198,1.0609277999974438
-157.83812132643345,344,2.002505200005544
-188.937238598178,284,1.71890340000391
-111.24910584358618,294,1.665411399997538
-114.05836416810337,232,1.3898467999970308
-60.32088067037551,355,2.177129999996396
-110.72043664723415,139,0.7330266999997548
-492.52516062857416,615,3.620017600005667
-190.67813102787656,258,1.4060406999997213
-79.60490282724054,149,0.8163945999986026
-221.32935360166334,192,1.0455379000050016
-141.0819824262142,97,0.5856185000011465
-321.59960687941685,399,2.5814882999984547
-186.39899664609374,178,0.9978067999982159
-11.249470376286851,143,0.7538022999942768
-51.83447184848977,306,1.8013607000029879
-243.32957398174767,268,1.435792099997343
-373.38792526468677,266,1.488922200005618
-114.93651041346753,173,0.8831465999974171
-233.67636413553475,311,1.6973714999985532
-223.51088336017796,258,1.4558724999951664
-34.001178566218755,155,0.8181798000005074
-79.81795605832758,126,0.6984564000013052
-88.16910812054296,130,0.7408983999994234
18.833534768285375,219,1.1622559000024921
-333.14744191228004,165,0.8636031999994884
-146.3427322543579,270,1.5359756000034395
-24.62387585074481,175,0.9418475000056787
-89.70807593894293,133,0.6963357999993605
-44.45912741508106,301,1.6831523000000743
-123.39379627086733,193,1.0560672000065097
-81.22929258623029,196,1.0490821999992477
41.17221608313636,152,0.8240426999982446
-118.91490510676564,226,1.2820597000027192
-249.10771931719432,207,1.0629419999968377
103.08308423691345,999,6.586280800001987
-12.488025826531015,167,0.9561229000028106
-350.8545837981279,225,1.2841408000022057
-106.0818379664309,136,0.7315416999990703
-117.6894365353349,156,0.8415983000013512
-83.92286384170447,213,1.153262799998629
-65.07579154981241,104,0.5338498999990406
-8.492241776068212,315,1.7732022999989567
-106.058107229877,200,1.0645732000048156
-202.17692425087304,141,0.7117013000024599
-471.4166899696488,119,0.6337014000018826
-94.5276170869857,104,0.5437613999965834
-189.0440035462277,203,1.1270368000041344
-89.30600946766711,131,0.6515317000012146
-101.6360093495078,292,1.608533600003284
-214.21801693174558,158,0.8379633000004105
-10.52082472977817,176,1.017644300001848
-37.14210325722978,195,1.0854024000000209
-207.3217386736027,272,1.4548328000018955
-18.656313950152125,235,1.3234697999942
-465.8350706270016,114,0.5620992999974987
-160.44954437278534,119,0.5992903000005754
-117.72967948102269,185,0.9945989000043483
-39.75164121115753,134,0.7212257999999565
-144.76376437952393,135,0.6591313000026275
-173.81534750294642,108,0.5591169999970589
-44.309625963088685,175,0.8993255000023055
-80.70814471584264,213,1.2128011000022525
-124.33371799612921,244,1.4667396000004373
49.59810593083705,189,1.0019509000048856
-157.0140304815925,135,0.771108799999638
-117.365381084521,135,0.7139326999968034
-222.08401179535326,250,1.430154699999548
-182.3057027575386,242,1.2647636000037892
-303.09163790768173,197,1.0626214999938384
-90.80980433174273,267,1.5011569999987842
-257.46927778733686,144,0.7527240000054007
-151.5975585959342,176,0.941918299999088
-14.52306782220785,195,1.0532042999984697
-21.23169228790644,128,0.6635748999979114
-5.9413851844745125,228,1.2420098999937181
-454.11842337261004,304,1.7978672999961418
-3.7894266884118792,225,1.2309803000025568
-258.3770617702975,151,0.775431900001422
-103.23983005785355,148,0.8910006000005524
-47.28337920557916,418,2.4247856000001775
-46.364797897112446,101,0.5496627999964403
6.324251013099371,178,0.9282805000038934
-190.91632144825618,196,1.1100623999955133
-141.52986724310185,697,4.697586800000863
-149.98866299051787,207,1.1474193999965792
-43.31753266236149,261,1.4904053999998723
-40.19351407891354,169,0.9132278999968548
-123.50337245681534,120,0.7525306000025012
-121.61344629906154,126,0.7232729000024847
-100.5979490980196,220,1.2130348999999114
-70.36897520212852,249,1.3307249000063166
-97.38128410210261,154,0.827892500004964
-83.03273934056762,263,1.4788285000031465
-31.507942845955043,144,0.7515245000031427
175.980051699981,999,6.037585500002024
-16.57487380155439,206,1.1110590000025695
103.51712363467156,999,6.503588400002627
-94.18239594077122,206,1.1401679000045988
-181.38598533610912,168,0.902350700001989
79.89617917001809,999,6.811859099994763
-101.8193261327654,249,1.4796791000044323
-64.96672255945505,157,0.8736131999976351
-70.16454625395815,128,0.6971116999993683
-41.528039475392106,130,0.6483225999982096
-75.71741381472847,289,1.5440148999987287
-99.45176255669283,201,1.0696524000013596
-35.87067670713839,186,1.0111810000016703
-105.59553320279335,278,1.4735643999956665
109.7995612313509,999,6.7988295999966795
-8.669746069930966,231,1.3724851999941166
-215.73079412787496,244,1.2870684000008623
-66.84196315906712,311,1.8103611999977147
80.98773477214047,999,6.492722599999979
-24.234456112179544,201,1.0830559999958496
-247.3132379103693,197,1.0254683000021032
2.1179605368404424,179,1.1392657000033068
-37.16648372174649,237,1.385956800004351
-12.923458800025557,142,0.7973673000014969
-20.137455981976316,184,0.9751767999987351
5.5577298250049125,261,1.4210529000047245
-332.66363022616326,183,0.9894248999989941
-349.1026924274079,285,1.5625805000017863
-28.620460252039948,281,1.6101672000004328
-49.3518108644711,145,0.802602099996875
-74.42852638851522,96,0.5143989999996847
68.96821125332005,999,7.233877999999095
75.42492082831926,999,6.240906999999424
-47.01974741244355,156,0.8037347999998019
-0.5928553690189347,201,1.1551601000028313
-125.01097161160938,126,0.6932043000051635
-34.00855986742049,232,1.1843203000025824
-61.48610917914416,163,0.8866654999947059
-237.04081414545274,173,0.9232875000016065
-105.61800275125621,160,0.8749861999967834
-121.33234794060056,168,0.950098600005731
-38.349348906068776,81,0.4084609999990789
-43.595029761770206,210,1.1409224000017275
-76.2455120843329,130,0.6744374000045354
-201.34722503481703,206,1.0887254999979632
-14.297860322485803,151,0.7688620999979321
117.51636029435117,999,6.4581934999951045
-81.00233394445948,117,0.6510821000047144
-186.02866687454002,170,0.9216098999968381
-74.10613921061955,312,1.826755800000683
-62.95722910142055,178,1.0420516000012867
-101.81435609692758,182,1.0023171000066213
-49.561168681166606,200,1.0917571999962092
-113.92088626670531,177,0.9608176999972784
-84.9875058363048,229,1.2679051000013715
-213.10355380753498,260,1.431873599998653
-111.15828410355752,132,0.7065250999949058
-27.49019909177737,160,0.8406042999995407
-54.9242070530907,304,1.7985260999994352
-298.13252727117606,360,2.13254560000496
-239.00131529383657,153,0.8370008999991114
-105.01049122965975,108,0.5598491999990074
-150.6266892678665,112,0.6383443000013358
-216.94052355750858,203,1.1159656000018003
-36.07354713923519,264,1.4742588000008254
-99.78192312087899,215,1.1326952999952482
-55.95612077387001,310,1.772296399998595
0.46283427995973625,239,1.2893716000035056
-487.4228484875427,107,0.5503366999982973
-30.590967476403577,158,0.8740495999954874
-274.22414121693663,261,1.4172959999996237
-72.32788021108591,227,1.2730288000020664
-88.07817551456039,232,1.3324415999959456
-38.329595388834626,175,0.9291635999979917
-46.31582671825615,183,0.9574558999956935
-131.61049328544172,118,0.6548815000060131
132.53297649746284,999,6.547949499996321
-76.06332570883029,140,0.7296176000018022
-188.1261073640643,153,0.8007179999985965
-29.54131343317073,245,1.314121299998078
-77.01381921488701,191,1.108880899999349
-77.02623167401623,118,0.6092681000009179
-22.806521609559866,164,0.8693799000029685
-65.35877565906443,216,1.1780158000037773
46.34033521462131,999,8.411002599998028
-38.05756222826272,149,0.8116431999951601
93.54595087263995,999,6.873526199997286
-40.88467052773379,275,1.6045406000048388
-5.842392834573857,293,1.643587699996715
-246.14346373248412,145,0.8219850000023143
-81.55501141836696,163,0.8369068000029074
-189.2751456082529,132,0.6592595000038273
-30.20937897827359,199,1.0741846000018995
-228.47523966441844,203,1.0687941999931354
-339.22540568162094,163,0.8629570999983116
-102.70433983762359,234,1.2941127000012784
-313.9348447020784,225,1.2550794999988284
-70.20153464156319,205,1.0707798000003095
-28.056246666528935,109,0.5784161999981734
-40.27342227610815,152,0.8133509999970556
-223.2543427727468,226,1.3827118999979575
-36.658366651980614,287,1.6597624999994878
-69.46452126936387,85,0.44592610000108834
-155.8720110704972,97,0.4855544000020018
-88.25552067719299,128,0.6604157999972813
-44.75301849388039,240,1.313837000001513
-161.4938480421237,124,0.6587878999998793
-188.16983759356197,182,0.9897381000046153
-428.84827362930486,227,1.2533417000013287
-231.4235975579012,264,1.4741750999965006
-109.77730626770786,212,1.0769042000029003
-279.29339704377196,190,1.1001300999996602
-203.56842757424755,134,0.691730300000927
-63.90073349451053,272,1.4469735000020592
-307.99860948410014,147,0.819558799994411
-53.90609852081502,320,1.9494269999995595
0.12743121943918823,202,1.134348299994599
-117.4929489544429,219,1.1873741000017617
-78.37021260785006,118,0.6320693000016036
-119.03440053375492,104,0.5350213999990956
-29.091749093197123,232,1.1961867999998503
-168.16627663292516,220,1.119271999996272
83.85756614683916,999,6.4722534000029555
-18.791337701630084,200,1.1181205999964732
-28.118137033186315,186,1.0590846999984933
87.86604050987191,999,7.303354099996795
-244.2227183775359,274,1.388498599997547
-183.71948568655134,382,2.1023127999942517
-67.00208989026942,197,0.9985315000012633
-59.229722338803995,166,0.8666951999985031
-141.2883576944067,255,1.3810524999935296
-302.6752386158362,370,2.189186299998255
-297.7638345159145,139,0.8329374000022653
-194.2079878010777,175,0.9140724999961094
-32.97664042773215,176,0.9269159000032232
-37.376100145895364,262,1.3769732999935513
-31.453702621365665,136,0.6712859999970533
-30.820341521784897,316,1.6538435999973444
126.11321280978052,999,6.218211099992914
-12.025898794791672,150,0.8479761999988114
-83.7601474179873,190,0.9738016999981483
108.9033590226704,999,6.138381400000071
-0.933780431407456,120,0.5928780000031111
-42.14504090357595,202,1.0680624000015086
-114.64703761265689,138,0.7415749000065261
-168.87194230064796,264,1.375877099999343
-43.74408092544504,121,0.613649400002032
65.47526976798122,999,6.559819900001457
-195.20495133481586,191,0.990905800004839
-9.630903227798811,270,1.4596802999949432
-51.580100782566404,180,0.9264592999970773
-126.57165424202562,186,1.0498328999965452
-71.77907254788042,231,1.2972614000027534
111.11854822843637,999,6.63692219999939
-97.5036163454693,168,0.843953399999009
42.497326127169345,200,1.0891929999997956
83.85609419206067,999,6.2850961000003736
-172.39220288700017,133,0.7014692000011564
25.837763123302608,152,0.8236886000013328
-24.48053779125287,190,0.9384639999989304
-95.9866347291798,209,1.0490951000028872
114.4553732211897,999,6.221576700001606
-86.68469396803788,217,1.1387011000042548
-37.82662576275753,186,0.9597609999982524
-162.88359392886434,144,0.7245620000030613
-280.75837157227295,271,1.4351262999989558
3.499479564805881,164,0.9023130000059609
-192.24317161180858,194,1.014698999999382
-96.345629858628,237,1.2173781999954372
-364.8813659151355,433,2.397351899999194
78.82034872524596,999,5.835296999997809
-229.0846045062419,277,1.4068630000037956
-66.80320434986007,217,1.083415300003253
-38.888895707612036,218,1.1305445000034524
-81.40703294218679,174,0.8890052999995532
-202.22045848888018,168,0.8989560000045458
-45.727339384188916,199,1.0643472999945516
86.11075191210384,999,6.093138900003396
-82.73686380855135,168,0.8305984999969951
-512.0200221926493,344,1.8374416000006022
-189.62944808948063,191,0.9491348000010476
-280.35135350849134,128,0.638240100000985
73.68637235380218,999,6.184336599995731
-160.10536713645226,114,0.5609070999998949
-10.561374647704952,119,0.5771783000018331
-35.084972186324336,203,1.039702899994154
-56.78289804138885,205,1.0803278000021237
-82.65828582585848,290,1.5612459999974817
-97.48496086563607,222,1.1344983000017237
-64.67453630102185,345,1.915147200001229
-128.72019699173592,288,1.5209459999969113
-270.34995193045035,254,1.3479641000012634
-38.52966322170131,169,0.8367838999984087
-212.48668020506074,221,1.2127099000063026
-21.81009619850596,162,0.7964447999984259
-154.74659402591521,176,0.8995785000006435
-39.764873744104975,311,1.701012699995772
-73.81588161801196,90,0.4773815000007744
-69.01399307723845,197,1.0110458000053768
-107.08410754018385,241,1.3376601999989362
-72.92962946654657,172,0.8582864000054542
-208.05882333675663,201,1.0647806999986642
-48.737309944729034,256,1.3236983000024338
-224.88510974279413,264,1.35241049999604
-77.17629513529057,344,1.9109295000016573
-131.04658154366535,149,0.7729484000010416
-56.90128038816711,284,1.5686385000008158
-135.95172960970848,100,0.5215654000057839
-37.56096677735487,274,1.4055689000015263
-33.0345918466266,204,1.054327599995304
-5.075365685668345,165,1.0234921999945072
-80.98346318429188,160,0.8578233999942313
-51.894944441357126,133,0.6487750000014785
-205.5459034799449,250,1.3125989999971353
-181.55837992912552,94,0.4478887000004761
-144.73109080701445,152,0.7678669999950216
-57.81349470109063,231,1.1790629000024637
-155.69412651601004,194,0.9670796999998856
-36.37502252315579,196,1.0098562999992282
-30.19243615566758,190,0.9547951999993529
-23.789576234126443,184,0.929281800003082
106.86324145701214,999,6.800023499999952
-48.56170545840324,256,1.3441534000012325
-168.14632996276399,106,0.5435806999958004
-358.97600343188196,197,0.9896130999986781
-34.89887239140853,305,1.6569860000017798
-39.4630738627483,228,1.1809610999989673
-90.87018074655501,123,0.6283257000031881
-61.12274515191244,190,0.9814392999978736
-386.93260000902256,264,1.3556773999953293
-60.43175566255518,130,0.662657400003809
-471.09210234184843,256,1.3851911000019754
-92.25081933969298,194,0.9755053999979282
-225.96288900305495,97,0.4802412999997614
-85.58442469217626,248,1.273757499999192
-66.53668556064983,105,0.5633747999963816
-189.1046687432813,291,1.6276051999957417
-375.54423690011424,324,1.780596600001445
21.149674370787437,150,0.7407347000043956
-102.59680766527839,217,1.1341151000015088
-228.45921681273936,88,0.4763472999984515
-89.41585905931775,174,0.8608727999962866
-193.1545891293673,359,2.1341821999958484
-175.61594750069378,240,1.3192245999962324
-34.78200150536874,144,0.8068327000000863
-35.48302250653717,136,0.7745945999995456
-28.705973183782802,152,0.8112553999962984
-35.763600542165975,205,1.094686600001296
-18.0021721973403,229,1.249535000002652
73.59348085039373,999,6.506521600000269
139.85913492367703,999,6.64229310000519
-120.83564429131847,109,0.6863045999998576
-222.78304843773077,264,1.5404829999970389
-41.36346051815251,207,1.165688399996725
-29.6762039173544,210,1.1347714999938034
-212.54346678311123,294,1.6864616999955615
-46.8913133866445,180,0.9412650000012945
-263.9229308645789,238,1.3223223999957554
-64.12930689741555,228,1.230389100004686
25.624613830461726,206,1.1350576999975601
-24.327084479321726,298,1.6314935999980662
-261.76670594710515,270,1.650486999998975
-423.8766378296272,361,2.1377422000005026
-385.7381159652406,230,1.309195699999691
66.81504267925112,999,6.736588200001279
45.23723873820692,999,6.737895400001435
-220.92790006138353,223,1.3051793000049656
-40.039681546143875,249,1.3617846999986796
83.59505418050232,999,7.053438799994183
-62.77005111030516,178,1.1000618999969447
-58.27474736426662,238,1.349694399999862
-86.51076760879144,243,1.3358124000005773
-38.28409024688467,332,1.9228413000018918
64.0030530250958,999,6.370597799999814
-318.9446738566412,162,0.8850096000023768
-188.47064559239993,152,0.8227286999972421
-37.58095316185465,208,1.0979690000021947
-271.597786959127,213,1.3616295000028913
-86.90770660332942,196,1.0428098000047612
-5.36003385209014,217,1.1283610000027693
-92.9152327313645,169,0.8699945999978809
-21.164219321997592,165,0.9086643999980879
-84.79052982396898,257,1.4803498999972362
-167.48419791702145,156,0.8580050000018673
-37.68487024548412,93,0.47043940000003204
113.18873955352137,999,7.588244299993676
-19.94363266779031,217,1.1886871999959112
-89.10368985587951,177,0.973755799997889
-55.854859270235394,250,1.3253219999969588
-30.494303836292474,280,1.667137799995544
-41.415456177481666,82,0.43112809999729507
141.41795933023343,999,6.795431699996698
-46.08942942805797,250,1.3685422000053222
-164.37032811406254,124,0.6868326000039815
89.10839999805742,999,6.527366100002837
-74.04703688131112,142,0.7409272000004421
-225.27837732733357,354,2.0083454999985406
-137.8215212631148,229,1.2121100000003935
-336.1753865746265,269,1.5341872999997577
-25.499145873121975,328,1.944430999996257
122.68954882082303,999,7.0038440999996965
-223.2505943800944,250,1.4415030000018305
99.03762599815862,999,6.740397200002917
-12.601486788646724,251,1.3744799999985844
97.52150354647846,999,6.946113999998488
-53.532673360800004,208,1.0883960999999545
-112.84432476010623,100,0.5292011999990791
116.80927671116469,999,6.541029300002265
-72.49096434721297,124,0.6739653999975417
-71.02471369176286,106,0.5615491999997175
68.85908822156975,999,6.9039397000015015
-4.404266066999597,131,0.6825237999946694
-40.37329361732866,107,0.5457461999976658
-54.828366271012776,228,1.266158099999302
-58.29393549150547,117,0.6115753999984008
11.10981824286803,180,1.0080385000037495
-138.93277845830482,134,0.7421921999994083
-1.727367043729359,226,1.2053380999932415
-251.66238203830923,191,1.0017277000006288
-141.34285937706954,291,1.5905601999984356
-275.3168879526982,220,1.2770774999953574
86.42424102963014,999,7.564945699996315
-3.7647091644714834,161,0.8723148999997647
2.4360805883993635,170,1.1244290999966324
-316.75706795948173,732,4.688757399999304
-157.3740752841831,183,1.035390600001847
-293.4956369212533,278,1.5381946000052267
-180.9025530869661,237,1.3234777000034228
-189.498008549292,191,1.1521463000026415
-20.204847552042054,209,1.122433500000625
-258.2917555783042,420,2.621300600003451
-39.73319032393604,200,1.1349684999950114
44.12987753839994,157,0.8393809000044712
-284.01591697454387,100,0.5282540000043809
-73.58897795807786,159,0.8625560000000405
-141.05723715261166,138,0.7505455999998958
-67.96111922904997,128,0.6590817000032985
-88.07460374164263,118,0.6882654000000912
-24.266729985461296,218,1.2266765999956988
-72.69010577507588,234,1.2499978999985615
-254.0137493505661,219,1.2226603000017349
-117.99797353577954,131,0.7125855999984196
-62.78066976598935,218,1.1308332000044174
-44.10145906883359,104,0.5360295999998925
-183.096595182302,185,0.9683793000003789
-41.9912194148438,286,1.6477075000002515
84.47380352048047,999,5.99345689999609
-168.39363757602243,159,0.9502999000033014
-68.33832572170543,236,1.3027247999998508
-20.732823571279113,257,1.4324835000006715
-6.8645105794709735,267,1.4867408999998588
-42.12285352668745,135,0.6959172999995644
77.29439080958798,999,6.887939099993673
-187.63274797542675,169,0.9277621000001091
-86.0084660882447,388,2.3708511000004364
1.2817142362889342,453,2.570033700001659
124.63538687340379,999,6.639260600000853
-336.79310231749554,167,0.9021627000038279
128.58571680987546,999,7.354907500004629
144.98631706022147,999,6.583856600002036
-262.8135806766632,314,1.7868324000010034
-131.49534779074193,141,0.7580145000029006
-42.145292891569056,338,2.1012876000022516
-119.7452244173056,70,0.35381540000526
19.81496497814227,181,0.9957995000004303
103.13235188048651,999,7.003741000000446
-25.55478924195917,170,0.9387735999989673
-100.57920351264183,246,1.38293259999773
-28.74693604675545,138,0.7005253000024823
-104.41480754702204,197,1.0949965000036173
-62.65025572607603,352,2.0960926999978255
-55.7413169077779,133,0.6954840999969747
7.9958876395519605,999,6.874718600003689
106.8723263881993,999,7.0573730999967665
-33.81731935228609,130,0.7489537000001292
-317.14927629277884,279,1.576680199999828
-105.28946602658814,320,1.7802424999972573
-175.57954002897992,179,1.0020329000035417
-213.27490631386266,282,1.5342197999998461
-95.39541576765644,180,0.929305600002408
-241.08659466190744,169,0.8929533999980777
-51.08730515719305,266,1.4778177999978652
-126.24065485091921,157,0.8861170000018319
-93.42825277271648,185,0.9480844999998226
-24.534943871688085,173,0.8749551000000793
3.608272115720382,209,1.158335399995849
-3.3701503128015844,237,1.399053899993305
137.92201754320055,999,7.167624599998817
6.3859813725811705,202,1.088676100000157
27.812316871153925,123,0.7409342999962973
-130.74411900033232,332,1.998973499998101
4.787658313620611,153,0.8885675999990781
-50.083351914763455,124,0.6807959999932791
19.272460301241253,247,1.4876299999959883
49.695916034071196,999,7.455690199996752
47.09095880612669,999,6.747543299999961
-153.8264188424605,155,0.7873402000041096
-102.79896363533084,109,0.5869316999960574
124.99481097919073,999,6.271381600003224
115.5446165298886,999,7.127203900003224
56.915157736100014,999,6.6574993999965955
-177.4828470208687,183,0.9519899999941117
-94.39035963421465,134,0.714770699996734
-223.93023028536675,221,1.3093053999982658
-201.90011328316675,123,0.6911400000026333
131.62922835519362,999,7.2769890999989
-77.20602836999032,224,1.1915315999940503
-53.603088687521584,215,1.1729147999940324
-62.54873847583123,132,0.6614047999973991
-55.40599538138818,227,1.2569855999972788
36.981539999825856,230,1.308864899998298
114.48768805409955,999,6.954471999997622
-13.868508748683794,214,1.1830595999999787
-243.78576064356727,329,1.853095200000098
-5.951284678303267,155,0.7904316999993171
82.0733343420589,999,6.866756399998849
-208.5070310154481,99,0.5614913000026718
-36.31315128334028,133,0.7266383999958634
-266.68070507598804,146,0.7857014999972307
37.384779837972246,182,1.0826799999995274
-43.224524311079065,150,0.8151406999968458
-140.46226788555538,264,1.4826583999965806
-92.28478007612809,386,2.2791092000043136
-29.455263710678338,177,0.9638240999993286
-230.88180639140944,96,0.4821604999960982
-24.768336278517154,196,1.0620564999990165
-186.951558387925,787,4.924509200005559
-121.93344876928613,246,1.4033409999974538
-47.46605641444816,204,1.102883200001088
-84.2920270629529,98,0.5232305999961682
-55.63726350913414,178,0.9130440000008093
-15.555337369529568,154,0.8261887999979081
-65.55771253300848,377,2.1657969000007142
-270.30772533885306,382,2.219971499995154
-29.723479624512464,131,0.679487399997015
-71.08968170032703,266,1.4785183999993023
-65.15332367381741,309,1.8324302999972133
70.80789254340465,999,6.379197700000077
-112.41453541665393,246,1.3518642999988515
-261.99814225863577,142,0.7195142000055057
-67.94333539052707,119,0.6317873000007239
-293.37271128853257,137,0.6788359999991371
5.7282831575332835,188,0.9975680999996257
-104.2608707326315,110,0.5810705999974743
-80.29523220494974,254,1.4166460999986157
-21.007391067546664,153,0.8421702000050573
-95.84414801738308,211,1.1725527999951737
-297.2237630445079,195,0.9928964999999152
-134.7461801510865,160,0.7891980999993393
-113.56517790966363,150,0.7520159999985481
-500.61284199666034,136,0.8028942000019015
-26.581167006020664,329,1.793806500005303
-67.57981589525642,132,0.7070224999988568
-67.49143125804949,238,1.3438846999997622
14.67303294490361,278,1.5106857999999193
-49.946082230826875,338,1.8865867999993498
-111.76830603834482,223,1.2841428000028827
13.554053398852474,149,0.8107847999999649
-199.62272029500463,202,1.1291081000017584
-42.82018449964826,168,0.8449020999978529
-245.24543238279597,227,1.2175462000013795
-72.87281834095859,107,0.5684687000029953
-62.463003302438906,191,1.0335892000002787
-33.397883784094674,227,1.299114000001282
-118.15418756547187,249,1.3772472999989986
-273.49309391474037,276,1.5459396000005654
-15.786762251400674,183,0.982047400000738
-56.2561272585733,145,0.7626787000044715
-25.50366104919148,219,1.1993107000016607
-104.52461287363161,213,1.1712703999946825
-19.16944458122991,148,0.8226404000015464
-33.603379340737604,142,0.8192407999958959
-227.03228739945473,261,1.5027008000033675
169.98422325797316,686,4.557852600002661
-92.72238759451199,184,0.9862423000013223
-14.409343674100754,182,0.9649379999973462
24.62612723918953,258,1.4107530000037514
-75.83091811851176,137,0.7600174999970477
-100.01022150106309,308,1.7323006999940844
-151.40111241925524,192,1.0492223999972339
-42.12351290619013,163,0.8456210000003921
-6.692180489654746,214,1.2502167000056943
-157.41102856872678,181,0.98425600000337
-257.9722931607461,133,0.6895986000017729
28.604638150086743,191,1.043304500002705
-28.120796224616413,214,1.134216500002367
127.43248892037413,999,7.110970499998075
120.27165963439167,999,7.453015999999479
-4.791478756590749,183,1.0532419000010123
99.26149699344266,999,6.358912799994869
-56.98812428840519,246,1.3354589000009582
-15.2214135622647,117,0.688882399997965
-45.981473984439184,156,0.8618543000047794
-43.842645266381666,301,1.7344140999994124
-228.53798594099007,118,0.618349100004707
-107.40239071058421,218,1.1965102000031038
-74.47393581602331,163,0.8877017999984673
-92.30134238247874,87,0.4314875000054599
-56.58734820745903,314,1.8446377000000211
-8.919711319584252,158,0.8670839999977034
21.720212886196776,84,0.4390144000062719
-211.9895859021491,423,2.5121517999941716
117.02878257625608,999,6.505981900001643
-20.80255022690612,269,1.57751940000162
-59.00178241387401,76,0.4089841999957571
25.545610055829798,999,6.176685800004634
-101.11169375541431,114,0.5647319999989122
-53.32609213631029,293,1.6890883000014583
4.988903518935928,171,0.9163334999975632
-147.5727597324761,110,0.571713199999067
-204.85014241157535,177,0.9836486999993213
-16.32666621449188,199,1.091110800000024
-76.97092669135499,100,0.4781121999985771
-56.15420533775575,262,1.5685296000010567
-235.9556008199547,214,1.1930317000005743
-53.95989276076911,230,1.2221111000035307
-256.1226925970543,259,1.4410549000022002
-53.518028485018874,127,0.6504089000009117
-44.0669170029357,98,0.5441932999965502
38.9013278940287,156,0.8549147000012454
-98.91194755615726,470,2.8331349000000046
-176.5463007001704,185,1.1034834000020055
21.4026653088833,275,1.492981299998064
4.208083176885083,240,1.313788100000238
-113.73078563062458,331,1.9192948999989312
-75.07660668598187,124,0.6922141999966698
-33.035829423987764,205,1.1020672000013292
-68.76603838450093,227,1.1941435999979149
-222.2949101282457,140,0.7408924999981537
-166.58040388914935,189,1.1367357999988599
116.91082568978133,999,6.488736700004665
-33.001884193952804,145,0.7366110000002664
138.37703781844732,999,7.057138600001053
-53.276223544106344,224,1.1983131999950274
-124.42450755830801,114,0.5721897999974317
-195.88129823534382,194,1.0736423999987892
-235.39894413141673,310,1.7168124999952852
-51.0557860022692,137,0.7704784000015934
5.206528675848645,204,1.1652193999980227
-13.264284689591506,172,0.9252357000004849
6.798209479104102,179,0.983092200003739
-3.167707135910149,151,0.8284730000013951
15.193568245565842,213,1.2707023999973899
-298.95125658032816,200,1.0688805999961914
-199.53603614557863,177,0.9308122000002186
-44.50091041097664,206,1.0898230999955558
-45.330436078826075,137,0.7171909000026062
131.33334053240236,999,6.866889299999457
-221.3589698943282,201,1.057284599999548
-71.80420373855081,190,1.0229238000029
-12.004268576545996,129,0.6907412000000477
-86.37741288211129,232,1.369611200003419
-234.11680910878496,177,0.9481568999981391
-291.55420147671737,195,1.0546554000029573
-245.06370282908975,188,1.0162259000062477
3.0130573453157865,186,0.9798026999997091
-39.983420166365605,273,1.4975496000042767
-47.043074156320706,161,0.8428681999939727
-207.13739646868902,181,0.927783899998758
-84.39078733790252,83,0.4016628000026685
-203.76145275657194,306,1.7514933999991626
-22.876432305104373,156,0.8674623999977484
-83.00441149724091,185,0.9922000999940792
20.317483499674182,160,0.8369836999991094
-217.16294510865805,321,2.1047165999989375
-19.981043797357245,121,0.6690214000045671
60.642415237864896,999,7.6509561999992
-52.554777354019954,165,0.9547160000001895
-33.13990750594019,284,1.5988047999999253
-20.775664560123474,135,0.6746945999984746
