reward,length,time
-364.36018335103057,92,0.4858666000000085
-278.30300794869,181,1.2161689999993541
-276.1428436065439,70,0.3957360999993398
-231.63003259711957,106,0.5821988000025158
-259.80572148409493,165,0.8588426999995136
-184.62892441708863,149,0.7823940000016592
-196.1951032776265,107,0.5513741000031587
-197.0738952050892,55,0.26704610000160756
-178.65830638760926,126,0.6873744999975315
-594.5512593711464,92,0.4549535000041942
-309.42490818488244,201,1.1349972000025446
-272.85796494085133,140,0.7235168999977759
-335.01701049826283,136,0.7470384999978705
-143.65691478108005,223,1.4557588000025135
-441.7738432065026,213,1.1381498999980977
-351.7443205710339,94,0.473639900003036
-173.45551034269386,79,0.3913267999960226
-522.952776648922,93,0.47780649999913294
-413.1444747860959,163,0.8417330000011134
-286.1009690349674,148,0.7913496999972267
-154.186056810479,83,0.428336599994509
-107.01593280645778,110,0.5837962000005064
-284.6997336557346,144,0.7671520000003511
-239.40963255525762,221,1.1946630999955232
-483.8482281458706,92,0.4371270999981789
-306.7938816581642,122,0.6479553000026499
-297.2325945430153,120,0.6031241999953636
-118.10298941261667,90,0.4701151999979629
-311.7894792915917,123,0.6107132000033744
-255.26067504798095,135,0.7110730999993393
-506.64062668147164,115,0.5594849999979488
-417.02071417421826,123,0.6219744999980321
-110.9239864029198,111,0.5736404999988736
-275.4930344899244,215,1.1410460000042804
-88.28276624642399,93,0.49013819999527186
-221.1569951642598,144,0.8496420999945258
-236.2996461193655,104,0.5539901000011014
-196.6951607786101,156,0.8150277999957325
-514.4851875730675,160,0.8215932000020985
-145.28581962995145,118,0.6123286000001826
-333.47595922184746,166,0.874651600002835
-98.87976573837318,96,0.5479412000058801
-487.00609108841763,154,0.8250316999983625
-259.28751777184675,120,0.6448510000045644
-602.8502504173912,92,0.45717220000369707
-204.3952210918116,195,1.0263716999979806
-296.97617630612433,149,0.7685516999990796
-581.5861944564906,110,0.5580068999988725
-293.34278346560427,107,0.5294838999980129
-447.98403183813264,163,0.8636728999990737
-235.50736823433866,116,0.6144903999957023
-386.5582608886718,179,0.9476101000036579
-345.1740769889182,242,1.288594199999352
-248.57146180410516,197,1.0601165999978548
-506.3250422487591,118,0.6227818999977899
-231.98942607371364,112,0.6652562999952352
-224.86036356507748,122,0.6909263999987161
-215.85985164377058,281,1.576822600000014
-332.59272304442095,240,1.2562758999993093
-451.256479954541,184,1.029093199998897
-512.6077009956318,252,1.4071470999988378
-434.0970192106927,214,1.125530199999048
-190.5531014150523,94,0.4742289999994682
-475.1143427422345,219,1.2034640000056243
-398.48854297216803,228,1.2704178999993019
-203.74418625692948,136,0.7146826000025612
-495.1223581067408,227,1.183527300003334
-640.207436161683,221,1.225781699999061
-286.29772539884914,220,1.2175285000048461
-182.93943827213627,113,0.6866932999982964
-308.979787438401,119,0.5971379999973578
-328.9833386532413,151,0.8180731000029482
-314.3579061479513,116,0.6019414999973378
-268.6248425846958,154,0.7927322999967146
-134.89223516390908,78,0.4083612999966135
-73.50291870363242,187,1.01793429999816
-186.08012563829072,133,0.7304542000056244
-519.750201219234,215,1.2015663999991375
-276.94994126927793,175,0.9392462000032538
-379.35961219439446,171,0.8952444999958971
-501.56163308892377,107,0.5503204999986337
-363.79338472957943,202,1.0576950000031502
-464.2807104261815,118,0.6270917000001646
-495.30457000214216,140,0.7186833000014303
-346.7847310164799,150,0.7651912000001175
-378.11519563029054,128,0.6520999999993364
-257.0876489584358,187,1.0394575000027544
-338.94615767890537,113,0.58614949999901
-352.54720129867974,155,0.8780767999996897
-97.00488671546033,138,0.758014600003662
-290.0430748108824,130,0.6872595000022557
-248.8235702430994,109,0.5854358000069624
-304.9526720096958,162,0.817095899998094
-392.18485679843616,157,0.8474923000030685
-586.2762642550629,208,1.1992274000003817
-366.5360619787538,136,0.7049152999970829
-318.7964186342963,180,0.9809445999999298
-477.3788428866006,167,0.8618684000030044
-624.5484357408792,181,0.9538389000008465
-264.03145214743637,164,0.9080985999971745
-350.8568465791774,125,0.6180601999949431
-283.9381099150411,162,0.846185800000967
-182.37015264348707,185,0.967406600000686
-82.86292189522973,182,0.9817927999974927
-388.4083996000827,193,1.1407098999989103
-577.8025259483227,182,1.0035503999970388
-360.81634110119046,154,0.8067549000043073
-400.78184790536216,126,0.6584331999983988
-316.97233483771464,117,0.6348171999998158
-409.3539192536615,149,0.7894209000005503
-332.1712102504798,110,0.5764425000015763
-286.2318456145863,121,0.6453629000025103
-325.93073744595483,138,0.7719417000043904
-127.23102250400217,157,0.8086989000003086
-383.51595236077833,123,0.6682230000005802
-184.5269113432825,117,0.5949154999980237
-574.0689924974597,164,0.8517242000016267
-225.59386108134436,95,0.47750819999782834
-232.6343785253711,104,0.5157226000010269
-349.2110567151982,138,0.7492906000043149
-209.6369321764084,168,0.8642860000036308
-285.2116919969869,165,0.8624053000021377
-352.1114865736059,167,0.8955924999972922
-653.4353931707284,155,0.8396457999988343
-337.4050276895414,169,0.9748995999980252
-338.27570872829244,111,0.5403126000019256
-311.47547920951183,121,0.6640809000018635
-319.8901031539467,163,0.8370592999999644
-199.8924849422523,157,0.8365455000021029
-239.88919828959467,171,0.900282700000389
-504.9007011950516,152,0.8229148000027635
-385.2608397647093,112,0.6191259000042919
-504.3016539286389,152,0.8297588000059477
-356.6588261163914,164,0.8477932999958284
-288.6661380241671,166,0.8843686999971396
-143.93130771075934,114,0.627143799996702
-183.5576477953301,98,0.5051125999962096
-234.4100150140062,167,0.8679561999961152
-204.45583484502941,159,0.8676556999998866
-592.4449410018108,135,0.6783775000003516
-142.0347439948187,105,0.5554037000038079
-703.7998864588457,156,0.8003795999975409
-210.27586659179468,147,0.7244142999988981
17.922165740925607,176,1.1620624999995925
241.58044004338456,346,2.073095799998555
-127.82931409087573,137,0.7248240000044461
-141.4798228867723,169,1.0132705999931204
-801.4061131602591,146,0.7432229000041843
-137.32360620446624,290,1.7860416999974404
-152.49951146409634,157,0.8227436000015587
-612.5670624769149,87,0.4766057999950135
-377.141773968073,176,0.9425492000009399
-108.3028002176413,139,0.7264527999941492
-131.04043235189408,152,0.8125814000013634
-283.51942055917203,227,1.216832500002056
-146.4989358360341,127,0.6985279000000446
-108.31976212231993,106,0.5275743999955012
-57.480827637201784,156,0.8503029000057722
-305.8822338089534,136,0.7376789999980247
-120.49396172899047,107,0.5367095000037807
-141.52795960398765,147,0.8818721999996342
-485.38233680279575,492,3.2931603000033647
-77.35740990827605,302,1.8371415000001434
-228.18910880239488,149,0.8271737000031862
-401.21260822655785,141,0.7472523999967962
-137.9261157939694,118,0.6322194000022137
-151.70379496998862,189,1.0114298999978928
-223.88446879367,149,0.7561410999987856
-172.1792975956409,268,1.52045669999643
-136.52578188010432,271,1.4478025999997044
-308.9514725568548,162,0.8571227000065846
-57.7415054012786,167,0.8847591000012471
-150.7308351209042,292,1.818719199996849
-377.3829071404113,231,1.2824206999939634
-119.43268846301649,116,0.6337885999964783
-163.06564373551913,139,0.765941899997415
-405.4536864816871,166,0.9382356999994954
-352.81833008534494,859,6.306898000002548
-254.86877144340255,216,1.1648121000034735
-171.17076003455566,337,1.9080635999998776
-300.93426655394023,378,2.2601662000015494
-127.52737113618278,999,7.702021199998853
-156.25084946636974,112,0.5772806000022683
-273.383777436564,140,0.7564611000052537
-239.16471618974631,282,1.572382500002277
-156.4764819109409,109,0.5440207999999984
-185.67615084404534,220,1.2356652000016766
-124.14363394791351,149,0.7839077999960864
-290.79377742305553,112,0.6392575999998371
-53.223975404526286,166,0.9139376000021002
-168.0329899022643,129,0.684646800000337
-264.7289663057028,353,2.070686700004444
-579.274303087962,180,0.9559244999982184
-593.6419883604087,161,0.9004053999960888
-170.83979506243332,222,1.187385400000494
-265.0205355299508,313,1.8329822000014246
-298.29054857551944,191,1.0486860000019078
-148.96878201004142,246,1.3433119999972405
-217.04823765764024,353,2.280124999997497
-131.05208047239236,999,7.644989300002635
-174.13113494603715,127,0.6631851999991341
-182.4441581189267,225,1.2227916000047117
-233.0174532032668,424,2.46735020000051
-124.42730860476544,142,0.7332183000035002
-111.6159819940527,146,0.7815421999985119
-77.32114906288345,457,2.6985694999966654
-307.32151243084843,665,4.787822499994945
-479.32959171476557,176,0.9313245000012103
-200.98359397084494,201,1.0785037000023294
-109.54299145065167,150,0.7890151999963564
-196.68255385945264,182,0.9758827999976347
-271.01028731328415,158,0.8340705000009621
-225.4176169684439,380,2.202288000000408
-185.4314891243282,141,0.7126781000042683
-175.24230223928396,130,0.7483830000055605
-94.88497583141638,217,1.2412635000000591
-550.7861799933338,884,6.238850800000364
-260.85766201939015,142,0.7384917000017595
-323.4639711089991,384,2.277928500006965
-93.53895363806515,213,1.1619387000027928
-224.37743395687897,144,0.7575445000038599
-252.52234674653226,216,1.1455358999955934
-310.2489130452233,407,2.599272100000235
-161.61800967907095,353,2.0758758000010857
-79.96064392104152,173,0.9113738000014564
-81.83533751575763,117,0.6725007999993977
-128.44326151061372,999,8.133827500001644
-91.44389025223843,134,0.7129067000059877
-349.5817010055449,258,1.6139628000019002
-116.1173275604367,999,7.575697300002503
-382.00672628067304,476,3.2032557999991695
-197.81687809711147,372,2.269942599996284
-245.85553685357516,234,1.323330300001544
-122.78689227280356,999,7.734966100004385
-162.3997348429316,137,0.7299012000003131
-431.390958617937,978,7.157175600004848
-113.99298461922129,999,9.911417299997993
-94.21588596006863,111,0.7034788000019034
-92.99192230443258,120,0.6295750000062981
-174.3412427181209,211,1.2363356999994721
-113.90471051228776,999,7.275053800003661
-395.078216877511,951,6.878863700003421
-426.754704313038,88,0.4357882999975118
-120.67911786462207,999,7.890134900000703
-154.7691070333328,363,2.0885974999982864
-209.42207543580966,378,2.2994740000067395
-118.5442086445768,117,0.6011808000039309
-137.08555564447707,999,8.66296180000063
-323.58114339798647,934,6.133718900004169
-143.22469476702958,999,7.099286700002267
-97.04260657408729,999,6.591688599997724
-471.6363038907408,322,1.944368200005556
-117.72568732654143,999,8.345184500001778
-138.9616430895715,999,7.124447599999257
-132.60753916421243,999,8.835113799999817
-111.88507088891589,999,7.62527869999758
-113.06514011334444,999,7.022507499998028
-129.9765196234026,999,8.092675400002918
-123.33992591975947,999,8.759352900000522
-301.94371840842405,949,6.444070600002306
-123.55692955206835,135,0.7193640999976196
-65.81352659725988,218,1.2827102999945055
-312.1210728005899,110,0.5995169999951031
-190.84095393985257,137,0.7281992999996874
-132.77945947981286,999,7.246672699999181
-107.98607900151164,999,8.55510360000335
-102.75674654234142,999,7.789751099997375
-116.44168502844597,999,7.781137899997702
-134.79519718548482,999,7.375031799994758
-132.40187831326747,999,7.326336599995557
-143.76053099321027,999,7.976837000001979
-164.06395139648606,121,0.6234452999997302
-145.7734698234771,999,7.169603099995584
-98.1784649849574,157,0.7969826999978977
-120.5686208740077,999,8.33071370000107
-222.0569498054141,149,0.8435918000031961
-94.8717534545302,999,7.369331900001271
-250.91425336876028,941,7.5415892000019085
-139.03097066391365,999,8.067413299999316
-218.36704627797207,299,1.6642241000008653
-196.87090965559827,131,0.7266009000013582
-129.20017444340453,999,7.378498099998978
-539.4643553622926,957,6.41662560000259
-182.02563936442857,239,1.4016881999996258
-136.97918629202223,999,8.174954900001467
-133.99549687946282,999,7.161250099998142
-117.140743525075,999,8.507782400003634
-139.9997136329405,999,7.7780040000070585
-201.92449755427097,189,0.9810312999979942
-127.88078888738231,999,9.460420999996131
-190.1670770888142,120,0.637313000006543
-103.10105922042372,248,1.4530547999966075
-155.78999106649047,999,8.79379709999921
-118.2573785416781,102,0.5879936999990605
-154.0376627459538,999,7.356045199994696
-111.92711208084285,999,7.570990599997458
-618.3079345914261,249,1.5893264000042109
-123.61069757536852,146,0.7603485999934492
-330.9588662895442,188,1.06377930000599
-500.77179054546195,186,1.0758878999986337
-246.47009983445096,321,1.7708685000034166
-131.97736151969383,266,1.5153653000015765
-149.4263540808768,999,9.003132600002573
-126.8498784144485,999,7.7586464999985765
-121.8449879973044,999,7.640650100001949
-117.47721363672255,999,8.122298399997817
-124.26929726468575,999,7.552249799999117
-254.90510519879678,194,1.1787156999998842
-164.7320794665692,418,2.3886538000006112
-131.979142197507,999,7.195102899997437
-109.73944231030688,999,8.076544899995497
-111.29685359761335,999,7.932118599994283
-399.13068556095385,288,1.6365501000036602
-159.60228501850972,999,7.702685600001132
-238.22491813262258,958,8.259163199996692
-352.04998096325966,302,1.8118850999962888
-150.78399284288298,999,9.32859159999498
-106.59656906460177,999,8.877373699993768
-126.43267628509105,999,8.302053999999771
-251.48443569915827,182,1.0110807999953977
-90.54585212188684,999,9.359276700000919
-128.63326996272957,999,7.851126499997918
-163.25147503840532,264,1.4326820999995107
-154.16723018164322,999,7.094043099998089
-158.63862722852573,147,0.7544307999996818
-111.86091998038432,999,7.314924300000712
-150.64519399217312,297,1.7749447000023792
-144.95460570493236,999,9.379219599999487
-187.31736679035197,144,0.737878300002194
-133.49253745050171,999,8.523709499997494
-191.25108994101794,435,2.4633049000040046
-126.88588708627407,999,7.40600540000014
-133.91378490901047,999,8.000848099996801
-109.39438229259088,999,7.562985199998366
-729.5523949848648,126,0.6251310000006924
-121.2759332107004,999,7.262963899993338
-610.6356437487317,629,4.184755700000096
-122.52799625769914,999,7.246789099997841
-119.390397697579,999,8.567965700000059
-225.21949123768542,291,1.6496517000050517
-129.860190256371,999,7.842822600003274
-164.03188923308593,999,8.244493899997906
-482.9930807312274,889,5.958648599997105
-111.97783222376036,999,7.727670699998271
-118.79743273031954,999,9.855145699999412
-122.94755871658522,999,8.819038899993757
-131.91967106845965,999,8.088823900005082
-151.15900005884953,999,7.2307872000019415
-319.8220463057107,339,2.0536928000001353
-109.19403840853151,101,0.5476699999999255
-362.539270001874,340,1.9916701999973156
-142.37732691449185,999,7.89704360000178
-160.61684081104622,999,7.97474279999733
-124.68730423683625,999,8.269894600001862
-93.06455174925469,175,0.9136529000024893
-160.77331545993033,999,8.752433000001474
-362.0837351958062,374,2.0749823000005563
-123.32097924223098,128,0.6558686999997008
-144.5155198571034,999,8.62981469999795
-227.53068442226208,394,2.288380699996196
-147.13018699925695,999,7.508744499995373
-145.6709434426879,999,7.658225400002266
-127.41134015137537,999,8.530723300005775
-140.58906982781784,999,7.189141300004849
-133.7732990377796,999,8.044487899998785
-129.46947580130424,999,8.126423400004569
-470.2322487561377,294,1.6418055999965873
-134.56473289436826,369,2.2109852000066894
-118.49922413136206,999,7.993420300001162
-105.07102348983723,999,7.3492423000061535
-264.6522294217764,87,0.4714278000028571
-147.740668214708,999,6.9726959000036
-762.6211973387369,107,0.5640612999995938
-151.9113095285558,999,8.08817039999849
-628.4559557065193,791,5.158619099995121
-265.9120808898074,651,4.137215800001286
-526.6129297269979,185,0.9538135000038892
-128.6530804054482,999,7.946346700002323
-282.56930434781395,683,4.33410670000012
-86.16164312963036,141,0.7691841000050772
-237.0126552667038,156,0.8494243000022834
-176.43366478592884,341,1.8772938000038266
-137.14998689683975,999,8.674029300003895
-134.22562130010436,999,6.757064600002195
-94.84113026591683,156,0.8210809999945923
-166.9047221886237,165,0.9154276999979629
-132.46225035034618,999,8.191612700000405
-114.07608436718502,999,7.141869400002179
-133.8748194895232,999,8.935928899998544
-110.65694616261332,999,8.00241190000088
-138.92572511973415,999,7.701620300002105
-149.05156974327426,999,7.962002199994458
-146.39328631423749,999,7.2613082000025315
-112.56970645978225,999,6.733707799998228
-130.55974652344779,999,7.588472199997341
-146.580941205112,999,7.722840099995665
-118.59135334258308,999,7.908730499999365
-518.2658467852464,191,1.0668439000000944
-268.0307782560794,235,1.6145261000056053
-532.9986679348056,482,3.3979663999998593
-113.51331715926551,999,6.95720319999964
-125.93573956907423,999,8.459283400006825
-239.0829952547672,966,6.789385000003676
-127.38290998549748,999,6.829969999998866
-133.52472868943352,999,6.754171000000497
-132.30727882699205,999,7.418675200002326
-126.24961175296613,999,6.725622199999634
-352.36319501975095,459,2.6955798999988474
-164.42421136505794,148,0.7831798999977764
-104.98725471439555,999,7.182292799996503
-137.56142770161833,999,7.6753275000010035
-258.07762590424744,543,3.4605636000051163
-115.0478860675291,999,7.056453199998941
-168.33192923985962,665,4.417598399995768
-272.16096836883685,366,2.2422415999972145
-74.01372777569702,251,1.4272945999982767
-160.4200088856286,999,7.350623999998788
-149.0828732677617,999,8.501426200004062
-245.05809527401146,627,4.3722019999986514
-230.8111164586885,219,1.1789968000011868
-134.2957814328038,999,8.765289000002667
-171.9175078982384,999,7.530422700001509
-276.5930123547672,210,1.1716522999995505
-156.89691815448126,999,8.405159499998263
20.01081009157737,250,1.508132499999192
-382.15573973256846,381,2.2333384999947157
-94.89082781792509,999,7.241194100002758
-124.10745365256581,999,8.157083300000522
-147.74536818036148,999,8.343441199998779
-102.09608617014597,231,1.2404997999983607
-152.5698653874955,999,7.550327199998719
-301.6057696242917,329,1.9610222000046633
-135.88210411398836,999,7.193963200006692
-150.2183399877247,999,7.244199599997955
-118.79522404939696,999,7.861470899995766
-125.39062468031999,999,7.24753469999996
-135.89140170871516,999,7.59018549999746
-154.0733715418779,999,6.739626700000372
-166.45613359122532,337,1.863884099999268
-351.0937259893197,232,1.2045810999989044
-237.8997877504077,219,1.2672611999951187
-163.1964716865058,999,7.508268500001577
-359.9022826763396,810,5.688141699996777
-419.1033328110474,175,0.8716408999971463
-155.29909554016112,320,1.9385961000007228
-131.84414525848226,999,7.756414299998141
-103.11178122710857,999,6.420693200001551
-291.0984550857538,802,4.9582657999999356
-121.37989545452808,999,6.890911800001049
-626.4974619888015,999,7.671651700002258
-150.14734103595177,999,6.480185000000347
-120.42208413915681,101,0.4778026000058162
-121.68027844952229,999,6.757411799997499
-24.115509537077315,220,1.1436845999996876
-267.8363035339853,704,4.616375500001595
-261.29321683517554,192,0.9764180000056513
-298.1904220266053,803,4.699017400002049
-288.22626656984175,868,5.469750999996904
-142.49599488878644,999,8.031476700001804
-117.54054514080407,999,6.893049999998766
-118.01344576366441,198,1.0615640999967582
-300.2328643339399,994,6.980663800000912
-252.34653130441973,833,5.160463100000925
-148.78262331529456,999,7.603964000001724
-147.80006102536862,999,6.414594100002432
-169.04693634921978,223,1.1577293000009377
-241.29943012434643,775,5.669811399995524
-221.94476345116772,501,2.9533663999973214
-189.31661676866037,999,7.5114259999973
-129.60508065490058,999,8.536803400005738
-133.66757654673503,999,7.514624100003857
-168.512873621906,999,8.290313799996511
-118.61821922209124,999,8.01263050000125
-123.982315086859,999,8.48487209999439
-136.47036923387174,999,8.25945800000045
-157.28683643060126,999,7.83850170000369
-168.55239451610348,999,7.1259486000053585
-151.99484035435913,999,7.614322900000843
-119.62811725017698,999,7.865914900001371
-167.2295091774507,999,9.082693199998175
-145.29354413967073,999,7.34302540000499
-129.54422296761857,999,7.623911700000463
-133.48095758328543,346,2.139108200004557
-645.322717516247,475,2.750685599996359
-128.9002785624877,999,7.914398599998094
-224.75922859951714,611,3.90022719999979
-115.71613258252864,999,7.066640900004131
-136.61190082222973,999,8.207479999997304
-292.57991587289087,889,6.399933900000178
-71.50485970802892,999,6.701568399999815
-158.85527478883802,999,8.838676100000157
-263.4960197818848,123,0.638630400004331
-111.29858780973913,999,8.774841300000844
-52.58718227610889,123,0.6602263999957358
-148.0138599305648,999,7.945880399995076
-105.5335060269113,999,6.298563999996986
-146.94496868032792,999,7.292559000001347
-148.31766492049803,999,7.212323899999319
-141.76635967041847,999,8.107527299995127
-162.82978659307238,999,7.580292600003304
-102.21303184173023,999,8.413681700003508
-162.11640909231514,999,8.342389199999161
-162.32782275487463,999,7.596293599999626
-87.86931296816768,999,8.602595900003507
-156.62227164532396,999,8.880617700000585
-143.5146972472954,212,1.195533300000534
-158.10276529423177,999,6.722942100001092
-176.9303475339771,999,6.64007689999562
-99.29806306850934,999,7.7773162000012235
-116.19291632282004,999,8.59780829999363
6.169050418592434,296,1.707322700000077
-353.45067120666465,290,1.5772296999930404
-96.15245583768187,999,7.848261300001468
-152.2069548366464,999,7.67448410000361
-156.09868570546695,999,8.471847699998762
-179.0555717500924,999,7.5608558999956585
-177.62511902105962,999,7.275970499998948
-60.959612634569986,277,1.596232500000042
-145.60531172548082,999,8.577258299999812
-314.2293769953138,863,6.947505100004491
-122.71720099123046,999,6.880365799996071
-152.47043692913715,999,7.427278600000136
-151.0764213707891,999,7.373327299996163
-154.66382514102332,999,7.750762100004067
-145.28280925917625,999,8.60587680000026
-141.36297691262826,999,7.931042999996862
-127.07085484075249,999,8.790029100004176
-105.98707708406984,999,6.989847199998621
-171.12570037568008,999,8.579325999999128
-182.32635574080354,999,6.673753000002762
-150.3246994105402,999,6.850957099995867
-150.74189850954707,999,8.509483699999691
-146.8560637128138,999,8.21920439999667
-110.26889478072313,999,6.905648599997221
-139.6263397159809,999,7.627126100000169
-102.40748632593822,999,7.8793860000005225
-125.47527669241104,999,7.635801500000525
-134.38702312588947,999,8.097507099999348
-130.8100077719187,999,7.41481670000212
-144.388629021949,999,8.357665499999712
-116.38516481423206,999,8.705189700005576
-98.66392886965141,999,7.07180750000407
-93.06929960502313,999,7.326135700001032
-153.66588140702424,999,7.75418830000126
-98.96536938995087,999,7.37399269999878
-161.7366911879282,999,7.700577700001304
-126.20980889458937,452,2.705452599999262
-150.99541402827356,999,7.547959899995476
-146.65582979905017,999,7.876724299996567
-114.50643131511437,999,7.967823999999382
-107.95122078673904,999,8.11938929999451
-79.08604445076051,999,6.737907700000505
-153.99174101699404,999,7.078442899997754
-105.33656561172054,999,8.330454800001462
-121.68505841450177,999,6.97194650000165
-113.93018042905177,999,7.043974899999739
-134.48748154767273,999,7.600712999999814
-64.17255666511876,999,6.794546500001161
-183.32942773202075,999,9.437777099999948
-167.0779172151508,999,7.305878200000734
-243.85858088109563,85,0.4647354999979143
-125.48533733639361,999,9.108555300001171
-95.15231160190471,124,0.6832798999967054
-142.6512091386803,999,6.775780299998587
-149.17574448764879,999,6.715339000002132
-129.69955202972196,999,6.3037452999997186
-165.1186592060339,999,6.3751200000042445
-149.95080773325805,999,7.916958200003137
-130.8872938416923,999,7.044882200003485
-158.93348824811486,999,8.25687669999752
-164.7879810908234,999,7.579946400001063
-192.8287092992714,999,7.152747600004659
-137.0070967124795,999,7.59056089999649
-121.31951495756263,999,7.41618940000626
-187.44627199213127,999,8.414494500000728
-125.27257423762796,999,7.694242399993527
-86.97563250741439,999,6.932290999997349
-181.09823133679157,999,8.423828399994818
-126.41751527519756,999,6.9341254999962985
-175.14552262955584,999,7.2835743999967235
-98.71462728863312,999,7.755605600003037
-150.18540126761323,999,7.509652699998696
-179.2153334942936,999,7.730285699995875
-149.28127462229375,999,8.141436199999589
-194.75538667792537,999,7.494484700000612
-114.81440052973007,999,6.707647899995209
-173.22001310634204,999,8.273439299999154
-133.2980895536673,999,8.79954230000294
-161.05538005646915,999,8.37603990000207
-174.60824219352597,999,7.984274600006756
-107.48540847287978,999,7.27399080000032
-176.8377607844528,999,8.180377099997713
-153.88939026483192,999,7.032210199999099
-185.44716288436877,999,8.647229900001548
-115.3588713534552,999,7.413484099997731
-86.60231468445662,999,8.700850000001083
-160.16295163653118,999,6.559418999997433
-108.48080357793944,999,8.311704299994744
-172.48524770293906,999,9.24130800000421
-116.48644892890795,999,7.709255100002338
-172.17717924415183,999,7.083089200001268
-109.46363503517712,999,6.673284800002875
-162.92285006646347,999,7.34694390000368
-160.40725547665306,999,8.237802900002862
-173.14839760421233,999,8.491352500001085
-159.36597292462767,999,8.53430759999901
-158.7318780906675,999,7.195402099998319
-123.5471463643849,999,6.573023400000238
-91.80751447613608,999,8.094930999999633
-189.77590823556108,999,8.139992399999755
-130.11937467224706,999,7.854938500000571
-212.47697493836574,958,6.266285500001686
-169.1588948197333,999,8.330526500001724
-115.27126642922087,999,8.208123700002034
-174.7413150025405,999,9.026516900004935
-158.71355911383912,999,8.568991100000858
-20.508980078829268,217,1.200927199999569
-103.91321007946799,999,7.128702200003318
-171.10197386549558,999,7.816117100002884
-88.39616530564562,999,6.606203499999538
-187.34253514379012,999,8.566642600002524
-122.85539281781884,999,8.527654199999233
-159.32363488806917,999,7.912850500004424
-88.5770776663322,999,6.87362870000652
-177.2579881296441,999,9.012762199999997
-181.76126978851318,999,8.858282300003339
-100.57219872863088,999,7.049863899999764
-155.36648252668203,999,8.280454599997029
-106.68970625088856,999,7.5758666999972775
-100.74051821760537,999,8.015233900005114
-155.35846418226535,999,7.958157900000515
-173.89687804508952,999,7.851247200000216
-174.2973804289045,999,7.8075007000006735
-158.33351978984703,999,7.464844900001481
-168.00116578296377,999,8.01393580000149
-112.94585173372755,999,7.5920420000038575
-191.56616350322238,999,8.00716359999933
-136.50937552106626,999,7.571159999999509
-109.48949877285636,999,6.8182780999995884
-102.2400688887218,999,8.349765600003593
-126.25417861499423,999,6.785172800002329
-99.34880860467882,999,7.39551229999779
-161.7545148823491,999,8.017287800001213
-168.85345407614463,999,8.272696400003042
-108.83872921813658,999,7.071475700002338
-122.87062361281559,286,1.6642817999963881
-180.288040645866,999,6.981560200001695
-190.61930683034038,999,7.66502539999783
-128.9433139412594,999,7.450009199994383
-113.3706450661124,999,7.210688899998786
-159.27121908471895,999,6.707994199998211
-100.27755297296304,999,7.369753500002844
-119.15889477487781,999,7.517331199996988
-163.6207502546242,999,7.750096099996881
-178.07608980593065,999,7.497336099993845
-132.41262964179936,999,7.214506500000425
-145.8755835212998,999,7.346148799995717
-180.78955281293756,999,7.049302599996736
-110.45288949641994,999,8.08426899999904
-155.282100475418,999,7.455596300002071
-195.78730442357795,999,8.405870299997332
-164.05678527824463,999,7.757065799996781
-171.0847025654264,999,7.004929200003971
-113.18160783857249,999,8.346578199998476
-159.9225014785549,999,6.823664999996254
-167.92352196002454,999,8.3470451999965
-118.966334522973,292,1.6390795000043
-200.19605752842307,999,7.204690099999425
-110.05715366143924,999,6.871378800002276
-174.8655588684292,999,7.842629300001136
-149.5749162760094,999,9.696919699999853
-94.28776482213803,999,6.76246739999624
-170.5165756837518,999,7.084688499999174
-130.38122150891346,999,6.772708099997544
-179.93891784915118,999,8.095937600002799
-150.62051167601192,999,7.153753600003256
-158.83813850168178,999,7.030907300002582
-150.20426052951353,999,7.176140600000508
-110.42359985748027,999,6.753189299997757
-170.7343696339959,999,6.844822200000635
-190.48517333044407,999,7.985041699997964
-120.51642014682486,999,8.734610899999097
-94.41251115327069,999,8.241160199999285
-149.04127183468376,999,6.899761599997873
-180.97145097434276,999,8.06312479999906
-146.0131772164301,999,7.28015669999877
-114.3072184185482,999,8.208553700002085
-159.17722234445532,999,7.68262319999485
-105.34783386328988,999,7.688532700005453
-160.34920221853562,999,7.951722300000256
-165.47949691219554,999,7.343089800000598
-135.79268868764177,999,7.00967810000293
-101.45486985441026,999,8.477864699998463
-602.2787621302988,437,2.521986100000504
-113.0914868977922,999,6.766550299995288
-155.35388178086154,999,7.439466700001503
-169.6453814988799,999,7.729126699996414
-165.58291142152294,999,6.851404799999727
-179.75676742076496,999,7.806530000001658
-177.88598403086274,999,8.028832899995905
-154.69801843023652,194,1.1235244999988936
-142.80183316055385,999,6.982893200001854
-28.45165965634918,198,1.0819965999980923
-193.18992704921658,999,7.434842000002391
-166.33356705702613,999,7.406595600004948
-155.21427692425667,999,7.301288800001203
-189.2501891007718,999,7.507092699997884
-144.63865497599693,999,7.911335600001621
-164.48402629683363,999,7.889283900003647
-107.04288330582226,999,7.823299700001371
-146.60025058694046,999,6.483646900000167
-191.097265841951,999,7.823970099998405
-173.5610164955598,999,7.9435840000005555
-173.92273270228978,999,7.008970200004114
-174.2965110164141,999,7.841945400003169
-174.20798079531696,999,7.973773700003221
-165.34211851712965,999,7.117934300003981
-142.3914133827637,999,6.984606099998928
-166.23092387250148,999,7.0138165000025765
-195.73512308867208,999,9.042324499998358
-113.99456569444186,999,7.855816299997969
-135.97426711925365,999,6.981105799997749
-87.42390055323415,999,8.750445199999376
-104.59577249466287,999,6.608953800001473
-118.0978929958755,999,7.525211500003934
-152.65896087635477,999,7.250670399997034
-177.94019901978842,999,6.952059900002496
-145.66014908050127,999,7.497713800003112
-139.21068088647675,999,7.114357599995856
-120.90724811164816,999,8.07500030000665
-176.2327626643972,999,7.824881499996991
-143.6681714790159,999,6.3793198999992455
-96.02048355042399,999,7.711033999999927
-141.55891206771628,999,7.217422299996542
-157.64665474556293,999,7.249716999998782
-174.16603159994648,999,7.273408399996697
-129.33866919560327,999,8.203127100001439
-475.0410015087831,521,3.245398999999452
-127.34859595314391,999,6.867078399998718
-180.90337554074938,999,7.696827300002042
-153.15204233668194,999,7.8465036999987205
-117.48881191950639,999,6.281845800003794
-205.00173970336218,999,8.49059500000294
-134.26907286564784,999,7.596035600006871
-112.49835077616703,999,7.208392599997751
-142.85381767387295,999,6.604786000003514
-150.77684224324727,999,7.335697800001071
-101.11135538259718,999,6.886005000000296
-190.4187489429266,163,0.8758798999988358
-198.04968920554072,999,7.817967399998452
-93.58194679772541,999,7.325075500004459
-156.81842556425158,999,7.0123595999975805
-146.52633199097548,999,8.248893200005114
-164.836001431085,999,7.367390200000955
-442.06717675977796,308,1.8197437999988324
-513.3172637140522,110,0.5969956000044476
198.95195454834152,491,3.0359637000001385
-278.06419907778934,214,1.2585842000044067
-153.66135159170474,999,8.483396700001322
-114.87025618974813,999,7.3420111000014
-175.92321650378136,999,9.321179200000188
-189.25100787836487,999,8.273034900004859
-166.981487215246,999,7.15346000000136
-142.4931516370362,999,6.824303400004283
-193.67762887218345,999,7.585624799998186
-128.69756723754466,999,8.359622099997068
-101.74261629315981,999,8.605733500000497
-176.26133503632227,999,7.358009399998991
-158.3853664735226,999,8.609309500003292
-161.4139657086592,999,9.49983990000328
-163.90111881348102,999,9.132480000000214
-115.99402226301466,999,7.112668900001154
-162.8689865280903,999,7.735615199999302
-155.69474678244768,999,9.105958400003146
-172.93055680219598,999,7.717864799997187
-128.81308791698393,999,8.233988600004523
-85.51761296251883,999,7.384637899995141
-153.64542672928573,999,7.9156199999997625
-95.6130623537975,999,6.63557249999576
-328.2559472094399,970,7.388003899999603
-111.51246410849541,999,7.1884745999996085
-188.4648863486696,999,8.010167499996896
-157.9526417722812,999,6.847979500002111
-131.01103965500005,999,6.95312019999983
-158.2863535526924,999,9.316790299999411
-149.95865977828905,999,8.057839799999783
-151.95546126381177,999,8.498795899999095
-152.03777777687117,999,7.812381800002186
-91.80454129352877,999,7.228799300006358
-133.31672640567086,999,7.29262590000144
-156.44923663259374,999,9.6309368000002
-157.5284685404015,384,2.4088891000064905
-164.83197244125267,999,7.180216399996425
-126.34426867643707,999,8.746720899995125
-197.9021163634268,999,8.563400900005945
-663.3056270381286,887,5.7162362999952165
-583.273756979821,834,5.39273150000372
-153.18863738185675,999,6.974445100000594
-94.48670936963855,999,8.464487800003553
-109.89575495117192,999,6.90363570000045
-161.594499864344,999,9.146092800001497
-171.9281633028626,999,7.871790199998941
-179.65017243688033,999,7.38618910000514
-543.6342621361921,351,2.212293199998385
-175.72447773782284,999,8.936421400001564
-131.63971338618526,999,6.766508300002897
-123.64114451428206,999,7.545812199998181
-94.57343644943798,999,6.979140299998107
-140.61520731460894,387,2.3251768999980413
-169.06353016813318,999,6.949791799997911
-142.89387085636108,999,7.035268999999971
-174.57975159337647,999,7.80676620000304
-438.5124786250448,247,1.4619519999978365
-145.16741077544916,999,8.053500500005612
-126.37182197184951,999,7.83737249999831
-172.9907154356804,999,6.702267299995583
-127.08225951937627,999,7.4678077999997186
-166.0295640367095,999,8.466480999995838
-145.50487512719673,999,9.552640499990957
-176.34817523559488,999,8.890362999998615
-147.6886718575244,999,8.384040800010553
-180.6532165528688,999,7.420022300007986
-174.6368942688415,999,8.253263899998274
-639.4675760592289,790,5.386283999992884
-186.82972026494036,999,7.493346100003691
-148.15178861426398,999,6.97391419998894
-197.3088476475225,999,8.27421219999087
-161.02968722390222,999,7.041556099997251
-133.11392730777533,999,6.451719499993487
-158.59044860899917,999,7.387990800008993
-176.80709215149886,999,7.310575399998925
-162.76361258153904,999,7.5839647999964654
-125.62067335377697,999,7.642955399991479
-150.28737890218693,999,7.616907299990999
-132.36028978484575,999,7.30723950000538
-128.61342463565026,999,8.140275700003258
-161.0857730501829,999,7.2648927999980515
-117.44301136327181,999,7.882652300002519
-114.49021600216759,999,7.1162553999893134
-172.4056019550821,999,7.574746800004505
-151.94172784238333,999,8.15240449999692
-186.70825795650683,999,6.903812599994126
-169.9227789520618,999,8.69426599999133
-108.73651966181295,999,7.937519600003725
-287.56505538782403,450,2.8390635999967344
-121.97365417383976,999,8.083591700007673
-198.72628835668797,318,1.8438620999950217
-115.861479710611,999,8.953115199998138
-157.03359346858676,999,7.63892019999912
-106.78026920702705,999,7.480410499993013
-120.50374246628586,999,7.611969899997348
-147.50833891195325,999,6.5059628000017256
-151.01098452782242,999,6.975024999992456
-175.5247184263132,999,8.555847399999038
-149.71074549883605,999,7.256755300011719
-171.82727435349702,999,8.448842700003297
-98.8388079562411,999,7.112828400000581
-146.14763882380632,999,6.706189500007895
-130.5277415952619,999,7.996849299990572
-191.4678750640909,999,8.131650900002569
-168.4013230758393,999,8.65547699999297
-162.19676863738803,999,6.760471499990672
-173.67086750019163,999,7.988921099997242
-235.75174272635758,85,0.49014579999493435
-158.50667756262538,999,7.602735599997686
-191.2892124045412,999,8.731175599998096
-98.0652228165021,999,7.290716000003158
-94.04576317459681,999,7.064331800007494
-89.1759879082842,999,8.830638600004022
-178.0041808149121,999,7.605719899991527
-399.2173868711003,875,5.597434299997985
-112.57993494441455,999,7.8412201999890385
-105.89458628224632,999,6.653576800003066
-93.82104491066814,999,6.567607899996801
-106.00429604555623,999,7.661901300001773
-192.33139094897183,999,7.4231633999879705
-406.0076090188431,700,4.452402599999914
-142.97240247674222,999,6.768223899998702
-151.5835914402579,999,8.08980810000503
-446.8066258424307,331,2.0286213000072166
-460.43819472927765,617,4.141590600003838
-178.49293124632246,999,6.796947199996794
-142.03469425380888,999,8.45803710000473
-197.58811503082094,999,7.84889039999689
-146.77025331489702,999,8.070115599999554
-136.97318382235596,999,7.039568300009705
-154.9989345386214,999,7.203168400010327
-118.17597115274899,999,8.637324499999522
-184.77207390246187,999,9.12595990000409
-83.93821043000058,999,6.929716200000257
-112.4418481297684,999,8.67176450000261
-351.7807992498984,999,7.114145200001076
-161.85704202164544,999,6.898020299995551
-200.7854169825852,999,7.663499200003571
-173.70063175479527,999,6.993380999992951
-130.5300430606143,999,8.63684920000378
-168.92325533129767,999,9.251423800000339
-179.99340918490603,999,7.732605199998943
-150.8302924806662,999,7.173929700002191
-186.10787111819243,999,8.505592900008196
-109.24925613757102,999,6.818049599998631
-94.28870174659079,999,7.223707600001944
-175.08725191690985,999,7.974659800005611
-269.0238317566806,391,2.4831005000014557
-186.36885118048832,999,7.916884899997967
-146.51082204605459,999,7.1829777999955695
-188.5244230630732,999,7.515226100003929
-184.1055136628071,999,7.6751188000052935
-158.9570055598728,999,8.66959429999406
-95.60128857675517,999,6.715603799995733
-179.58720950560226,999,7.082235199995921
-97.82988627985864,999,6.87953840001137
-157.75238781107478,999,6.619321299993317
-152.81476071885933,999,6.8548245999991195
-182.9382666493854,999,8.235666699998546
-251.20890087776183,203,1.0993481000041356
-106.9355031684709,999,7.0729473999963375
-155.28262719787602,999,8.4101265000063
-193.30282530899046,999,7.430957699994906
-161.21829642215573,999,7.47089669998968
-140.88032125093312,999,6.495717600002536
-161.01083451785792,999,8.529099799998221
-125.6096364059717,999,8.366505700003472
-596.0075781735918,352,2.2325056999980006
-147.7684320614093,999,8.291670000005979
-165.13082334439287,999,8.074461799988057
-141.31236591866406,999,6.707008900004439
-166.8760474148928,999,6.486506500004907
-138.8616297954057,999,6.972250400009216
-78.36074667316704,999,6.771011600008933
-158.2679459741125,999,6.351283199997852
-161.99837171944066,999,7.685474800004158
-133.2350698133067,999,7.257559499994386
-160.59856303521278,999,7.234826599989901
-173.9845651022576,999,7.367495200000121
-188.51973464565796,999,7.777261900002486
-79.20221165097081,999,8.990192500001285
-143.0210561568087,999,8.135098099999595
-164.17063677778046,999,6.424703800003044
-151.05354279204838,999,8.569667099989601
-157.5345307635896,999,8.591771099992911
-108.07440020671685,999,7.184782099997392
-140.04434394433721,999,6.618375500009279
-116.35077549423002,999,6.665948500012746
-134.55353101794813,999,7.90409370000998
-210.20771524414147,440,2.758816300003673
-161.01354551589532,999,7.434787800011691
-193.07161421550677,999,7.404621900001075
-158.5656024216645,999,8.404845500001102
-310.600932315027,279,1.6187857000040822
-155.98090817573072,999,7.343343999993522
-174.84794851099213,999,7.679071699996712
-177.75814710758527,999,8.42755879998731
-178.74241548266002,999,8.253923399999621
-90.08293030955292,999,7.218564800001332
-352.839937371015,840,6.357703200003016
-158.5129722350546,999,8.456752000012784
-177.6980706228012,999,8.345176699993317
-155.80088435461894,999,7.480140800005756
-141.74950108979445,999,6.985601699998369
-189.30515558791652,999,7.559769599989522
-116.47481040877585,999,6.8258817000023555
-150.62384886245135,999,6.461156399993342
-60.52276702583173,999,6.82958229999349
-155.51357188553231,999,9.342986299991026
-123.11147801713045,999,8.016950799996266
-171.46441106533973,999,6.656330799989519
-152.1686576135452,999,7.59143590000167
-109.73794555946392,999,6.696812399997725
-169.70340155874706,999,7.513222700014012
-180.5618766206598,999,8.158356300002197
-118.3493249612473,999,6.79186870000558
-194.95348919499784,999,7.792073999997228
-138.56380747111797,999,7.499115999991773
-153.14638756008114,999,7.1074789999984205
-157.89884000990605,999,7.686926499998663
-118.43145382476584,999,7.200906300000497
-98.09808513215508,299,1.6517194000043673
-155.23536253865618,999,6.557260100002168
-165.13759124501624,999,6.893868599989219
-124.90724563859601,999,7.66818819999753
-174.42693799075943,999,6.514022399991518
-137.66252277997722,999,6.45462979999138
-92.38988510522687,999,7.021455800000695
-141.47051371771533,999,8.45195380000223
-128.08078678347923,999,7.471539699996356
-139.74707695167416,999,7.820998399998643
-163.34594159975603,999,6.869935800001258
-104.50158922866929,999,7.651740800007246
-162.8137957332278,999,8.555183799995575
-182.46575190231638,999,6.837237700005062
-105.30138303366107,999,6.553031799994642
-148.9114059629098,999,8.663407899992308
-159.98346036700573,999,7.175783700004104
-153.2946780163036,999,6.540816099994117
-95.16994545060389,999,7.726664400004665
-86.10675729870407,999,6.914820600009989
-171.5109603815331,999,7.815549499995541
-41.63971432369492,184,0.9868677000049502
-189.58546720590502,999,8.139879700000165
