reward,length,time
-135.40832241202438,86,0.2802198999997927
-148.7860753063845,71,0.2410441000101855
-568.6222734829673,113,0.378388700002688
-246.64364661614255,70,0.2743767000065418
-525.5860258130101,107,0.39379899999767076
-367.2097641504284,106,0.3570497000036994
-194.50528467762385,56,0.18469519999052864
-193.32024890780525,119,0.39826329999777954
-280.44592260633095,140,0.47811860000365414
-476.0478758368006,157,0.5269480999995722
-238.7137976543135,106,0.35003110000980087
-359.4264585956907,136,0.4544096999889007
-201.74788396665264,98,0.3216888999886578
-347.075512808982,81,0.2661618000129238
-214.2617027544465,144,0.48781530000269413
-480.8251298283582,96,0.31478400000196416
-244.76665371083826,348,1.28418759998749
-312.98136469911503,414,1.5548918999993475
-437.61740189293425,95,0.313352200013469
-335.4107107888413,173,0.5878023999975994
-208.29839084848294,167,0.5733499000052689
-535.7907368812464,162,0.5598926999955438
-410.00768010815386,174,0.5948355000000447
-300.702122862421,191,0.6401581999962218
-148.5725502803441,90,0.29761039999721106
-263.4088428811821,128,0.4244706000026781
-233.2526697673217,85,0.2761929000116652
-386.9997081085749,101,0.3333363999990979
-111.67761224189042,131,0.43941439999616705
-304.6508159247991,106,0.34829029999673367
-28.628434953317566,210,0.7244226000038907
-375.7554901727439,158,0.5290082999999868
-339.9026511974009,196,0.6700685000105295
-71.6371417509041,150,0.5222071000025608
-375.30262793641896,157,0.5565687999915099
-229.48557373467466,127,0.42546990000118967
-377.6493647419743,88,0.29225050000241026
-177.52138758595513,95,0.3177394000085769
-276.94568833661697,109,0.35571499999787193
-467.39467525193356,97,0.3162073999992572
-248.47702323271548,99,0.32519410000531934
-489.25058013191534,135,0.4557559999957448
-216.2604697138447,114,0.3773648000060348
-287.81421971705583,150,0.5052139000035822
-381.9485887179072,84,0.28218600001127925
-320.3321634638278,175,0.6093431000044802
-383.95233657773883,153,0.6378707999974722
-225.18516324197967,146,0.4935805999994045
-343.93057436498236,243,0.9291439999942668
-371.88900157584413,142,0.4764398999977857
-379.75826471350723,121,0.4058398000051966
-380.4528083875222,101,0.33319740000297315
-383.09033566173673,187,0.6488474999932805
-386.0765102290653,130,0.4405952000088291
-282.0974683212721,187,0.6422783000016352
-532.2910391166972,150,0.5079696999891894
-379.0468753777121,122,0.4233995000104187
-236.3903207904993,104,0.3484166999987792
-203.26652965392807,109,0.3631403000035789
-211.94669073856335,112,0.36932499999238644
-721.1064742058074,87,0.28237880000961013
-375.8949293734375,103,0.3417115000047488
-411.794514759155,243,0.8543935999914538
-253.0141353076983,204,0.7303800999943633
-258.479586420877,114,0.3714734999957727
-409.74183705583795,123,0.41821360000176355
-420.25403887804686,90,0.30121420000796206
-247.40011808182572,150,0.5204085000004852
-362.9187449616166,139,0.47134819999337196
-357.25698021327264,158,0.7028763999987859
-346.4308737635897,134,0.4556220999947982
-370.9698865197512,136,0.462078600001405
-311.8809468166746,224,0.772154699996463
-269.32208707502804,196,0.6846284000057494
-235.1329792112068,137,0.47599360000458546
-200.87810951733223,136,0.4710147000005236
-128.71097042299996,139,0.4778179999993881
-345.5988179354611,116,0.3912471000076039
-335.3871300265391,136,0.4566830999974627
-245.46872308449215,100,0.3279675999947358
-554.8531228728243,122,0.4063227000006009
-134.18719534614056,104,0.3476334000006318
-128.84699459804122,140,0.47859929999685846
-221.91271424449167,132,0.4454299000062747
-16.432202472123265,113,0.38328829999954905
-435.3677660436415,118,0.3956051999994088
-139.82316582508247,145,0.4964711000066018
-336.380885378364,118,0.3974104999942938
-77.3412741310725,106,0.36191880000114907
-228.983720124692,163,0.5553957000083756
-238.42044466605597,86,0.2885630999953719
-194.95449081299444,114,0.38376579999749083
-583.9736456279398,148,0.5066466000134824
-45.59769656579543,109,0.36664989999553654
-415.3634409033259,114,0.38164719998894725
-107.1945541302049,166,0.5702120000059949
-460.9421952804832,253,0.8863418999972055
-260.18410004903956,123,0.4171275999979116
-153.94785653821464,141,0.4866661000123713
-537.1953663688191,350,1.3020386999996845
-482.0623571648964,108,0.36173169998801313
-186.55671342404148,187,0.6441577999939909
-232.91563702434956,287,1.0521441000018967
-125.4494692684415,128,0.42931839999801014
-93.79729208833663,247,0.8905500999971991
-350.2856394502557,253,0.8915895999962231
-274.1797308702762,187,0.6494516000093427
-112.99234501574549,106,0.352721900009783
-132.06981469991962,105,0.35806549999688286
-90.90358024393046,128,0.43068900000071153
-125.38359749753145,147,0.5044515000045067
-144.0821409218712,131,0.441631800000323
-612.179156737227,155,0.5292186000006041
-113.23265328470329,185,0.6376599000068381
-168.80364123330656,115,0.38284679999924265
-250.17273320140953,111,0.37055550000513904
-116.08423405884962,199,0.6918877999996766
-112.95502628913282,190,0.6674817000020994
-469.9440373832675,89,0.29699669999536127
-198.1365894825036,133,0.44943039999634493
-94.80848767093774,116,0.39635049999924377
-222.31552549155248,175,0.6058428999967873
-192.69950906733305,172,0.5839219000044977
-264.26713635147127,170,0.5826457999937702
-180.24535035478723,114,0.3822044999978971
-181.1367246284505,105,0.3552806000079727
-101.12536381551466,143,0.47955540000111796
-124.21545117949624,143,0.4793523999978788
-498.0187535700446,103,0.3342119000008097
-166.49730577404807,237,0.8272284999984549
-156.00942971371717,149,0.5032617999968352
-109.29468505147476,105,0.38131159999466036
-133.92584134812827,114,0.3798626000061631
-219.30796482451103,184,0.6447012999997241
-101.46734972676143,108,0.36150860000634566
-119.33031308916073,159,0.541538399993442
-194.4240990315622,89,0.293789100003778
-549.4280898142126,190,0.654527099992265
-165.3051785870149,121,0.40905419999035075
-158.4487534928105,185,0.6272412000107579
-103.55503026495269,137,0.4626434999954654
-499.82460068969414,199,0.6782308999972884
-593.7498905720416,253,0.9081261000101222
-408.5853510286313,175,0.5938565999967977
-192.02692665181291,157,0.5400063999986742
-190.69193472068005,182,0.6238852000096813
-205.47941679410292,283,1.0425504000013461
-174.05431475690182,204,0.7147132999962196
-53.95099149653273,151,0.5134147000062512
-7.139384580935854,158,0.5391927000018768
-740.5280575051346,312,1.1119781000015792
-102.4549571921385,251,0.8839007999922615
-878.5880674067641,560,2.1780623999948148
-221.40372303442743,146,0.5024907999904826
-122.03384599709332,230,0.8109688999975333
-99.11748523921541,130,0.43606830001226626
-151.86049944188264,143,0.48655039998993743
-103.59476270832103,140,0.4722118999925442
-226.80540089943202,198,0.6900605999981053
-89.49376631013648,108,0.366462899997714
-317.2451660168907,90,0.299919700002647
-92.62318016379096,121,0.4057139000069583
-142.70996868069935,110,0.3717105999967316
-101.94014413008274,136,0.4564651000109734
-173.14968035604434,300,1.0692625999945449
-58.510505099204934,295,1.1032665999955498
-142.57333459751328,148,0.5116144999919925
-78.90053045278484,155,0.5373442999989493
-287.3863629057421,360,1.338499999998021
-363.1579385553063,612,2.5582800000120187
-497.25321506375604,122,0.41003049998835195
-158.7823818040904,134,0.44975179999892134
-326.1830309964064,208,0.715288799998234
-122.15388614187376,476,1.8966652999952203
-235.11111963098512,385,1.428078099997947
-150.7304424272289,271,0.9548931000026641
-274.75251386891443,147,0.5054621000017505
-103.06808465610983,131,0.43773289999808185
-87.75748508826419,339,1.2141082000016468
-309.7623416595138,151,0.5134305000101449
-259.83800784453217,147,0.5020183000015095
-182.58909578427892,141,0.47429600000032224
-94.95453511505929,283,1.0170630999928107
-511.4186511769574,185,0.6329884000006132
-59.18713165997348,119,0.40236710000317544
-226.83098624132248,333,1.2034524000046076
-349.87633404569834,656,2.7053887999936705
-526.969414510517,351,1.2610021000000415
-169.85459447548385,131,0.4386318999895593
-121.87016598238347,305,1.0984188999864273
-202.23016331189484,147,0.5161111999914283
-130.82726689681542,517,2.0657002000079956
-323.42244820608175,257,0.8977174000028754
-323.66480842963233,161,0.5521592000004603
-142.77995752421717,214,0.7344647999998415
-273.1791307930447,157,0.5249739999999292
-319.44795428500686,235,0.8108715999987908
-550.3655054942658,369,1.3548985000088578
-56.31255997448675,136,0.4594615999958478
-324.00101174288193,422,1.615105400007451
-361.15638053564004,261,0.9215356999920914
-148.5603081491584,489,1.9635339000087697
-103.80936796926485,999,4.847642200009432
-23.350793621968435,311,1.1139617000008002
-107.77044773058178,999,5.403521700005513
-255.64447552571238,201,0.736198600003263
-93.00433749902824,264,0.9240852999937488
-147.31967423653305,999,4.726626500007114
-136.50344988548275,999,4.54798619999201
-393.4163287168001,226,0.7853361000015866
-255.6810309061648,164,0.5600573999981862
-349.12306724000723,176,0.6061962000094354
-377.29536466988986,368,1.374409399999422
-137.8668412703338,999,5.413524500007043
-110.64256839517451,999,4.3020257000025595
-115.92331781375118,167,0.5738074999972014
-468.5709471139372,180,0.6158068999939132
-137.7050914150457,999,4.757926000005682
-327.0124771421808,227,0.7812540000013541
-252.9502974647161,232,0.8064919000025839
-131.5874859767682,999,5.552943799993955
-218.6007953941579,166,0.5602749999961816
-118.78617920560232,999,4.372911600003135
-601.2277450494639,274,1.0153021000005538
-116.01115971585396,999,4.435248000008869
-131.97555211947244,180,0.6201906999922357
-655.8163597412887,447,1.655189800003427
-252.60703135295591,201,0.7129066000052262
-103.28383426585978,999,4.7458617000083905
-170.84512217780588,250,0.8796138999896357
-118.56648794469305,999,4.86798500000441
-123.21329240414933,999,4.814521799999056
-117.38333961956985,999,4.960099500007345
-125.79063606516164,999,5.223792999997386
-107.25995541868923,999,5.450851100002183
-92.68699934340775,999,5.09894599999825
-131.35462473261424,999,4.703232600004412
-244.55688558632602,178,0.6114745999948354
-140.70747536133646,999,4.914088399993489
-131.91500893460972,999,4.4866030999983195
-130.72241683723144,236,0.8294325000024401
-69.1278050211526,200,0.6963430000032531
-205.49438790633985,221,0.764058800006751
-352.561647820949,278,0.9724767000006977
-464.20748235039326,316,1.1211137999925995
-388.62865713504846,318,1.1424393999914173
-122.01953289953617,999,5.012493699992774
-310.0447365078537,273,0.9853218999924138
-357.65327628236366,276,0.9768939000059618
-150.40460891232195,999,4.7534103999932995
-589.6569220213393,208,0.7125743999931728
-89.42559126077506,198,0.6978425999986939
-323.48649746431965,259,0.8976993999967817
-119.99703407258566,999,4.731859099993017
-117.69168341428431,999,5.53104099999473
-167.64212687465147,999,4.449166900012642
-433.2241055524669,292,1.035404499998549
-133.77814185595662,999,4.369766699994216
-126.88716554435808,999,4.741714999996475
-162.10143706764194,147,0.5051371999870753
-237.16814547846968,243,0.8657583000021987
-73.13323571075834,122,0.410347199998796
-121.60214939269235,999,4.501626500001294
-115.99387343146563,999,5.371606900007464
-217.73760371330715,263,0.9206281999940984
-142.3178033968749,999,4.773912099990412
-122.71285151270956,999,5.21987660000741
-143.36527292499449,999,4.491460100005497
-110.02436020691356,999,5.0477272999996785
-90.25930548990402,999,4.738671699989936
-229.15829923471412,271,0.9662244000064675
-662.8750196763524,229,0.8411971999885282
-149.60622222534545,999,4.6232195000047795
-153.137183466948,999,4.260190800006967
-189.8134019030943,129,0.43420179998793174
-108.93172100843307,999,5.349954199991771
-121.53880109571875,999,4.742075599991949
-479.23784601163226,332,1.2170189000025857
-318.0464156329175,315,1.1457512999913888
-128.42364407238944,180,0.6216581000044243
-137.04172608151205,999,4.4793605000013486
-412.2729354782781,551,2.119128599995747
-110.26532707225577,999,4.266363000002457
-241.46886830405472,246,0.8816028000001097
-121.46200450015137,999,4.697806900003343
-107.18620133020431,999,5.080549699996482
-192.90620057662815,999,4.682172999993782
-100.82322581606994,999,5.565747899992857
-116.20017765817418,999,4.952128100005211
-102.9344713726111,999,4.5140435000066645
-143.91267273820029,999,5.36856090000947
-116.51549140873503,158,0.537167699993006
-122.36320232611948,999,4.663652900009765
-104.72227375581038,999,4.783224899991183
-101.2777771843591,999,5.106025400004
-111.01613347433035,999,5.076333799996064
-493.26937172041846,308,1.113298099997337
-124.91671971699655,999,5.027710100010154
-85.23210883222517,215,0.7607771999901161
-120.90514575708511,999,4.84007940000447
-117.34564730019508,999,4.828085700006341
-401.88365684355307,146,0.49346449998847675
-109.0154037106819,999,5.191545400011819
-643.1805950884992,279,0.9990478999970946
-117.70298803769457,999,4.500536600011401
-103.59184222902724,167,0.5777168999920832
-129.03343123453976,999,4.44560900000215
-150.8596497370129,999,4.4398924999986775
-108.9459623996668,999,4.312779800005956
-586.2747001269154,182,0.6235349999915343
-125.11875428499205,999,5.344335400004638
-314.7902326075982,312,1.1479666999948677
-133.29680819619068,166,0.5773266000032891
-496.36865308474023,364,1.3695675999915693
-173.50157288722232,227,0.7874484000058146
-221.32008441655756,300,1.0748560999927577
-125.0295394850767,999,4.037393499995233
-114.0238345558481,999,4.610060199993313
-143.03785966224245,999,4.946996200000285
-640.6387598066617,342,1.252245399999083
-135.10887777909218,999,5.575130499986699
-369.43515035325316,283,1.0135209000000032
-112.22969656095111,999,4.186106199995265
-89.79573531740176,999,4.9852856999932555
-532.8003046398422,217,0.7629592000012053
-119.77531003669382,999,4.997072600002866
-149.41126131567248,999,4.9316916999960085
-126.10555718016123,999,4.688822399999481
-127.50103933946134,999,4.56041040000855
-143.2267600631131,999,4.665117799988366
-174.6579764608179,306,1.113674299995182
-125.68016844025547,999,4.963289800012717
-204.5705545363215,183,0.6385077999875648
-142.81008179962228,999,4.790418200005661
-152.9939113191078,999,4.942940100008855
-102.40249138398303,999,4.8540805999946315
-580.5458591278662,418,1.5743140999984462
-89.493435281199,999,4.643392099998891
-331.06438017703647,274,0.9518927000026451
-102.37834239640937,999,4.893418199993903
-538.0712907131342,232,0.8108324000058929
-53.76063608655682,227,0.7836683000059566
-281.3722546037129,292,1.0773145999992266
-440.7373702553243,221,0.7728342000045814
-116.6146371424167,999,5.294102599989856
-96.34294647081612,999,5.809252300008666
-141.37604493999254,999,5.0754102999926545
-104.17094601398165,999,5.239705500003765
-125.5997105835122,999,5.357876699999906
-100.60591346861662,999,4.913023700006306
-152.76415579689714,999,4.695685200000298
-133.6813983604518,999,4.947891499992693
-354.10249563783907,294,1.0309052000084193
-533.1799901226107,290,1.06547750000027
-544.3383861825258,214,0.7400227000034647
-546.4209737001,358,1.3787578999908874
-136.10296408416247,999,4.510036000006949
-122.81667345105393,999,4.9334127999900375
-84.01528046715141,999,4.7931325000099605
-285.1839241689245,404,1.4544975999888266
-136.22330374973913,999,5.5775398000114365
-134.1819708521918,545,2.1472865999967325
-556.6151240018482,350,1.2561849000048824
-153.49813100457413,999,5.174297100005788
-132.2006789202968,999,4.580084999994142
-285.0509033499693,398,1.4881439000018872
-381.1984979060801,362,1.3535985000053188
-156.93771036915064,999,4.940907999989577
-140.38103988520825,999,4.637498900003266
-237.85176143521218,134,0.4783549999992829
-149.47800746929065,999,5.040305600006832
-113.82822343766486,999,4.213320000009844
-396.8183544144108,352,1.24696680001216
-109.01753778121473,999,4.9051424999925075
-109.35480028885983,999,5.371956200004206
-632.7462401602611,333,1.2456284999934724
-132.38199624496926,999,5.137608700009878
-122.02448319316099,999,4.702006799998344
-155.15152507010256,999,4.379703499987954
-396.8998003264149,570,2.1521613000077195
-112.26269025991137,999,4.609733200006303
-188.9379838387467,207,0.7225892999995267
-268.1583966530974,494,2.009159599998384
-157.37366298917593,999,5.029223999998067
-112.13163018788238,999,4.605211300004157
-150.78639871854037,999,5.111529399990104
-124.6986882711018,999,4.96863430000667
-120.04488485133997,999,4.921885100004147
-474.73014458867567,145,0.490492600001744
-115.19329384907532,999,5.155812599987257
-501.41033085811205,594,2.313607400006731
-162.5447754569851,999,4.603532299996004
-113.60425727843699,999,4.621863799999119
-155.07634154176145,999,4.945970499989926
-647.8696739707,491,1.891636100001051
-136.8745619980766,999,5.129051099997014
-146.8399484495743,999,4.4816189000121085
-488.83784821066934,244,0.8473418999928981
-146.00800036302513,999,4.927937900007237
-139.0294892061061,999,4.511582400009502
-155.2679735647911,999,4.922148099998594
-125.85628661119692,999,5.607133400000748
-153.3595264824733,999,4.349415199991199
-262.0916627756733,298,1.0865476000035414
-130.53146703713392,999,4.0078839999914635
-111.25900730633275,120,0.4017236000072444
-100.88558983783601,999,5.780985699995654
-307.5418870778312,855,3.3261281000013696
-155.51623952049826,999,5.18825310000102
-134.38467298410313,999,5.481726999991224
-627.6852403432836,853,3.6691824000008637
-101.30942202127095,999,5.13100230001146
-453.7316151887569,444,1.7235564999864437
-114.95994957874397,999,4.13607970000885
-200.8787579051738,180,0.6120117999962531
-127.90397982393029,999,5.20928830000048
-156.6560581637884,999,5.2208266999950865
-366.60164567353365,901,3.5236301999975694
-175.0775030360399,999,4.433029100007843
-105.29633865809127,999,4.753983100003097
-133.2131177634193,999,4.463360900001135
-138.27254615801138,999,5.911904199994751
-130.4486524377907,999,4.878836700008833
-323.4072641214644,173,0.5826225000055274
-149.7567414822514,999,4.790846599993529
-154.7464257637284,999,4.6001855000067735
-115.8725370015012,999,5.334221899989643
-231.25301771902477,389,1.438327500000014
-140.94509398088726,397,1.4777602000103798
-123.40943987658584,999,4.6171961999934865
-158.4473571651739,999,4.890251399992849
-150.94685128697145,999,4.746344900006079
-314.7668780228702,816,3.853351500001736
-127.47280995514689,999,4.268890599996666
-727.9453672263768,299,1.0606283999950392
-145.39940455781752,999,5.218038399994839
-133.59215902914298,999,5.34248610000941
-152.19042105801879,999,4.504506899989792
-171.6699795537501,999,4.480793200011249
-112.497014893364,291,1.0419492999935756
-108.2179933731503,999,4.636674699999276
-73.00194971079446,999,4.784835200000089
-116.96501493163547,999,5.207568400001037
-229.54022211697793,336,1.1991629999974975
-141.769338425606,999,4.837507699994603
-383.3329333118232,370,1.3643641000089701
-115.72491670171564,999,4.649345199999516
-164.46980971427712,999,5.112890400007018
-147.74539353253053,999,5.135148599991226
-168.20088661560357,999,4.9287085000105435
-137.86204697878142,999,4.2254396000062115
0.3890358690946556,185,0.6380308999941917
-144.5445114728092,999,5.626862999997684
-224.31996724111025,323,1.2042306999937864
-269.7623079232005,137,0.4585339000041131
-112.45493611756895,999,4.426640099991346
-166.7772037537748,999,4.765230500008329
-170.7077716741446,999,4.903939800002263
-149.92297225480914,999,5.006441499994253
-145.49387177362684,999,4.8101237999944715
-145.15274033833745,999,4.606986099999631
-147.32242111776816,999,5.208516899991082
-175.38827809609347,999,4.595967400004156
-577.154950677359,386,1.437545200009481
-148.85420215169978,999,4.903622300000279
-471.7002212744808,603,2.360039400009555
-163.64861299804758,999,4.981501100002788
-600.4093554360924,297,1.072035200006212
-424.7338345025055,374,1.4351137000048766
-174.49825233955494,999,5.458041999998386
-126.92657568644886,999,4.481359800003702
-168.7270847026361,999,4.7735522000002675
-300.23355072171034,156,0.529991900009918
-261.01776195193884,219,0.7699362999992445
-164.77027580097996,509,2.020255499999621
-410.5276702832257,257,0.895622199997888
-196.77228888475952,279,1.0258008999953745
-107.86365815480804,999,4.457833300009952
-158.07428558440992,999,4.3252360000042245
-87.56457775942792,999,4.952230900002178
-127.92696721996697,999,4.571322200004943
-194.12364305732393,355,1.344918199989479
-138.15522410717514,999,5.640771300008055
-132.02691940502427,999,4.216419799995492
-163.33872225174346,999,4.994641900004353
-152.94621589443815,999,4.9840385999996215
-106.69842068534898,999,4.756798099988373
-132.5144960366298,999,5.401365199999418
-155.94495303187165,999,5.317037600005278
-161.60257995189397,370,1.3690700000006473
-224.20119291836806,281,0.9956055000075139
-140.40843467474468,999,4.456166100004339
-183.2456993644808,352,1.297009900008561
-137.01721638494948,999,5.341063800005941
-162.0398252870329,999,5.611358600013773
-117.34570969689732,999,4.169630399992457
-149.7882858575214,999,5.156557399997837
-399.13249275549003,615,2.5961815000046045
-149.30485359158934,999,5.42217379999056
-119.03096148872697,999,4.507101399998646
-256.7321118360214,617,2.4723981999995885
-165.25981170499153,999,5.086460499995155
-173.79273894608036,999,4.417599199994584
-135.7378578704387,999,4.409530300006736
-339.279890449548,292,1.0701029000047129
-141.56121898754367,999,4.6613432000012835
-135.32078512531075,999,4.834984000000986
-107.978468683197,999,4.0661795000050915
-122.16275117181874,999,4.738358799993875
-150.22187805062265,999,4.007490999996662
-128.1538981686333,999,4.1990386999968905
-142.69147389602878,999,4.431408999997075
-173.30349713540656,999,4.612347700007376
-176.56652788864542,999,5.396299699990777
-145.28623037014677,999,4.971506200003205
-497.7475050835805,252,0.8888205999974161
-215.9268750927011,334,1.21012280001014
-163.89768230164864,999,5.264151499999571
-147.04841468726184,999,4.626761499996064
-105.04902550532029,999,4.011307900000247
-162.12192104216064,999,4.610537599990494
-166.06683758461773,999,4.359617499998421
-603.6293490129727,999,4.277872300008312
-259.7016115295369,259,0.9211470000009285
-437.51836239016154,673,2.7047250000032363
-113.36320796044122,999,4.166906200000085
-302.1761609796569,762,3.264954400001443
-144.92205979408453,999,5.075973999992129
-327.53815392385434,513,1.9381749000021955
-713.1883482553473,749,3.0940938999992795
-151.6879628169803,999,5.387477700001909
-348.9284459936294,999,4.384759799999301
-211.65597683633803,138,0.4695808999967994
-159.90178137718272,999,4.518159799990826
-160.5184352626643,999,4.52945770000224
-523.5040793422365,399,1.4501935000007506
-146.0449183128284,999,5.341294800004107
-268.29688153923075,272,1.0094526000029873
-125.78230049842124,999,4.637443100000382
-544.4029392886359,999,4.531512100002146
-186.6751576761372,192,0.6648857999971369
-134.8983637771168,999,4.797989799990319
-269.8493289297749,731,3.1222326999995857
-160.90507836761162,999,5.666934799999581
-123.84896467930142,999,4.3024052000109805
-307.095545654294,107,0.3543171000055736
-136.13449583693108,999,5.542539199988823
-116.55129269990759,999,5.1140043000050355
-146.42836753859814,999,5.074015200007125
-112.51152909251287,999,4.494158999994397
-195.57371821467305,999,4.290359799997532
-139.17391842997222,999,5.539985499999602
-105.95536676940502,999,4.767180499999085
-162.54993403562617,999,4.231432200002018
-269.9044267799426,775,3.024238600002718
-81.99308798113151,999,5.121196400010376
-258.62941136179836,651,2.4818940999975894
-274.6263627787628,341,1.2816540999920107
-449.1640206362708,632,2.6104750000085915
-99.96858192072963,999,4.3322320000006584
-150.23200428152393,999,4.853901700000279
-179.7466360187702,999,4.616582100003143
-158.30874392777912,999,5.52285930000653
-544.6911352692773,188,0.6470942000014475
-200.80789178889262,999,5.397351899999194
-186.1350261818371,999,5.093740800002706
-165.26890528180405,999,5.184346900001401
-166.83897463375658,999,5.090328299993416
-143.00854561097387,999,5.110070099995937
-109.19169848115224,999,4.0616878000000725
-104.1509215659708,999,4.588375800012727
-113.25792511433224,999,4.939478799991775
-174.07936177278933,999,5.28687880000507
-158.67883201769553,999,5.0129846000054386
-155.64755003068254,999,4.847558900000877
-179.14205022741038,999,5.26374670000223
-133.11056855369176,999,4.772759699990274
-118.36670489021701,999,4.758583000002545
-354.9786719487788,192,0.6588647000025958
-219.64346685440478,189,0.662782999992487
-271.6114066412933,356,1.3336718000064138
-146.85643359967466,999,4.643335399989155
-193.3264129062612,999,5.003618100003223
-125.37050441588467,999,5.6336722999985795
-161.2089701058398,999,5.001641599999857
-151.84974575332157,999,5.797931699999026
-147.7744177893228,999,5.3140694000030635
-139.85249624830342,999,4.360362899999018
-156.27008021377875,999,4.8200084999989485
-172.8105640746529,999,4.412640900001861
-126.13284315745072,999,5.0685353000008035
-99.63674696226452,341,1.2406869999977062
-292.7111778030561,958,4.3851075999991735
-145.68796647203862,999,4.608691500005079
-216.9395939916513,567,2.245428099995479
-176.44831550025907,999,5.262146399996709
-229.8385966617648,267,0.9277979000034975
-153.70061578067515,999,4.709807499995804
-135.44424989835258,999,5.374998300001607
-161.87154754838983,999,4.431198000005679
-305.4984503882707,471,1.7855127999937395
-118.69832474431307,999,4.9047226999973645
-362.6483339287569,246,0.8731262999936007
-160.07722126068063,999,4.761913499998627
-105.0696190536698,999,4.32682560000103
-246.43549256424487,548,2.097111600000062
-110.10607278852518,999,4.422925599996233
-179.4290739871274,999,5.060902199998964
-161.55799070554676,999,4.819233200003509
-118.30249471191172,999,3.986975199994049
-156.48751258859684,999,5.584516899994924
-132.44035175645263,999,4.4767907000059495
-95.1449005141858,999,5.188911000004737
-186.7031438333157,999,5.44625169999199
-177.90683915947827,999,5.180653700008406
-172.3561105278954,999,4.393751600000542
-146.89988813047094,999,5.060112599996501
-143.15212401787232,999,4.591589100004057
-107.94239204584912,999,5.027694599993993
-169.11425569323944,999,5.187512599994079
-145.88983933477644,999,4.401241700004903
-129.50306293360433,999,5.536219200002961
-164.25088912698487,999,4.720428200002061
-146.3134774907722,999,4.332728599998518
-172.74870442461864,999,4.42341459999443
-120.8086189655583,999,4.510469200002262
-167.39349031687107,999,4.535988100004033
-616.6424495993967,320,1.1505553999886615
-149.39116724657285,999,4.917595500010066
-143.68170613790372,999,4.210757200009539
-137.8558840724209,999,4.112584000002244
-164.7490350094813,999,4.679575300004217
-171.60186295560715,999,5.013270600000396
-189.58659512481134,999,4.7397387999953935
-182.27883989590094,999,4.378621700001531
-123.42015615651954,999,4.427877499998431
-112.8292780927534,999,4.808609200001229
-428.6040896316223,364,1.335995900008129
-178.69555199086875,999,4.373356500000227
-137.2149595038856,999,4.250897400008398
-287.64765972190304,954,4.787861699995119
-154.5900602525195,999,4.860456199996406
-107.34741184308011,999,4.521187599995756
-131.02659971573368,999,4.6389626000018325
-297.441165214454,313,1.1082508999970742
-114.44635521844688,999,4.86569099999906
-117.05090783506925,999,5.067779299992253
-134.50745184016904,999,4.526907699997537
-158.054220003605,999,5.465064100004383
-119.60314364057488,999,4.613966299992171
-130.89215294286686,242,0.854016600002069
-169.37119148160224,999,4.527355099999113
-176.47019827342606,999,5.340596199996071
-169.55829382844541,999,4.275293200000306
-101.6117758855916,999,4.613785599998664
-154.38139215702114,346,1.2360393999988446
-188.95664450365265,999,4.945844900008524
-190.22555252494342,999,4.2850452000129735
-173.02337261541217,999,4.886741299997084
-164.19120295978976,999,4.907894199990551
-128.62725228672107,999,5.376890400002594
-171.93467830172224,999,4.580359600004158
-159.2627128850561,999,4.8160790000110865
-457.46855255783845,562,2.4600196999963373
-170.2994785037373,999,4.870962299988605
-162.60359762065318,999,4.60158409998985
-164.4975528409961,308,1.229611400005524
-125.63001704507022,999,4.4074777999921935
-128.48529467629916,999,4.4723279000027105
-162.71325162208197,999,4.3581191999983275
-190.86390208861374,999,5.309224799988442
-180.794335890935,999,5.470135499999742
-121.77845212358078,999,4.552624500007369
-145.35220874542446,999,4.370837499998743
-123.09893301745902,999,4.482799400007934
-136.62122826090746,999,5.868126999994274
-212.12904354121952,450,1.6383299000008265
-163.9153837663866,999,4.176303200001712
-108.74593413662669,367,1.3760295000101905
-203.1381278137431,757,3.046990899994853
-182.81153905600905,549,2.163266300005489
-145.7505155620031,999,4.692137099991669
-128.32065887491646,999,5.063376500009326
-110.54049982958031,999,4.399951400002465
-183.62889281083568,999,4.673716200006311
-92.03168008167194,999,4.407023499996285
-178.7474880183766,999,4.671369600007893
-276.94750906861043,998,4.080430099988007
-541.8207183705317,136,0.45005359999777284
-464.8152899436062,699,2.7216817000007723
-100.43158595938553,225,0.7927154000062728
-229.60212463217957,882,3.588586799989571
-74.73376035274023,999,4.3262147000059485
-121.10099088127183,999,4.132283600003575
-177.75954595431205,999,4.836284199991496
-123.99161640436417,999,5.352339899996878
-101.5878718970586,999,4.0377364000014495
-178.88765888336593,999,4.5942822999932105
-116.63115666100421,999,5.066904699997394
-137.17968356044818,999,4.63582039999892
-175.2818732067975,285,1.046291899998323
-191.7380956468704,999,5.614833100000396
-104.0513410457995,999,4.557594700003392
-176.5119895680819,999,5.217601799988188
-539.5777935934433,689,2.823360100010177
-160.40021552172948,999,5.005926699988777
-104.13650795087916,999,4.619278199999826
-168.3470951153324,999,4.6968884999951115
-186.63597664536158,999,4.341942500002915
-176.4623643697083,999,4.446471300005214
-179.5054257054115,999,5.960400099997059
-172.83298696154228,999,4.769258400003309
-150.8190183949025,999,5.05519749999803
-134.51594042537494,999,4.918508399990969
-194.2845929499868,999,5.067989000002854
-114.96936929749637,999,4.40389669999422
-286.4198130418598,998,4.135472900001332
-123.90683574386324,999,4.3488444999966305
-141.87837155543676,999,4.559879899999942
-93.18498923922287,999,4.129130400004215
-139.20423218809242,999,4.619840800005477
-150.39125983131652,999,5.149431199999526
-166.91456119951167,999,5.587961400000495
-110.38729946782404,999,4.622215099996538
-536.1971624299996,130,0.45467740000458434
-117.96416313620155,999,4.042929199989885
-170.97210202790015,999,4.458686900004977
-115.42011628502848,999,4.743223099998431
-166.04288517551802,999,4.274881199991796
-110.43068361532535,999,4.612570100012817
-193.1248078989282,999,5.246087099993019
-199.76955323949542,999,4.442653100006282
-184.898721271268,999,4.416598899988458
-162.44418544751818,999,5.288454900000943
-156.71616693080188,999,5.276052300003357
-193.19182084202413,167,0.5867983999924036
-155.62896873723403,999,4.245746600005077
-110.96144920987919,999,4.864382600004319
-437.37713999019405,437,1.6114573000086239
-139.8512410223382,329,1.1770696000021417
-108.71825257305517,999,4.396327700000256
-216.1426310820561,901,3.575696899992181
-96.9365423972509,999,4.301885799999582
-184.22971561458138,999,5.24723159999121
-116.36100064011491,999,4.316017000004649
-158.6351239563223,999,4.461892999999691
-181.65251504652372,999,4.8537377000029664
-230.54511189115706,88,0.2955546999874059
-153.74584374364449,999,4.343401100006304
-124.06537072450551,999,4.596660399998655
-109.8888285325811,999,4.632313100009924
-140.36666701837873,999,5.302100799992331
-417.1924994568232,308,1.1078349000017624
-118.12695745954437,999,4.749589300001389
-116.60259182415058,999,5.017366200001561
-164.7765501865619,999,4.538941599996178
-173.14358264488166,999,4.325002099998528
-104.73165808593784,999,4.132354800007306
-169.39068224673696,999,4.698830199995427
-108.46265915249836,999,4.009992500010412
-117.83800819756806,999,5.0479392999986885
-124.74632316831749,999,4.0832205999904545
-164.38129180708106,999,4.787149800002226
-179.54683643393707,999,4.718195300010848
-171.42716877446077,999,5.5205561999900965
-171.92690321168845,999,4.615451400008169
-123.35498527869356,999,4.995927299998584
-108.82697724399053,999,3.998950599998352
-465.8370729137755,345,1.2981975000002421
-149.0744514164255,999,5.102702199990745
-155.53540716021692,999,4.367730199999642
-188.79888753911948,999,4.332901699992362
-180.54922248772502,999,4.747721600011573
-115.51743294117868,999,4.1474790000065695
-141.01784969501128,999,4.173070699995151
-146.84654207783555,999,4.1354461000009906
-181.0380814039818,999,4.6610512000042945
-144.11118902753765,999,4.227784999995492
-181.59594807934664,999,5.204556700002286
-95.39931288764481,999,4.337033399991924
-182.39010629731686,999,4.546767499996349
-103.21252472291754,999,4.150380100007169
-152.71455014545288,999,4.32160529999237
-104.8258163923335,999,4.6010768999985885
-132.81891159312647,999,5.793883799997275
-167.04005175606633,999,4.648776299989549
-166.71760771007234,999,5.314036099996883
-252.48356669161097,962,3.975723499999731
-174.21675313572382,999,5.427955499995733
-180.83857348883294,999,4.673414900011267
-137.31353405808102,999,4.499865100005991
-180.51246185460954,999,5.049525399997947
-164.3869037227251,999,4.4429514999937965
-165.23749740247453,999,4.960338600008981
-262.50194362570267,244,0.865332599991234
-107.75077095211027,999,4.87104779999936
-177.5904446145034,999,4.461469700007001
-149.41265600274062,999,4.43819749999966
-115.37150156819496,999,4.842516000004252
-70.5310861117037,999,4.039670800004387
-183.8704203955281,999,4.929622500014375
-77.89810159248033,999,4.222283200011589
-131.97147016827427,999,4.973867900000187
-323.0634434898169,436,1.725923399993917
-177.40295757081287,999,5.0634995000000345
-111.29662537944968,999,4.033806399995228
-110.06198682944333,999,4.653204499991261
-185.12944944301273,999,4.295000700003584
-164.8453209984402,999,5.106213799997931
-287.8497137666999,787,3.347458000003826
-190.93518413115348,999,4.628151400000206
-110.48113445253679,999,4.59739689998969
-323.6222815313597,871,4.0347327000054065
-148.32322448370672,999,4.46038019999105
-175.372762161603,999,4.616749599998002
-205.82876417304746,999,5.1196589000028325
-88.0093043233027,999,4.187986399992951
-151.43462142729967,999,4.663497000001371
-146.1461228895314,999,5.1156883999938145
-75.49732325124242,999,4.678052600007504
-165.1550845307399,999,4.471831700007897
-166.3210678282829,999,4.977241999993566
-94.05232454849126,999,4.120000099996105
-109.57877695959394,999,4.209850300001563
-100.59666911951184,999,4.335826900001848
-145.14517638624517,999,4.03935389999242
-180.10663988843442,999,4.44861399999354
-156.0057461594217,999,4.010123200001544
-171.3148956867975,999,4.786207400000421
-116.17442867977162,999,4.631127100001322
-156.1656580056227,999,5.127574800004368
-165.92483509954582,999,4.967302100005327
-162.62069460980476,999,4.841478899994399
-163.80236882947068,999,4.3917780999909155
-160.79838071104354,999,5.257515699995565
-195.77254881115852,999,5.212433500011684
-101.54744498998447,999,4.316960199997993
-114.17388377949172,999,5.3299365999992006
-259.49479032752504,455,1.7822381000005407
-179.41764771049426,999,4.4749551999993855
-109.26948534342726,999,4.530799200001638
-93.4976762658924,999,4.620283599986578
-186.94374123514288,999,5.132466100010788
-109.95292134207826,999,4.368036400002893
-189.92045373164603,999,5.185389599995688
-162.8191673659221,999,5.1380863999947906
-166.20972908832007,999,4.865625399994315
-156.12871819447824,999,4.3196300999989035
-159.87602186628004,999,4.550987800001167
-174.01444855125152,999,4.214916099997936
-137.4628357072615,999,4.637117699996452
-96.40374368167345,999,4.907843799999682
-107.30992769495421,999,5.020226900000125
-106.31808304557624,999,4.761083100005635
-338.0792470419901,302,1.1606003000051714
-193.5322076199666,999,4.361141500005033
-157.3986994911581,999,4.926389599990216
-154.45145076916168,999,4.698176300007617
-115.80474346155083,999,4.299933200003579
-149.80237432544448,999,4.2836641000030795
-150.52879149207862,999,4.098467999996501
-163.8748607526869,999,4.801690199994482
-199.14721487707084,999,5.579463500005659
-128.71834064182283,999,5.004254599989508
-194.6743963672744,999,4.527907600000617
-273.29392652129025,754,2.9474359000014374
-122.79987054979897,999,4.790724300008151
-171.38164185667705,999,4.875420399999712
-160.3325464468634,999,4.721862199992756
-186.12284847170002,999,5.034106399994926
-108.24871294427449,287,1.0509416999993846
-121.23851559663144,999,4.508835000000545
-103.39087917008999,999,4.754184699995676
-182.99736610780397,999,4.7319879999995464
-140.25938817011,999,5.214911400005803
-82.9772685253108,471,1.927622599992901
-94.40906173470621,184,0.6490169000026071
-155.66188694656833,999,4.502398800002993
-171.5236921580119,999,4.80077600000368
-534.4600372901114,311,1.2397099000081653
-89.80154730943227,999,4.176485000003595
-161.6874436921757,999,4.720462400000542
-97.83731507614665,999,4.7496030000038445
-178.60567173021644,999,4.858632099989336
-173.50325703408728,999,4.792603399997461
-252.39516629626752,329,1.1961253000044962
-116.44226739612208,999,5.015234799997415
-595.5640582731257,357,1.3175457999896025
-295.4361977717365,786,3.0624223000049824
-116.02629005034557,999,4.780505500006257
-103.26082348640301,999,4.2354134000052
-163.00083256484422,999,4.480236200004583
-179.7687317496618,999,4.334792499998002
-135.18765334978895,999,4.8109545999905095
-158.47915684683312,999,4.373809900003835
-111.12406047437655,999,4.917658499995014
-136.78162002730002,999,4.2273878999985754
-100.12104156537167,999,4.948129600001266
-138.1576129670561,999,4.123160899995128
-168.54819253085816,999,5.555695600007311
-126.46483125456838,999,4.293054499998107
-162.4919272575847,999,4.396974199989927
-101.89472151092892,999,5.129358100006357
-80.78732231221866,307,1.0947725000005448
-190.17021397379017,999,4.925557900001877
-205.07389925844842,339,1.2349794999900041
-114.09786027139796,999,4.205294199986383
-152.6924377732359,999,4.491993400006322
-139.34969587051293,999,4.254012000004877
-306.60870094794655,287,1.0422742999944603
-154.10369700883743,999,5.132304300001124
-92.93438499030201,999,4.307635199991637
-110.02113149816503,999,4.86307599999418
-334.7142785001528,492,1.820142600001418
-111.6636947341887,999,4.103535100002773
-163.186764023429,999,4.837930299996515
-175.31923400540316,999,4.700316300004488
-173.31714861551757,999,5.651346399987233
-99.1124749684382,999,4.715247400003136
-160.56146609094588,999,4.964489799996954
-150.18929076793344,999,4.377395300005446
-482.33715974241676,303,1.087296099998639
-178.68245321648135,999,4.669833799998742
-178.18554105638364,999,5.120743000006769
-147.64062893672633,999,3.9866389999951934
-110.37650750673623,999,4.19267740000214
-163.37891121542276,999,5.449724899997818
-168.56938662684604,999,4.242692999992869
-182.4393986092326,999,4.9864938000100665
-193.41891351465935,999,4.067869400008931
-103.13094215314861,999,4.593451400010963
-99.02040799551116,999,4.757373199987342
-88.28028565407672,999,4.097255800006678
-113.51239491702495,999,5.260381100000814
-110.43454504637054,999,4.565362699999241
-180.95440839807884,999,4.916527100009262
-103.07632099546589,999,4.020982700007153
-162.7446775877683,999,5.213111000004574
-180.94082497352468,999,4.570151199994143
-125.3812842472374,999,4.991887500000303
-157.26402612313788,999,4.463795200004824
-178.23958553245544,999,4.546280900001875
-112.70274487435309,999,4.810482400003821
-187.8400010663234,999,4.871765500007314
-148.7044846669835,999,4.5279985000088345
-134.89003745513918,999,4.356358599994564
-158.6601541623321,999,4.700799800004461
-174.89690064954073,999,4.590867699997034
-154.4263500818592,999,4.204355500012753
-111.43905704653723,999,5.00823059999675
-590.104416369904,491,1.931955799998832
-76.64610797984605,999,4.878527900000336
-175.9028531576186,999,4.769115599992801
-542.5532536272324,454,1.8363858000084292
-143.85976603287997,112,0.38117029999557417
-192.18180998266675,999,4.936833999992814
-117.66317117537473,999,4.879794899999979
-115.50411182735257,999,4.920077700007823
-186.9371764758348,758,3.059963699997752
-149.02283795849996,999,4.348478999992949
-137.53715944384737,999,5.005578800002695
-167.7707096318678,999,5.054600400006166
-111.35911298465022,999,5.202168000003439
-159.45405929624164,999,4.7928145000041695
-120.88238726173297,460,1.727520899992669
-154.9053038542186,999,4.884863100000075
-170.65217843553106,999,4.417811699997401
-113.0336473773472,999,4.700374600011855
-114.46020574451512,999,4.459079899999779
-104.38564533146702,999,4.188466200008406
-151.51803013210542,999,5.691141599992989
-142.52659924238412,999,4.111035699999775
-141.82013537123115,999,5.103591000006418
-122.06284472664935,999,4.362388900000951
-112.3420467436162,999,4.035600699993665
-135.91354882315085,999,4.454157899992424
-130.04474906243158,999,4.529806400008965
-100.06728207928049,999,4.39296659998945
-173.9940298277317,999,4.923477400006959
-141.02028344675335,999,4.2656715999910375
-143.46500887801912,999,5.204903500009095
-171.31384169423902,999,4.698750399998971
-560.1451462078462,343,1.3018943000060972
-101.98378462673466,999,5.221959900009097
-119.98142454093565,999,4.88103959998989
-101.23478014819692,999,4.569212900009006
-158.52490721077328,999,4.496022099992842
-171.82227884280377,218,0.7882072000065818
-145.32888716201418,999,5.176176399996621
-115.2104016818547,999,5.307601599997724
-170.89704810326788,999,4.600066900005913
-161.1152040088954,999,5.108921899998677
-139.35352145543334,999,4.290482800002792
-109.66125157707613,999,4.179198099998757
-128.68974665768565,999,4.2631177000002936
-155.49695214079358,999,4.444750499998918
-102.01943510741853,999,4.866966100002173
-657.8161226137381,487,1.9168039000069257
-144.0367061338787,999,4.166366300007212
-155.66479995470735,999,5.264584899996407
